data/1_1 aceton koper(ii)chloride_a/T2/delay800u002.csv

Record Length,2500,Points,-169.99999934E-6,0.0,
Sample Interval,1.000000E-6,s,-169.00000628E-6,0.0,
Trigger Point,169.99999977,Samples,-167.99999867E-6,0.0,
,,,-167.00000560E-6,0.0,
,,,-165.99999799E-6,800.000011921E-3,
,,,-165.00000493E-6,0.0,
Source,CH2,,-163.99999731E-6,800.000011921E-3,
Vertical Units,Volts,,-163.00000425E-6,0.0,
Vertical Scale,20.0000003,,-161.99999664E-6,0.0,
Vertical Offset,0,,-161.00000357E-6,0.0,
Horizontal Units,s,,-159.99999596E-6,0.0,
Horizontal Scale,249.99999937E-6,,-159.00000290E-6,0.0,
Pt Fmt,Y,,-157.99999528E-6,0.0,
Yzero,-2.0000000,,-157.00000222E-6,0.0,
Probe Atten,10.0000000,,-155.99999460E-6,0.0,
,,,-155.00000154E-6,0.0,
Note,TDS 2024B - 12:20:20   15-11-2021,,-153.99999393E-6,0.0,
,,,-153.00000086E-6,0.0,
,,,-151.99999325E-6,0.0,
,,,-151.00000019E-6,0.0,
,,,-149.99999257E-6,0.0,
,,,-148.99999951E-6,0.0,
,,,-148.0000064E-6,0.0,
,,,-146.9999988E-6,0.0,
,,,-146.0000058E-6,0.0,
,,,-144.9999982E-6,0.0,
,,,-144.0000051E-6,0.0,
,,,-142.9999975E-6,0.0,
,,,-142.0000044E-6,0.0,
,,,-140.9999968E-6,0.0,
,,,-140.0000037E-6,0.0,
,,,-138.9999961E-6,-800.000011921E-3,
,,,-138.0000031E-6,0.0,
,,,-136.9999954E-6,0.0,
,,,-136.0000024E-6,0.0,
,,,-134.9999948E-6,0.0,
,,,-134.0000017E-6,0.0,
,,,-132.9999941E-6,0.0,
,,,-132.0000010E-6,0.0,
,,,-130.9999934E-6,0.0,
,,,-130.0000004E-6,0.0,
,,,-128.9999927E-6,0.0,
,,,-127.9999997E-6,0.0,
,,,-127.0000066E-6,800.000011921E-3,
,,,-125.9999990E-6,0.0,
,,,-125.0000059E-6,800.000011921E-3,
,,,-123.9999983E-6,800.000011921E-3,
,,,-123.0000053E-6,0.0,
,,,-121.9999976E-6,800.000011921E-3,
,,,-120.9999973E-6,800.000011921E-3,
,,,-119.9999970E-6,800.000011921E-3,
,,,-118.9999966E-6,800.000011921E-3,
,,,-117.9999963E-6,800.000011921E-3,
,,,-116.9999960E-6,0.0,
,,,-116.0000029E-6,0.0,
,,,-115.0000026E-6,-800.000011921E-3,
,,,-114.0000022E-6,0.0,
,,,-113.0000019E-6,0.0,
,,,-112.0000015E-6,0.0,
,,,-111.0000012E-6,0.0,
,,,-110.0000009E-6,0.0,
,,,-109.0000005E-6,0.0,
,,,-108.0000002E-6,0.0,
,,,-106.9999998E-6,0.0,
,,,-105.9999995E-6,0.0,
,,,-104.9999992E-6,0.0,
,,,-103.9999988E-6,0.0,
,,,-102.9999985E-6,0.0,
,,,-101.9999982E-6,0.0,
,,,-100.9999978E-6,0.0,
,,,-99.999997474E-6,0.0,
,,,-98.999997135E-6,0.0,
,,,-97.999996797E-6,0.0,
,,,-96.999996458E-6,0.0,
,,,-95.999996120E-6,0.0,
,,,-95.000003057E-6,0.0,
,,,-94.000002719E-6,0.0,
,,,-93.000002380E-6,0.0,
,,,-92.000002041E-6,0.0,
,,,-91.000001703E-6,0.0,
,,,-90.000001364E-6,0.0,
,,,-89.000001026E-6,0.0,
,,,-88.000000687E-6,0.0,
,,,-87.000000349E-6,0.0,
,,,-86.000000010E-6,0.0,
,,,-84.999999672E-6,0.0,
,,,-83.999999333E-6,0.0,
,,,-82.999998995E-6,0.0,
,,,-81.999998656E-6,0.0,
,,,-80.999998318E-6,0.0,
,,,-79.999997979E-6,0.0,
,,,-78.999997640E-6,0.0,
,,,-77.999997302E-6,800.000011921E-3,
,,,-76.999996963E-6,800.000011921E-3,
,,,-75.999996625E-6,800.000011921E-3,
,,,-74.999996286E-6,800.000011921E-3,
,,,-73.999995948E-6,800.000011921E-3,
,,,-73.000002885E-6,0.0,
,,,-72.000002547E-6,0.0,
,,,-71.000002208E-6,0.0,
,,,-70.000001870E-6,0.0,
,,,-69.000001531E-6,0.0,
,,,-68.000001193E-6,0.0,
,,,-67.000000854E-6,0.0,
,,,-66.000000515E-6,0.0,
,,,-65.000000177E-6,0.0,
,,,-63.999999838E-6,0.0,
,,,-62.999999500E-6,0.0,
,,,-61.999999161E-6,0.0,
,,,-60.999998823E-6,0.0,
,,,-59.999998484E-6,0.0,
,,,-58.999998146E-6,0.0,
,,,-57.999997807E-6,0.0,
,,,-57.000001107E-6,0.0,
,,,-56.000000768E-6,0.0,
,,,-55.000000430E-6,0.0,
,,,-54.00000009E-6,0.0,
,,,-52.99999975E-6,0.0,
,,,-51.99999941E-6,800.000011921E-3,
,,,-50.99999908E-6,800.000011921E-3,
,,,-49.99999874E-6,0.0,
,,,-48.99999840E-6,800.000011921E-3,
,,,-47.99999806E-6,800.000011921E-3,
,,,-47.00000136E-6,0.0,
,,,-46.00000102E-6,0.0,
,,,-45.00000068E-6,0.0,
,,,-44.00000034E-6,800.000011921E-3,
,,,-43.00000001E-6,800.000011921E-3,
,,,-41.99999967E-6,800.000011921E-3,
,,,-40.99999933E-6,800.000011921E-3,
,,,-39.99999899E-6,800.000011921E-3,
,,,-38.99999865E-6,0.0,
,,,-37.99999831E-6,0.0,
,,,-36.99999797E-6,0.0,
,,,-36.00000127E-6,0.0,
,,,-35.00000093E-6,0.0,
,,,-34.00000060E-6,0.0,
,,,-33.00000026E-6,0.0,
,,,-31.99999992E-6,0.0,
,,,-30.99999958E-6,0.0,
,,,-29.99999924E-6,0.0,
,,,-28.99999890E-6,0.0,
,,,-28.00000038E-6,0.0,
,,,-27.00000005E-6,0.0,
,,,-25.99999971E-6,0.0,
,,,-24.99999937E-6,0.0,
,,,-23.99999903E-6,0.0,
,,,-23.00000051E-6,0.0,
,,,-22.00000017E-6,0.0,
,,,-20.99999983E-6,0.0,
,,,-19.9999995E-6,0.0,
,,,-18.9999992E-6,0.0,
,,,-17.9999988E-6,0.0,
,,,-17.0000003E-6,0.0,
,,,-16.0000000E-6,0.0,
,,,-14.9999996E-6,0.0,
,,,-13.9999993E-6,800.000011921E-3,
,,,-12.9999999E-6,0.0,
,,,-11.9999995E-6,0.0,
,,,-11.0000001E-6,0.0,
,,,-9.999999747E-6,0.0,
,,,-8.999999409E-6,0.0,
,,,-7.999999980E-6,0.0,
,,,-6.99999964E-6,0.0,
,,,-5.99999976E-6,0.0,
,,,-4.99999987E-6,0.0,
,,,-3.99999954E-6,0.0,
,,,-2.99999965E-6,0.0,
,,,-1.9999998E-6,0.0,
,,,-999.999770102E-9,0.0,
,,,227.37367249E-15,800.000011921E-3,
,,,1.0000002E-6,8.800000191,
,,,2.0000002E-6,24.00000000,
,,,3.00000011E-6,36.79999924,
,,,4.00000044E-6,48.79999924,
,,,5.00000033E-6,55.200000763,
,,,6.00000021E-6,62.400001526,
,,,7.00000010E-6,69.599998474,
,,,7.999999980E-6,73.599998474,
,,,9.000000318E-6,76.800003052,
,,,9.999999747E-6,79.200004578,
,,,11.0000001E-6,82.400001526,
,,,12.0000004E-6,84.000000000,
,,,12.9999999E-6,84.800003052,
,,,14.0000002E-6,87.200004578,
,,,15.0000005E-6,88.000000000,
,,,16.0000000E-6,88.000000000,
,,,17.0000003E-6,89.599998474,
,,,18.0000006E-6,90.400001526,
,,,19.0000010E-6,90.400001526,
,,,19.9999995E-6,90.400001526,
,,,20.99999983E-6,91.200004578,
,,,22.00000017E-6,91.200004578,
,,,23.00000051E-6,91.200004578,
,,,24.00000085E-6,91.200004578,
,,,24.99999937E-6,92.000000000,
,,,25.99999971E-6,90.400001526,
,,,27.00000005E-6,86.400001526,
,,,28.00000038E-6,80.800003052,
,,,29.00000072E-6,75.200004578,
,,,29.99999924E-6,70.400001526,
,,,30.99999958E-6,65.599998474,
,,,31.99999992E-6,60.799999237,
,,,33.00000026E-6,57.600002289,
,,,34.00000060E-6,53.60000229,
,,,35.00000093E-6,51.20000076,
,,,36.00000127E-6,48.79999924,
,,,37.00000161E-6,47.20000076,
,,,37.99999831E-6,44.79999924,
,,,38.99999865E-6,44.00000000,
,,,39.99999899E-6,42.40000153,
,,,40.99999933E-6,41.60000229,
,,,41.99999967E-6,40.79999924,
,,,43.00000001E-6,40.00000000,
,,,44.00000034E-6,38.40000153,
,,,45.00000068E-6,38.40000153,
,,,46.00000102E-6,37.60000229,
,,,47.00000136E-6,37.60000229,
,,,48.00000170E-6,36.79999924,
,,,48.99999840E-6,36.00000000,
,,,49.99999874E-6,36.00000000,
,,,50.99999908E-6,36.00000000,
,,,51.99999941E-6,36.00000000,
,,,52.99999975E-6,36.00000000,
,,,54.00000009E-6,36.00000000,
,,,55.000000430E-6,36.00000000,
,,,56.000000768E-6,35.20000076,
,,,57.000001107E-6,35.20000076,
,,,58.000001445E-6,35.20000076,
,,,59.000001784E-6,35.20000076,
,,,59.999998484E-6,35.20000076,
,,,60.999998823E-6,35.20000076,
,,,61.999999161E-6,35.20000076,
,,,62.999999500E-6,34.40000153,
,,,63.999999838E-6,34.40000153,
,,,65.000000177E-6,34.40000153,
,,,66.000000515E-6,33.60000229,
,,,67.000000854E-6,33.60000229,
,,,68.000001193E-6,33.60000229,
,,,69.000001531E-6,33.60000229,
,,,70.000001870E-6,33.60000229,
,,,71.000002208E-6,33.60000229,
,,,72.000002547E-6,33.60000229,
,,,73.000002885E-6,33.60000229,
,,,74.000003224E-6,33.60000229,
,,,75.000003562E-6,32.79999924,
,,,75.999996625E-6,33.60000229,
,,,76.999996963E-6,32.79999924,
,,,77.999997302E-6,33.60000229,
,,,78.999997640E-6,32.79999924,
,,,79.999997979E-6,32.79999924,
,,,80.999998318E-6,33.60000229,
,,,81.999998656E-6,32.79999924,
,,,82.999998995E-6,32.79999924,
,,,83.999999333E-6,32.79999924,
,,,84.999999672E-6,32.79999924,
,,,86.000000010E-6,33.60000229,
,,,87.000000349E-6,32.79999924,
,,,88.000000687E-6,32.79999924,
,,,89.000001026E-6,32.79999924,
,,,90.000001364E-6,32.79999924,
,,,91.000001703E-6,32.79999924,
,,,92.000002041E-6,32.00000000,
,,,93.000002380E-6,32.00000000,
,,,94.000002719E-6,32.00000000,
,,,95.000003057E-6,32.00000000,
,,,96.000003396E-6,31.20000076,
,,,96.999996458E-6,32.00000000,
,,,97.999996797E-6,32.00000000,
,,,98.999997135E-6,31.20000076,
,,,99.999997474E-6,32.00000000,
,,,100.9999978E-6,32.00000000,
,,,101.9999982E-6,32.00000000,
,,,102.9999985E-6,31.20000076,
,,,103.9999988E-6,31.20000076,
,,,104.9999992E-6,32.00000000,
,,,105.9999995E-6,31.20000076,
,,,106.9999998E-6,31.20000076,
,,,108.0000002E-6,31.20000076,
,,,109.0000005E-6,31.20000076,
,,,110.0000009E-6,30.39999962,
,,,111.0000012E-6,30.39999962,
,,,112.0000015E-6,30.39999962,
,,,113.0000019E-6,30.39999962,
,,,114.0000022E-6,30.39999962,
,,,115.0000026E-6,30.39999962,
,,,116.0000029E-6,30.39999962,
,,,117.0000032E-6,31.20000076,
,,,117.9999963E-6,30.39999962,
,,,118.9999966E-6,30.39999962,
,,,119.9999970E-6,29.60000038,
,,,120.9999973E-6,30.39999962,
,,,121.9999976E-6,30.39999962,
,,,123.0000053E-6,30.39999962,
,,,123.9999983E-6,30.39999962,
,,,125.0000059E-6,30.39999962,
,,,125.9999990E-6,30.39999962,
,,,127.0000066E-6,29.60000038,
,,,127.9999997E-6,29.60000038,
,,,128.9999927E-6,29.60000038,
,,,130.0000004E-6,29.60000038,
,,,130.9999934E-6,29.60000038,
,,,132.0000010E-6,29.60000038,
,,,132.9999941E-6,28.80000114,
,,,134.0000017E-6,28.80000114,
,,,134.9999948E-6,28.80000114,
,,,136.0000024E-6,28.80000114,
,,,136.9999954E-6,28.00000000,
,,,138.0000031E-6,28.00000000,
,,,138.9999961E-6,28.00000000,
,,,140.0000037E-6,27.20000076,
,,,140.9999968E-6,27.20000076,
,,,142.0000044E-6,27.20000076,
,,,142.9999975E-6,27.20000076,
,,,144.0000051E-6,27.20000076,
,,,144.9999982E-6,26.39999962,
,,,146.0000058E-6,27.20000076,
,,,146.9999988E-6,27.20000076,
,,,148.0000064E-6,27.20000076,
,,,148.99999951E-6,27.20000076,
,,,150.00000712E-6,27.20000076,
,,,151.00000019E-6,27.20000076,
,,,151.99999325E-6,27.20000076,
,,,153.00000086E-6,27.20000076,
,,,153.99999393E-6,27.20000076,
,,,155.00000154E-6,26.39999962,
,,,155.99999460E-6,26.39999962,
,,,157.00000222E-6,26.39999962,
,,,157.99999528E-6,27.20000076,
,,,159.00000290E-6,26.39999962,
,,,159.99999596E-6,27.20000076,
,,,161.00000357E-6,26.39999962,
,,,161.99999664E-6,26.39999962,
,,,163.00000425E-6,25.60000038,
,,,163.99999731E-6,25.60000038,
,,,165.00000493E-6,25.60000038,
,,,165.99999799E-6,25.60000038,
,,,167.00000560E-6,25.60000038,
,,,167.99999867E-6,25.60000038,
,,,169.00000628E-6,24.80000114,
,,,169.99999934E-6,25.60000038,
,,,171.00000696E-6,24.80000114,
,,,172.00000002E-6,24.80000114,
,,,172.99999308E-6,24.80000114,
,,,174.00000070E-6,24.80000114,
,,,174.99999376E-6,24.80000114,
,,,176.00000137E-6,24.80000114,
,,,176.99999444E-6,24.80000114,
,,,178.00000205E-6,24.80000114,
,,,178.99999511E-6,24.80000114,
,,,180.00000273E-6,24.00000000,
,,,180.99999579E-6,24.00000000,
,,,182.00000341E-6,24.00000000,
,,,182.99999647E-6,24.00000000,
,,,184.00000408E-6,24.00000000,
,,,184.99999715E-6,24.80000114,
,,,186.00000476E-6,24.00000000,
,,,186.99999782E-6,24.00000000,
,,,188.00000544E-6,24.00000000,
,,,188.99999850E-6,24.00000000,
,,,190.00000611E-6,23.20000076,
,,,190.99999918E-6,24.00000000,
,,,192.00000679E-6,24.00000000,
,,,192.99999985E-6,23.20000076,
,,,193.99999292E-6,23.20000076,
,,,195.00000053E-6,23.20000076,
,,,195.99999359E-6,23.20000076,
,,,197.00000121E-6,23.20000076,
,,,197.99999427E-6,22.39999962,
,,,199.00000188E-6,22.39999962,
,,,199.99999495E-6,22.39999962,
,,,201.00000256E-6,22.39999962,
,,,201.99999562E-6,23.20000076,
,,,203.00000324E-6,22.39999962,
,,,203.99999630E-6,22.39999962,
,,,205.00000392E-6,21.60000038,
,,,205.99999698E-6,21.60000038,
,,,207.00000459E-6,21.60000038,
,,,207.99999766E-6,21.60000038,
,,,209.00000527E-6,21.60000038,
,,,209.99999833E-6,20.80000114,
,,,211.00000595E-6,20.80000114,
,,,211.99999901E-6,20.80000114,
,,,213.00000662E-6,20.80000114,
,,,213.99999969E-6,20.80000114,
,,,214.99999275E-6,20.80000114,
,,,216.00000036E-6,20.0000000,
,,,216.99999343E-6,20.0000000,
,,,218.00000104E-6,20.0000000,
,,,218.99999410E-6,20.0000000,
,,,220.00000172E-6,20.0000000,
,,,220.99999478E-6,20.0000000,
,,,222.00000240E-6,20.0000000,
,,,222.99999546E-6,20.0000000,
,,,224.00000307E-6,19.2000008,
,,,224.99999614E-6,19.2000008,
,,,226.00000375E-6,19.2000008,
,,,226.99999681E-6,19.2000008,
,,,228.00000443E-6,18.3999996,
,,,228.99999749E-6,18.3999996,
,,,230.00000510E-6,18.3999996,
,,,230.99999817E-6,18.3999996,
,,,232.00000578E-6,18.3999996,
,,,232.99999884E-6,18.3999996,
,,,234.00000646E-6,17.6000004,
,,,234.99999952E-6,17.6000004,
,,,235.99999258E-6,17.6000004,
,,,237.00000020E-6,17.6000004,
,,,237.99999326E-6,17.6000004,
,,,239.00000087E-6,17.6000004,
,,,239.99999394E-6,17.6000004,
,,,241.00000155E-6,17.6000004,
,,,241.99999461E-6,17.6000004,
,,,243.00000223E-6,18.3999996,
,,,243.99999529E-6,18.3999996,
,,,245.00000291E-6,18.3999996,
,,,246.00001052E-6,17.6000004,
,,,246.99998903E-6,17.6000004,
,,,247.99999665E-6,17.6000004,
,,,249.00000426E-6,17.6000004,
,,,250.00001187E-6,16.8000011,
,,,250.99999039E-6,16.8000011,
,,,251.99999800E-6,16.8000011,
,,,253.00000561E-6,16.0000000,
,,,254.00001323E-6,16.0000000,
,,,254.99999174E-6,16.8000011,
,,,255.99999935E-6,16.0000000,
,,,257.00000697E-6,16.0000000,
,,,257.99998548E-6,16.0000000,
,,,258.99999309E-6,16.0000000,
,,,260.00000071E-6,16.0000000,
,,,261.00000832E-6,15.1999998,
,,,261.99998683E-6,15.1999998,
,,,262.99999445E-6,16.0000000,
,,,264.00000206E-6,16.0000000,
,,,265.00000968E-6,16.0000000,
,,,265.99998819E-6,15.1999998,
,,,266.99999580E-6,15.1999998,
,,,268.00000342E-6,15.1999998,
,,,269.00001103E-6,14.4000006,
,,,269.99998954E-6,14.4000006,
,,,270.99999716E-6,15.1999998,
,,,272.00000477E-6,14.4000006,
,,,273.00001238E-6,14.4000006,
,,,273.99999090E-6,14.4000006,
,,,274.99999851E-6,14.4000006,
,,,276.00000612E-6,14.4000006,
,,,277.00001374E-6,15.1999998,
,,,277.99999225E-6,14.4000006,
,,,278.99999986E-6,14.4000006,
,,,280.00000748E-6,14.4000006,
,,,280.99998599E-6,13.6000004,
,,,281.99999360E-6,13.6000004,
,,,283.00000122E-6,13.6000004,
,,,284.00000883E-6,13.6000004,
,,,284.99998734E-6,13.6000004,
,,,285.99999496E-6,12.8000002,
,,,287.00000257E-6,12.8000002,
,,,288.00001019E-6,12.8000002,
,,,288.99998870E-6,12.8000002,
,,,289.99999631E-6,12.8000002,
,,,291.00000393E-6,12.8000002,
,,,292.00001154E-6,12.8000002,
,,,292.99999005E-6,12.0000000,
,,,293.99999767E-6,11.1999998,
,,,295.00000528E-6,12.0000000,
,,,296.00001290E-6,12.0000000,
,,,296.99999141E-6,11.1999998,
,,,297.99999902E-6,12.0000000,
,,,299.00000663E-6,12.0000000,
,,,299.99998515E-6,12.0000000,
,,,300.99999276E-6,12.0000000,
,,,302.00000037E-6,12.0000000,
,,,303.00000799E-6,11.1999998,
,,,303.99998650E-6,11.1999998,
,,,304.99999411E-6,11.1999998,
,,,306.00000173E-6,10.4000006,
,,,307.00000934E-6,10.4000006,
,,,307.99998785E-6,10.4000006,
,,,308.99999547E-6,10.4000006,
,,,310.00000308E-6,10.4000006,
,,,311.00001070E-6,10.4000006,
,,,311.99998921E-6,10.4000006,
,,,312.99999682E-6,10.4000006,
,,,314.00000444E-6,10.4000006,
,,,315.00001205E-6,10.4000006,
,,,315.99999056E-6,10.4000006,
,,,316.99999818E-6,10.4000006,
,,,318.00000579E-6,9.600000381,
,,,319.00001341E-6,9.600000381,
,,,319.99999192E-6,9.600000381,
,,,320.99999953E-6,9.600000381,
,,,322.00000715E-6,10.4000006,
,,,322.99998566E-6,10.4000006,
,,,323.99999327E-6,10.4000006,
,,,325.00000088E-6,10.4000006,
,,,326.00000850E-6,10.4000006,
,,,326.99998701E-6,10.4000006,
,,,327.99999462E-6,10.4000006,
,,,329.00000224E-6,9.600000381,
,,,330.00000985E-6,9.600000381,
,,,330.99998836E-6,9.600000381,
,,,331.99999598E-6,8.800000191,
,,,333.00000359E-6,8.800000191,
,,,334.00001121E-6,8.800000191,
,,,334.99998972E-6,8.800000191,
,,,335.99999733E-6,8.800000191,
,,,337.00000495E-6,8.800000191,
,,,338.00001256E-6,8.000000000,
,,,338.99999107E-6,8.000000000,
,,,339.99999869E-6,8.000000000,
,,,341.00000630E-6,8.000000000,
,,,341.99998481E-6,8.000000000,
,,,342.99999243E-6,8.800000191,
,,,344.00000004E-6,8.800000191,
,,,345.00000766E-6,8.800000191,
,,,345.99998617E-6,8.800000191,
,,,346.99999378E-6,8.000000000,
,,,348.00000140E-6,8.000000000,
,,,349.00000901E-6,7.20000029,
,,,349.99998752E-6,7.20000029,
,,,350.99999513E-6,7.20000029,
,,,352.00000275E-6,7.20000029,
,,,353.00001036E-6,7.20000029,
,,,353.99998887E-6,6.40000010,
,,,354.99999649E-6,7.20000029,
,,,356.00000410E-6,6.40000010,
,,,357.00001172E-6,6.40000010,
,,,357.99999023E-6,6.40000010,
,,,358.99999784E-6,6.40000010,
,,,360.00000546E-6,6.40000010,
,,,361.00001307E-6,6.40000010,
,,,361.99999158E-6,6.40000010,
,,,362.99999920E-6,6.40000010,
,,,364.00000681E-6,6.40000010,
,,,364.99998532E-6,5.59999990,
,,,365.99999294E-6,5.59999990,
,,,367.00000055E-6,5.59999990,
,,,368.00000817E-6,5.59999990,
,,,368.99998668E-6,5.59999990,
,,,369.99999429E-6,5.59999990,
,,,371.00000191E-6,5.59999990,
,,,372.00000952E-6,5.59999990,
,,,372.99998803E-6,5.59999990,
,,,373.99999565E-6,5.59999990,
,,,375.00000326E-6,5.59999990,
,,,376.00001087E-6,5.59999990,
,,,376.99998938E-6,5.59999990,
,,,377.99999700E-6,5.59999990,
,,,379.00000461E-6,5.59999990,
,,,380.00001223E-6,4.80000019,
,,,380.99999074E-6,4.80000019,
,,,381.99999835E-6,4.80000019,
,,,383.00000597E-6,4.80000019,
,,,384.00001358E-6,4.80000019,
,,,384.99999209E-6,4.80000019,
,,,385.99999971E-6,4.80000019,
,,,387.00000732E-6,4.80000019,
,,,387.99998583E-6,4.80000019,
,,,388.99999345E-6,4.80000019,
,,,390.00000106E-6,4.80000019,
,,,391.00000868E-6,5.59999990,
,,,391.99998719E-6,4.80000019,
,,,392.99999480E-6,4.80000019,
,,,394.00000242E-6,4.00000000,
,,,395.00001003E-6,4.80000019,
,,,395.99998854E-6,4.00000000,
,,,396.99999616E-6,4.00000000,
,,,398.00000377E-6,4.00000000,
,,,399.00001138E-6,4.00000000,
,,,399.99998990E-6,4.00000000,
,,,400.99999751E-6,3.20000005,
,,,402.00000512E-6,3.20000005,
,,,403.00001274E-6,3.20000005,
,,,403.999991249E-6,3.20000005,
,,,404.999998864E-6,3.20000005,
,,,406.000006478E-6,3.20000005,
,,,406.999984989E-6,3.20000005,
,,,407.999992603E-6,3.20000005,
,,,409.000000218E-6,3.20000005,
,,,410.000007832E-6,3.20000005,
,,,410.999986343E-6,3.20000005,
,,,411.999993958E-6,3.20000005,
,,,413.000001572E-6,3.20000005,
,,,414.000009187E-6,3.20000005,
,,,414.999987697E-6,3.20000005,
,,,415.999995312E-6,3.20000005,
,,,417.000002926E-6,3.20000005,
,,,418.000010541E-6,3.20000005,
,,,418.999989051E-6,2.4000001,
,,,419.999996666E-6,2.4000001,
,,,421.000004280E-6,2.4000001,
,,,422.000011895E-6,2.4000001,
,,,422.999990406E-6,2.4000001,
,,,423.999998020E-6,2.4000001,
,,,425.000005635E-6,2.4000001,
,,,426.000013249E-6,2.4000001,
,,,426.999991760E-6,2.4000001,
,,,427.999999374E-6,2.4000001,
,,,429.000006989E-6,2.4000001,
,,,429.999985499E-6,2.4000001,
,,,430.999993114E-6,2.4000001,
,,,432.000000728E-6,2.4000001,
,,,433.000008343E-6,2.4000001,
,,,433.999986853E-6,2.4000001,
,,,434.999994468E-6,1.6000000,
,,,436.000002082E-6,1.6000000,
,,,437.000009697E-6,1.6000000,
,,,437.999988208E-6,1.6000000,
,,,438.999995822E-6,1.6000000,
,,,440.000003437E-6,1.6000000,
,,,441.000011051E-6,800.000011921E-3,
,,,441.999989562E-6,1.6000000,
,,,442.999997176E-6,800.000011921E-3,
,,,444.000004791E-6,1.6000000,
,,,445.000012405E-6,1.6000000,
,,,445.999990916E-6,1.6000000,
,,,446.999998530E-6,1.6000000,
,,,448.000006145E-6,1.6000000,
,,,448.999984656E-6,1.6000000,
,,,449.999992270E-6,1.6000000,
,,,450.999999885E-6,1.6000000,
,,,452.000007499E-6,800.000011921E-3,
,,,452.999986010E-6,1.6000000,
,,,453.999993624E-6,1.6000000,
,,,455.000001239E-6,800.000011921E-3,
,,,456.000008853E-6,1.6000000,
,,,456.999987364E-6,1.6000000,
,,,457.999994978E-6,1.6000000,
,,,459.000002593E-6,1.6000000,
,,,460.000010207E-6,2.4000001,
,,,460.999988718E-6,2.4000001,
,,,461.999996332E-6,1.6000000,
,,,463.000003947E-6,2.4000001,
,,,464.000011561E-6,2.4000001,
,,,464.999990072E-6,2.4000001,
,,,465.999997687E-6,1.6000000,
,,,467.000005301E-6,1.6000000,
,,,468.000012916E-6,1.6000000,
,,,468.999991426E-6,1.6000000,
,,,469.999999041E-6,1.6000000,
,,,471.000006655E-6,1.6000000,
,,,471.999985166E-6,1.6000000,
,,,472.999992780E-6,1.6000000,
,,,474.000000395E-6,1.6000000,
,,,475.000008009E-6,800.000011921E-3,
,,,475.999986520E-6,800.000011921E-3,
,,,476.999994135E-6,800.000011921E-3,
,,,478.000001749E-6,800.000011921E-3,
,,,479.000009364E-6,800.000011921E-3,
,,,479.999987874E-6,800.000011921E-3,
,,,480.999995489E-6,800.000011921E-3,
,,,482.000003103E-6,800.000011921E-3,
