data/1_1 aceton koper(ii)chloride_a/T2/delay950u001.csv

Record Length,2500,Points,-169.99999934E-6,800.000011921E-3,
Sample Interval,1.000000E-6,s,-169.00000628E-6,800.000011921E-3,
Trigger Point,169.99999977,Samples,-167.99999867E-6,800.000011921E-3,
,,,-167.00000560E-6,800.000011921E-3,
,,,-165.99999799E-6,0.0,
,,,-165.00000493E-6,0.0,
Source,CH1,,-163.99999731E-6,800.000011921E-3,
Vertical Units,Volts,,-163.00000425E-6,800.000011921E-3,
Vertical Scale,20.0000003,,-161.99999664E-6,800.000011921E-3,
Vertical Offset,0,,-161.00000357E-6,800.000011921E-3,
Horizontal Units,s,,-159.99999596E-6,0.0,
Horizontal Scale,249.99999937E-6,,-159.00000290E-6,800.000011921E-3,
Pt Fmt,Y,,-157.99999528E-6,0.0,
Yzero,-2.0000000,,-157.00000222E-6,800.000011921E-3,
Probe Atten,10.0000000,,-155.99999460E-6,0.0,
,,,-155.00000154E-6,800.000011921E-3,
Note,TDS 2024B - 12:21:34   15-11-2021,,-153.99999393E-6,0.0,
,,,-153.00000086E-6,0.0,
,,,-151.99999325E-6,0.0,
,,,-151.00000019E-6,800.000011921E-3,
,,,-149.99999257E-6,800.000011921E-3,
,,,-148.99999951E-6,800.000011921E-3,
,,,-148.0000064E-6,0.0,
,,,-146.9999988E-6,0.0,
,,,-146.0000058E-6,0.0,
,,,-144.9999982E-6,800.000011921E-3,
,,,-144.0000051E-6,0.0,
,,,-142.9999975E-6,800.000011921E-3,
,,,-142.0000044E-6,0.0,
,,,-140.9999968E-6,0.0,
,,,-140.0000037E-6,0.0,
,,,-138.9999961E-6,800.000011921E-3,
,,,-138.0000031E-6,800.000011921E-3,
,,,-136.9999954E-6,800.000011921E-3,
,,,-136.0000024E-6,0.0,
,,,-134.9999948E-6,0.0,
,,,-134.0000017E-6,800.000011921E-3,
,,,-132.9999941E-6,0.0,
,,,-132.0000010E-6,800.000011921E-3,
,,,-130.9999934E-6,800.000011921E-3,
,,,-130.0000004E-6,800.000011921E-3,
,,,-128.9999927E-6,800.000011921E-3,
,,,-127.9999997E-6,800.000011921E-3,
,,,-127.0000066E-6,800.000011921E-3,
,,,-125.9999990E-6,800.000011921E-3,
,,,-125.0000059E-6,800.000011921E-3,
,,,-123.9999983E-6,800.000011921E-3,
,,,-123.0000053E-6,800.000011921E-3,
,,,-121.9999976E-6,800.000011921E-3,
,,,-120.9999973E-6,0.0,
,,,-119.9999970E-6,0.0,
,,,-118.9999966E-6,800.000011921E-3,
,,,-117.9999963E-6,800.000011921E-3,
,,,-116.9999960E-6,800.000011921E-3,
,,,-116.0000029E-6,800.000011921E-3,
,,,-115.0000026E-6,0.0,
,,,-114.0000022E-6,0.0,
,,,-113.0000019E-6,0.0,
,,,-112.0000015E-6,800.000011921E-3,
,,,-111.0000012E-6,800.000011921E-3,
,,,-110.0000009E-6,800.000011921E-3,
,,,-109.0000005E-6,0.0,
,,,-108.0000002E-6,800.000011921E-3,
,,,-106.9999998E-6,800.000011921E-3,
,,,-105.9999995E-6,0.0,
,,,-104.9999992E-6,0.0,
,,,-103.9999988E-6,800.000011921E-3,
,,,-102.9999985E-6,800.000011921E-3,
,,,-101.9999982E-6,800.000011921E-3,
,,,-100.9999978E-6,800.000011921E-3,
,,,-99.999997474E-6,800.000011921E-3,
,,,-98.999997135E-6,800.000011921E-3,
,,,-97.999996797E-6,0.0,
,,,-96.999996458E-6,800.000011921E-3,
,,,-95.999996120E-6,800.000011921E-3,
,,,-95.000003057E-6,0.0,
,,,-94.000002719E-6,800.000011921E-3,
,,,-93.000002380E-6,800.000011921E-3,
,,,-92.000002041E-6,800.000011921E-3,
,,,-91.000001703E-6,0.0,
,,,-90.000001364E-6,800.000011921E-3,
,,,-89.000001026E-6,0.0,
,,,-88.000000687E-6,800.000011921E-3,
,,,-87.000000349E-6,800.000011921E-3,
,,,-86.000000010E-6,800.000011921E-3,
,,,-84.999999672E-6,800.000011921E-3,
,,,-83.999999333E-6,800.000011921E-3,
,,,-82.999998995E-6,800.000011921E-3,
,,,-81.999998656E-6,800.000011921E-3,
,,,-80.999998318E-6,0.0,
,,,-79.999997979E-6,800.000011921E-3,
,,,-78.999997640E-6,800.000011921E-3,
,,,-77.999997302E-6,0.0,
,,,-76.999996963E-6,800.000011921E-3,
,,,-75.999996625E-6,0.0,
,,,-74.999996286E-6,800.000011921E-3,
,,,-73.999995948E-6,0.0,
,,,-73.000002885E-6,0.0,
,,,-72.000002547E-6,800.000011921E-3,
,,,-71.000002208E-6,0.0,
,,,-70.000001870E-6,800.000011921E-3,
,,,-69.000001531E-6,800.000011921E-3,
,,,-68.000001193E-6,800.000011921E-3,
,,,-67.000000854E-6,800.000011921E-3,
,,,-66.000000515E-6,800.000011921E-3,
,,,-65.000000177E-6,0.0,
,,,-63.999999838E-6,800.000011921E-3,
,,,-62.999999500E-6,0.0,
,,,-61.999999161E-6,0.0,
,,,-60.999998823E-6,800.000011921E-3,
,,,-59.999998484E-6,800.000011921E-3,
,,,-58.999998146E-6,0.0,
,,,-57.999997807E-6,800.000011921E-3,
,,,-57.000001107E-6,800.000011921E-3,
,,,-56.000000768E-6,800.000011921E-3,
,,,-55.000000430E-6,800.000011921E-3,
,,,-54.00000009E-6,800.000011921E-3,
,,,-52.99999975E-6,800.000011921E-3,
,,,-51.99999941E-6,0.0,
,,,-50.99999908E-6,0.0,
,,,-49.99999874E-6,800.000011921E-3,
,,,-48.99999840E-6,800.000011921E-3,
,,,-47.99999806E-6,800.000011921E-3,
,,,-47.00000136E-6,800.000011921E-3,
,,,-46.00000102E-6,0.0,
,,,-45.00000068E-6,0.0,
,,,-44.00000034E-6,800.000011921E-3,
,,,-43.00000001E-6,800.000011921E-3,
,,,-41.99999967E-6,800.000011921E-3,
,,,-40.99999933E-6,800.000011921E-3,
,,,-39.99999899E-6,0.0,
,,,-38.99999865E-6,0.0,
,,,-37.99999831E-6,800.000011921E-3,
,,,-36.99999797E-6,800.000011921E-3,
,,,-36.00000127E-6,800.000011921E-3,
,,,-35.00000093E-6,800.000011921E-3,
,,,-34.00000060E-6,0.0,
,,,-33.00000026E-6,0.0,
,,,-31.99999992E-6,800.000011921E-3,
,,,-30.99999958E-6,800.000011921E-3,
,,,-29.99999924E-6,0.0,
,,,-28.99999890E-6,800.000011921E-3,
,,,-28.00000038E-6,0.0,
,,,-27.00000005E-6,800.000011921E-3,
,,,-25.99999971E-6,800.000011921E-3,
,,,-24.99999937E-6,0.0,
,,,-23.99999903E-6,800.000011921E-3,
,,,-23.00000051E-6,800.000011921E-3,
,,,-22.00000017E-6,800.000011921E-3,
,,,-20.99999983E-6,800.000011921E-3,
,,,-19.9999995E-6,800.000011921E-3,
,,,-18.9999992E-6,800.000011921E-3,
,,,-17.9999988E-6,800.000011921E-3,
,,,-17.0000003E-6,800.000011921E-3,
,,,-16.0000000E-6,800.000011921E-3,
,,,-14.9999996E-6,800.000011921E-3,
,,,-13.9999993E-6,800.000011921E-3,
,,,-12.9999999E-6,0.0,
,,,-11.9999995E-6,800.000011921E-3,
,,,-11.0000001E-6,800.000011921E-3,
,,,-9.999999747E-6,800.000011921E-3,
,,,-8.999999409E-6,800.000011921E-3,
,,,-7.999999980E-6,800.000011921E-3,
,,,-6.99999964E-6,800.000011921E-3,
,,,-5.99999976E-6,800.000011921E-3,
,,,-4.99999987E-6,0.0,
,,,-3.99999954E-6,800.000011921E-3,
,,,-2.99999965E-6,0.0,
,,,-1.9999998E-6,800.000011921E-3,
,,,-999.999770102E-9,3.20000005,
,,,227.37367249E-15,44.79999924,
,,,1.0000002E-6,46.40000153,
,,,2.0000002E-6,46.40000153,
,,,3.00000011E-6,46.40000153,
,,,4.00000044E-6,46.40000153,
,,,5.00000033E-6,47.20000076,
,,,6.00000021E-6,47.20000076,
,,,7.00000010E-6,47.20000076,
,,,7.999999980E-6,47.20000076,
,,,9.000000318E-6,47.20000076,
,,,9.999999747E-6,47.20000076,
,,,11.0000001E-6,47.20000076,
,,,12.0000004E-6,47.20000076,
,,,12.9999999E-6,47.20000076,
,,,14.0000002E-6,47.20000076,
,,,15.0000005E-6,47.20000076,
,,,16.0000000E-6,47.20000076,
,,,17.0000003E-6,47.20000076,
,,,18.0000006E-6,47.20000076,
,,,19.0000010E-6,45.60000229,
,,,19.9999995E-6,3.20000005,
,,,20.99999983E-6,1.6000000,
,,,22.00000017E-6,1.6000000,
,,,23.00000051E-6,1.6000000,
,,,24.00000085E-6,800.000011921E-3,
,,,24.99999937E-6,800.000011921E-3,
,,,25.99999971E-6,800.000011921E-3,
,,,27.00000005E-6,800.000011921E-3,
,,,28.00000038E-6,800.000011921E-3,
,,,29.00000072E-6,800.000011921E-3,
,,,29.99999924E-6,800.000011921E-3,
,,,30.99999958E-6,800.000011921E-3,
,,,31.99999992E-6,800.000011921E-3,
,,,33.00000026E-6,800.000011921E-3,
,,,34.00000060E-6,800.000011921E-3,
,,,35.00000093E-6,800.000011921E-3,
,,,36.00000127E-6,800.000011921E-3,
,,,37.00000161E-6,800.000011921E-3,
,,,37.99999831E-6,800.000011921E-3,
,,,38.99999865E-6,800.000011921E-3,
,,,39.99999899E-6,800.000011921E-3,
,,,40.99999933E-6,800.000011921E-3,
,,,41.99999967E-6,800.000011921E-3,
,,,43.00000001E-6,800.000011921E-3,
,,,44.00000034E-6,800.000011921E-3,
,,,45.00000068E-6,0.0,
,,,46.00000102E-6,800.000011921E-3,
,,,47.00000136E-6,800.000011921E-3,
,,,48.00000170E-6,0.0,
,,,48.99999840E-6,800.000011921E-3,
,,,49.99999874E-6,800.000011921E-3,
,,,50.99999908E-6,0.0,
,,,51.99999941E-6,800.000011921E-3,
,,,52.99999975E-6,0.0,
,,,54.00000009E-6,0.0,
,,,55.000000430E-6,800.000011921E-3,
,,,56.000000768E-6,800.000011921E-3,
,,,57.000001107E-6,800.000011921E-3,
,,,58.000001445E-6,800.000011921E-3,
,,,59.000001784E-6,800.000011921E-3,
,,,59.999998484E-6,0.0,
,,,60.999998823E-6,0.0,
,,,61.999999161E-6,800.000011921E-3,
,,,62.999999500E-6,800.000011921E-3,
,,,63.999999838E-6,800.000011921E-3,
,,,65.000000177E-6,0.0,
,,,66.000000515E-6,0.0,
,,,67.000000854E-6,0.0,
,,,68.000001193E-6,0.0,
,,,69.000001531E-6,0.0,
,,,70.000001870E-6,0.0,
,,,71.000002208E-6,800.000011921E-3,
,,,72.000002547E-6,800.000011921E-3,
,,,73.000002885E-6,800.000011921E-3,
,,,74.000003224E-6,800.000011921E-3,
,,,75.000003562E-6,800.000011921E-3,
,,,75.999996625E-6,800.000011921E-3,
,,,76.999996963E-6,800.000011921E-3,
,,,77.999997302E-6,800.000011921E-3,
,,,78.999997640E-6,800.000011921E-3,
,,,79.999997979E-6,0.0,
,,,80.999998318E-6,800.000011921E-3,
,,,81.999998656E-6,800.000011921E-3,
,,,82.999998995E-6,0.0,
,,,83.999999333E-6,800.000011921E-3,
,,,84.999999672E-6,800.000011921E-3,
,,,86.000000010E-6,0.0,
,,,87.000000349E-6,0.0,
,,,88.000000687E-6,0.0,
,,,89.000001026E-6,0.0,
,,,90.000001364E-6,0.0,
,,,91.000001703E-6,0.0,
,,,92.000002041E-6,0.0,
,,,93.000002380E-6,0.0,
,,,94.000002719E-6,800.000011921E-3,
,,,95.000003057E-6,800.000011921E-3,
,,,96.000003396E-6,800.000011921E-3,
,,,96.999996458E-6,0.0,
,,,97.999996797E-6,800.000011921E-3,
,,,98.999997135E-6,0.0,
,,,99.999997474E-6,0.0,
,,,100.9999978E-6,800.000011921E-3,
,,,101.9999982E-6,800.000011921E-3,
,,,102.9999985E-6,0.0,
,,,103.9999988E-6,800.000011921E-3,
,,,104.9999992E-6,800.000011921E-3,
,,,105.9999995E-6,0.0,
,,,106.9999998E-6,0.0,
,,,108.0000002E-6,800.000011921E-3,
,,,109.0000005E-6,800.000011921E-3,
,,,110.0000009E-6,800.000011921E-3,
,,,111.0000012E-6,800.000011921E-3,
,,,112.0000015E-6,0.0,
,,,113.0000019E-6,800.000011921E-3,
,,,114.0000022E-6,800.000011921E-3,
,,,115.0000026E-6,800.000011921E-3,
,,,116.0000029E-6,800.000011921E-3,
,,,117.0000032E-6,800.000011921E-3,
,,,117.9999963E-6,0.0,
,,,118.9999966E-6,800.000011921E-3,
,,,119.9999970E-6,800.000011921E-3,
,,,120.9999973E-6,800.000011921E-3,
,,,121.9999976E-6,0.0,
,,,123.0000053E-6,800.000011921E-3,
,,,123.9999983E-6,800.000011921E-3,
,,,125.0000059E-6,800.000011921E-3,
,,,125.9999990E-6,800.000011921E-3,
,,,127.0000066E-6,800.000011921E-3,
,,,127.9999997E-6,800.000011921E-3,
,,,128.9999927E-6,0.0,
,,,130.0000004E-6,800.000011921E-3,
,,,130.9999934E-6,0.0,
,,,132.0000010E-6,800.000011921E-3,
,,,132.9999941E-6,800.000011921E-3,
,,,134.0000017E-6,0.0,
,,,134.9999948E-6,0.0,
,,,136.0000024E-6,800.000011921E-3,
,,,136.9999954E-6,800.000011921E-3,
,,,138.0000031E-6,800.000011921E-3,
,,,138.9999961E-6,800.000011921E-3,
,,,140.0000037E-6,800.000011921E-3,
,,,140.9999968E-6,800.000011921E-3,
,,,142.0000044E-6,800.000011921E-3,
,,,142.9999975E-6,800.000011921E-3,
,,,144.0000051E-6,800.000011921E-3,
,,,144.9999982E-6,0.0,
,,,146.0000058E-6,800.000011921E-3,
,,,146.9999988E-6,800.000011921E-3,
,,,148.0000064E-6,800.000011921E-3,
,,,148.99999951E-6,800.000011921E-3,
,,,150.00000712E-6,0.0,
,,,151.00000019E-6,800.000011921E-3,
,,,151.99999325E-6,800.000011921E-3,
,,,153.00000086E-6,800.000011921E-3,
,,,153.99999393E-6,800.000011921E-3,
,,,155.00000154E-6,800.000011921E-3,
,,,155.99999460E-6,800.000011921E-3,
,,,157.00000222E-6,0.0,
,,,157.99999528E-6,0.0,
,,,159.00000290E-6,800.000011921E-3,
,,,159.99999596E-6,0.0,
,,,161.00000357E-6,800.000011921E-3,
,,,161.99999664E-6,800.000011921E-3,
,,,163.00000425E-6,800.000011921E-3,
,,,163.99999731E-6,0.0,
,,,165.00000493E-6,800.000011921E-3,
,,,165.99999799E-6,800.000011921E-3,
,,,167.00000560E-6,800.000011921E-3,
,,,167.99999867E-6,0.0,
,,,169.00000628E-6,800.000011921E-3,
,,,169.99999934E-6,800.000011921E-3,
,,,171.00000696E-6,800.000011921E-3,
,,,172.00000002E-6,0.0,
,,,172.99999308E-6,800.000011921E-3,
,,,174.00000070E-6,800.000011921E-3,
,,,174.99999376E-6,0.0,
,,,176.00000137E-6,800.000011921E-3,
,,,176.99999444E-6,800.000011921E-3,
,,,178.00000205E-6,800.000011921E-3,
,,,178.99999511E-6,0.0,
,,,180.00000273E-6,0.0,
,,,180.99999579E-6,0.0,
,,,182.00000341E-6,800.000011921E-3,
,,,182.99999647E-6,800.000011921E-3,
,,,184.00000408E-6,800.000011921E-3,
,,,184.99999715E-6,0.0,
,,,186.00000476E-6,800.000011921E-3,
,,,186.99999782E-6,0.0,
,,,188.00000544E-6,800.000011921E-3,
,,,188.99999850E-6,800.000011921E-3,
,,,190.00000611E-6,800.000011921E-3,
,,,190.99999918E-6,800.000011921E-3,
,,,192.00000679E-6,800.000011921E-3,
,,,192.99999985E-6,800.000011921E-3,
,,,193.99999292E-6,800.000011921E-3,
,,,195.00000053E-6,0.0,
,,,195.99999359E-6,0.0,
,,,197.00000121E-6,800.000011921E-3,
,,,197.99999427E-6,800.000011921E-3,
,,,199.00000188E-6,800.000011921E-3,
,,,199.99999495E-6,800.000011921E-3,
,,,201.00000256E-6,800.000011921E-3,
,,,201.99999562E-6,0.0,
,,,203.00000324E-6,800.000011921E-3,
,,,203.99999630E-6,800.000011921E-3,
,,,205.00000392E-6,0.0,
,,,205.99999698E-6,0.0,
,,,207.00000459E-6,800.000011921E-3,
,,,207.99999766E-6,0.0,
,,,209.00000527E-6,0.0,
,,,209.99999833E-6,0.0,
,,,211.00000595E-6,800.000011921E-3,
,,,211.99999901E-6,0.0,
,,,213.00000662E-6,800.000011921E-3,
,,,213.99999969E-6,0.0,
,,,214.99999275E-6,0.0,
,,,216.00000036E-6,800.000011921E-3,
,,,216.99999343E-6,800.000011921E-3,
,,,218.00000104E-6,0.0,
,,,218.99999410E-6,0.0,
,,,220.00000172E-6,800.000011921E-3,
,,,220.99999478E-6,0.0,
,,,222.00000240E-6,0.0,
,,,222.99999546E-6,800.000011921E-3,
,,,224.00000307E-6,800.000011921E-3,
,,,224.99999614E-6,800.000011921E-3,
,,,226.00000375E-6,0.0,
,,,226.99999681E-6,0.0,
,,,228.00000443E-6,800.000011921E-3,
,,,228.99999749E-6,800.000011921E-3,
,,,230.00000510E-6,0.0,
,,,230.99999817E-6,800.000011921E-3,
,,,232.00000578E-6,800.000011921E-3,
,,,232.99999884E-6,0.0,
,,,234.00000646E-6,0.0,
,,,234.99999952E-6,800.000011921E-3,
,,,235.99999258E-6,800.000011921E-3,
,,,237.00000020E-6,0.0,
,,,237.99999326E-6,0.0,
,,,239.00000087E-6,800.000011921E-3,
,,,239.99999394E-6,800.000011921E-3,
,,,241.00000155E-6,800.000011921E-3,
,,,241.99999461E-6,800.000011921E-3,
,,,243.00000223E-6,800.000011921E-3,
,,,243.99999529E-6,800.000011921E-3,
,,,245.00000291E-6,0.0,
,,,246.00001052E-6,0.0,
,,,246.99998903E-6,800.000011921E-3,
,,,247.99999665E-6,800.000011921E-3,
,,,249.00000426E-6,800.000011921E-3,
,,,250.00001187E-6,800.000011921E-3,
,,,250.99999039E-6,800.000011921E-3,
,,,251.99999800E-6,800.000011921E-3,
,,,253.00000561E-6,0.0,
,,,254.00001323E-6,800.000011921E-3,
,,,254.99999174E-6,800.000011921E-3,
,,,255.99999935E-6,800.000011921E-3,
,,,257.00000697E-6,0.0,
,,,257.99998548E-6,800.000011921E-3,
,,,258.99999309E-6,800.000011921E-3,
,,,260.00000071E-6,800.000011921E-3,
,,,261.00000832E-6,800.000011921E-3,
,,,261.99998683E-6,800.000011921E-3,
,,,262.99999445E-6,0.0,
,,,264.00000206E-6,0.0,
,,,265.00000968E-6,800.000011921E-3,
,,,265.99998819E-6,800.000011921E-3,
,,,266.99999580E-6,0.0,
,,,268.00000342E-6,0.0,
,,,269.00001103E-6,800.000011921E-3,
,,,269.99998954E-6,800.000011921E-3,
,,,270.99999716E-6,0.0,
,,,272.00000477E-6,800.000011921E-3,
,,,273.00001238E-6,800.000011921E-3,
,,,273.99999090E-6,0.0,
,,,274.99999851E-6,800.000011921E-3,
,,,276.00000612E-6,800.000011921E-3,
,,,277.00001374E-6,0.0,
,,,277.99999225E-6,800.000011921E-3,
,,,278.99999986E-6,800.000011921E-3,
,,,280.00000748E-6,0.0,
,,,280.99998599E-6,800.000011921E-3,
,,,281.99999360E-6,800.000011921E-3,
,,,283.00000122E-6,0.0,
,,,284.00000883E-6,800.000011921E-3,
,,,284.99998734E-6,0.0,
,,,285.99999496E-6,0.0,
,,,287.00000257E-6,800.000011921E-3,
,,,288.00001019E-6,0.0,
,,,288.99998870E-6,0.0,
,,,289.99999631E-6,800.000011921E-3,
,,,291.00000393E-6,800.000011921E-3,
,,,292.00001154E-6,800.000011921E-3,
,,,292.99999005E-6,0.0,
,,,293.99999767E-6,0.0,
,,,295.00000528E-6,800.000011921E-3,
,,,296.00001290E-6,800.000011921E-3,
,,,296.99999141E-6,800.000011921E-3,
,,,297.99999902E-6,800.000011921E-3,
,,,299.00000663E-6,800.000011921E-3,
,,,299.99998515E-6,800.000011921E-3,
,,,300.99999276E-6,0.0,
,,,302.00000037E-6,0.0,
,,,303.00000799E-6,800.000011921E-3,
,,,303.99998650E-6,0.0,
,,,304.99999411E-6,0.0,
,,,306.00000173E-6,0.0,
,,,307.00000934E-6,0.0,
,,,307.99998785E-6,800.000011921E-3,
,,,308.99999547E-6,800.000011921E-3,
,,,310.00000308E-6,0.0,
,,,311.00001070E-6,0.0,
,,,311.99998921E-6,800.000011921E-3,
,,,312.99999682E-6,0.0,
,,,314.00000444E-6,800.000011921E-3,
,,,315.00001205E-6,0.0,
,,,315.99999056E-6,0.0,
,,,316.99999818E-6,800.000011921E-3,
,,,318.00000579E-6,800.000011921E-3,
,,,319.00001341E-6,0.0,
,,,319.99999192E-6,0.0,
,,,320.99999953E-6,0.0,
,,,322.00000715E-6,0.0,
,,,322.99998566E-6,0.0,
,,,323.99999327E-6,800.000011921E-3,
,,,325.00000088E-6,800.000011921E-3,
,,,326.00000850E-6,0.0,
,,,326.99998701E-6,800.000011921E-3,
,,,327.99999462E-6,0.0,
,,,329.00000224E-6,800.000011921E-3,
,,,330.00000985E-6,800.000011921E-3,
,,,330.99998836E-6,800.000011921E-3,
,,,331.99999598E-6,800.000011921E-3,
,,,333.00000359E-6,800.000011921E-3,
,,,334.00001121E-6,0.0,
,,,334.99998972E-6,0.0,
,,,335.99999733E-6,0.0,
,,,337.00000495E-6,800.000011921E-3,
,,,338.00001256E-6,800.000011921E-3,
,,,338.99999107E-6,0.0,
,,,339.99999869E-6,800.000011921E-3,
,,,341.00000630E-6,0.0,
,,,341.99998481E-6,0.0,
,,,342.99999243E-6,0.0,
,,,344.00000004E-6,800.000011921E-3,
,,,345.00000766E-6,0.0,
,,,345.99998617E-6,800.000011921E-3,
,,,346.99999378E-6,0.0,
,,,348.00000140E-6,800.000011921E-3,
,,,349.00000901E-6,0.0,
,,,349.99998752E-6,800.000011921E-3,
,,,350.99999513E-6,0.0,
,,,352.00000275E-6,800.000011921E-3,
,,,353.00001036E-6,800.000011921E-3,
,,,353.99998887E-6,800.000011921E-3,
,,,354.99999649E-6,0.0,
,,,356.00000410E-6,0.0,
,,,357.00001172E-6,800.000011921E-3,
,,,357.99999023E-6,0.0,
,,,358.99999784E-6,800.000011921E-3,
,,,360.00000546E-6,800.000011921E-3,
,,,361.00001307E-6,800.000011921E-3,
,,,361.99999158E-6,800.000011921E-3,
,,,362.99999920E-6,0.0,
,,,364.00000681E-6,0.0,
,,,364.99998532E-6,800.000011921E-3,
,,,365.99999294E-6,0.0,
,,,367.00000055E-6,800.000011921E-3,
,,,368.00000817E-6,0.0,
,,,368.99998668E-6,800.000011921E-3,
,,,369.99999429E-6,800.000011921E-3,
,,,371.00000191E-6,0.0,
,,,372.00000952E-6,800.000011921E-3,
,,,372.99998803E-6,800.000011921E-3,
,,,373.99999565E-6,0.0,
,,,375.00000326E-6,0.0,
,,,376.00001087E-6,0.0,
,,,376.99998938E-6,800.000011921E-3,
,,,377.99999700E-6,800.000011921E-3,
,,,379.00000461E-6,800.000011921E-3,
,,,380.00001223E-6,0.0,
,,,380.99999074E-6,0.0,
,,,381.99999835E-6,800.000011921E-3,
,,,383.00000597E-6,800.000011921E-3,
,,,384.00001358E-6,800.000011921E-3,
,,,384.99999209E-6,0.0,
,,,385.99999971E-6,0.0,
,,,387.00000732E-6,800.000011921E-3,
,,,387.99998583E-6,800.000011921E-3,
,,,388.99999345E-6,800.000011921E-3,
,,,390.00000106E-6,800.000011921E-3,
,,,391.00000868E-6,800.000011921E-3,
,,,391.99998719E-6,800.000011921E-3,
,,,392.99999480E-6,0.0,
,,,394.00000242E-6,0.0,
,,,395.00001003E-6,800.000011921E-3,
,,,395.99998854E-6,0.0,
,,,396.99999616E-6,800.000011921E-3,
,,,398.00000377E-6,800.000011921E-3,
,,,399.00001138E-6,800.000011921E-3,
,,,399.99998990E-6,800.000011921E-3,
,,,400.99999751E-6,800.000011921E-3,
,,,402.00000512E-6,800.000011921E-3,
,,,403.00001274E-6,800.000011921E-3,
,,,403.999991249E-6,800.000011921E-3,
,,,404.999998864E-6,0.0,
,,,406.000006478E-6,800.000011921E-3,
,,,406.999984989E-6,800.000011921E-3,
,,,407.999992603E-6,0.0,
,,,409.000000218E-6,800.000011921E-3,
,,,410.000007832E-6,800.000011921E-3,
,,,410.999986343E-6,800.000011921E-3,
,,,411.999993958E-6,800.000011921E-3,
,,,413.000001572E-6,800.000011921E-3,
,,,414.000009187E-6,0.0,
,,,414.999987697E-6,800.000011921E-3,
,,,415.999995312E-6,0.0,
,,,417.000002926E-6,0.0,
,,,418.000010541E-6,800.000011921E-3,
,,,418.999989051E-6,800.000011921E-3,
,,,419.999996666E-6,800.000011921E-3,
,,,421.000004280E-6,0.0,
,,,422.000011895E-6,800.000011921E-3,
,,,422.999990406E-6,800.000011921E-3,
,,,423.999998020E-6,800.000011921E-3,
,,,425.000005635E-6,800.000011921E-3,
,,,426.000013249E-6,800.000011921E-3,
,,,426.999991760E-6,800.000011921E-3,
,,,427.999999374E-6,800.000011921E-3,
,,,429.000006989E-6,800.000011921E-3,
,,,429.999985499E-6,800.000011921E-3,
,,,430.999993114E-6,0.0,
,,,432.000000728E-6,800.000011921E-3,
,,,433.000008343E-6,800.000011921E-3,
,,,433.999986853E-6,800.000011921E-3,
,,,434.999994468E-6,800.000011921E-3,
,,,436.000002082E-6,800.000011921E-3,
