data/1_1 koper(ii)chloride_b H20/T1/delay420u001.csv

Record Length,2500,Points,-220.00000172E-6,0.0,
Sample Interval,1.000000E-6,s,-219.00000866E-6,0.0,
Trigger Point,220.00000227,Samples,-218.00000104E-6,800.000011921E-3,
,,,-217.00000798E-6,0.0,
,,,-216.00000036E-6,800.000011921E-3,
,,,-215.00000730E-6,0.0,
Source,CH1,,-213.99999969E-6,0.0,
Vertical Units,Volts,,-213.00000662E-6,800.000011921E-3,
Vertical Scale,20.0000003,,-211.99999901E-6,800.000011921E-3,
Vertical Offset,0,,-211.00000595E-6,0.0,
Horizontal Units,s,,-209.99999833E-6,0.0,
Horizontal Scale,249.99999937E-6,,-209.00000527E-6,800.000011921E-3,
Pt Fmt,Y,,-207.99999766E-6,0.0,
Yzero,-2.0000000,,-207.00000459E-6,800.000011921E-3,
Probe Atten,10.0000000,,-205.99999698E-6,0.0,
,,,-205.00000392E-6,0.0,
Note,TDS 2024B - 12:11:08   16-11-2021,,-203.99999630E-6,800.000011921E-3,
,,,-203.00000324E-6,800.000011921E-3,
,,,-201.99999562E-6,0.0,
,,,-201.00000256E-6,0.0,
,,,-199.99999495E-6,800.000011921E-3,
,,,-199.00000188E-6,0.0,
,,,-198.00000882E-6,0.0,
,,,-197.00000121E-6,800.000011921E-3,
,,,-196.00000815E-6,800.000011921E-3,
,,,-195.00000053E-6,0.0,
,,,-194.00000747E-6,0.0,
,,,-192.99999985E-6,0.0,
,,,-192.00000679E-6,0.0,
,,,-190.99999918E-6,0.0,
,,,-190.00000611E-6,800.000011921E-3,
,,,-188.99999850E-6,800.000011921E-3,
,,,-188.00000544E-6,800.000011921E-3,
,,,-186.99999782E-6,800.000011921E-3,
,,,-186.00000476E-6,0.0,
,,,-184.99999715E-6,800.000011921E-3,
,,,-184.00000408E-6,800.000011921E-3,
,,,-182.99999647E-6,0.0,
,,,-182.00000341E-6,0.0,
,,,-180.99999579E-6,800.000011921E-3,
,,,-180.00000273E-6,800.000011921E-3,
,,,-178.99999511E-6,800.000011921E-3,
,,,-178.00000205E-6,800.000011921E-3,
,,,-177.00000899E-6,0.0,
,,,-176.00000137E-6,0.0,
,,,-175.00000831E-6,800.000011921E-3,
,,,-174.00000070E-6,800.000011921E-3,
,,,-173.00000763E-6,0.0,
,,,-172.00000002E-6,800.000011921E-3,
,,,-171.00000696E-6,0.0,
,,,-169.99999934E-6,0.0,
,,,-169.00000628E-6,800.000011921E-3,
,,,-167.99999867E-6,800.000011921E-3,
,,,-167.00000560E-6,0.0,
,,,-165.99999799E-6,0.0,
,,,-165.00000493E-6,0.0,
,,,-163.99999731E-6,0.0,
,,,-163.00000425E-6,800.000011921E-3,
,,,-161.99999664E-6,0.0,
,,,-161.00000357E-6,800.000011921E-3,
,,,-159.99999596E-6,0.0,
,,,-159.00000290E-6,0.0,
,,,-157.99999528E-6,800.000011921E-3,
,,,-157.00000222E-6,800.000011921E-3,
,,,-155.99999460E-6,800.000011921E-3,
,,,-155.00000154E-6,0.0,
,,,-154.00000848E-6,0.0,
,,,-153.00000086E-6,0.0,
,,,-152.00000780E-6,800.000011921E-3,
,,,-151.00000019E-6,0.0,
,,,-150.00000712E-6,0.0,
,,,-148.99999951E-6,800.000011921E-3,
,,,-148.0000064E-6,800.000011921E-3,
,,,-146.9999988E-6,0.0,
,,,-146.0000058E-6,800.000011921E-3,
,,,-144.9999982E-6,800.000011921E-3,
,,,-144.0000051E-6,0.0,
,,,-142.9999975E-6,0.0,
,,,-142.0000044E-6,800.000011921E-3,
,,,-140.9999968E-6,800.000011921E-3,
,,,-140.0000037E-6,800.000011921E-3,
,,,-138.9999961E-6,0.0,
,,,-138.0000031E-6,800.000011921E-3,
,,,-136.9999954E-6,800.000011921E-3,
,,,-136.0000024E-6,0.0,
,,,-134.9999948E-6,800.000011921E-3,
,,,-134.0000017E-6,800.000011921E-3,
,,,-133.0000086E-6,800.000011921E-3,
,,,-132.0000010E-6,0.0,
,,,-131.0000080E-6,0.0,
,,,-130.0000004E-6,0.0,
,,,-129.0000073E-6,800.000011921E-3,
,,,-127.9999997E-6,800.000011921E-3,
,,,-127.0000066E-6,800.000011921E-3,
,,,-125.9999990E-6,800.000011921E-3,
,,,-125.0000059E-6,0.0,
,,,-123.9999983E-6,800.000011921E-3,
,,,-123.0000053E-6,0.0,
,,,-122.0000049E-6,0.0,
,,,-121.0000046E-6,0.0,
,,,-120.0000042E-6,0.0,
,,,-119.0000039E-6,800.000011921E-3,
,,,-118.0000036E-6,0.0,
,,,-117.0000032E-6,0.0,
,,,-116.0000029E-6,0.0,
,,,-115.0000026E-6,800.000011921E-3,
,,,-114.0000022E-6,0.0,
,,,-113.0000019E-6,0.0,
,,,-112.0000015E-6,800.000011921E-3,
,,,-111.0000012E-6,800.000011921E-3,
,,,-110.0000009E-6,0.0,
,,,-109.0000005E-6,800.000011921E-3,
,,,-108.0000002E-6,0.0,
,,,-106.9999998E-6,800.000011921E-3,
,,,-105.9999995E-6,800.000011921E-3,
,,,-104.9999992E-6,0.0,
,,,-103.9999988E-6,800.000011921E-3,
,,,-102.9999985E-6,0.0,
,,,-102.0000054E-6,800.000011921E-3,
,,,-101.0000051E-6,0.0,
,,,-100.0000047E-6,0.0,
,,,-99.000004411E-6,0.0,
,,,-98.000004073E-6,0.0,
,,,-97.000003734E-6,800.000011921E-3,
,,,-96.000003396E-6,0.0,
,,,-95.000003057E-6,800.000011921E-3,
,,,-94.000002719E-6,0.0,
,,,-93.000002380E-6,800.000011921E-3,
,,,-92.000002041E-6,0.0,
,,,-91.000001703E-6,800.000011921E-3,
,,,-90.000001364E-6,0.0,
,,,-89.000001026E-6,0.0,
,,,-88.000000687E-6,800.000011921E-3,
,,,-87.000000349E-6,800.000011921E-3,
,,,-86.000000010E-6,800.000011921E-3,
,,,-84.999999672E-6,0.0,
,,,-83.999999333E-6,0.0,
,,,-82.999998995E-6,0.0,
,,,-81.999998656E-6,800.000011921E-3,
,,,-81.000005594E-6,0.0,
,,,-80.000005255E-6,0.0,
,,,-79.000004916E-6,0.0,
,,,-78.000004578E-6,0.0,
,,,-77.000004239E-6,0.0,
,,,-76.000003901E-6,800.000011921E-3,
,,,-75.000003562E-6,800.000011921E-3,
,,,-74.000003224E-6,0.0,
,,,-73.000002885E-6,0.0,
,,,-72.000002547E-6,0.0,
,,,-71.000002208E-6,0.0,
,,,-70.000001870E-6,800.000011921E-3,
,,,-69.000001531E-6,800.000011921E-3,
,,,-68.000001193E-6,0.0,
,,,-67.000000854E-6,0.0,
,,,-66.000000515E-6,0.0,
,,,-65.000000177E-6,800.000011921E-3,
,,,-63.999999838E-6,800.000011921E-3,
,,,-62.999999500E-6,0.0,
,,,-61.999999161E-6,800.000011921E-3,
,,,-61.000002461E-6,0.0,
,,,-60.000002122E-6,800.000011921E-3,
,,,-59.000001784E-6,800.000011921E-3,
,,,-58.000001445E-6,0.0,
,,,-57.000001107E-6,0.0,
,,,-56.000000768E-6,800.000011921E-3,
,,,-55.000000430E-6,0.0,
,,,-54.00000373E-6,800.000011921E-3,
,,,-53.00000339E-6,800.000011921E-3,
,,,-52.00000305E-6,800.000011921E-3,
,,,-51.00000271E-6,0.0,
,,,-50.00000237E-6,0.0,
,,,-49.00000204E-6,0.0,
,,,-48.00000170E-6,0.0,
,,,-47.00000136E-6,800.000011921E-3,
,,,-46.00000102E-6,0.0,
,,,-45.00000068E-6,0.0,
,,,-44.00000034E-6,0.0,
,,,-43.00000364E-6,0.0,
,,,-42.00000330E-6,0.0,
,,,-41.00000297E-6,0.0,
,,,-40.00000263E-6,800.000011921E-3,
,,,-39.00000229E-6,0.0,
,,,-38.00000195E-6,800.000011921E-3,
,,,-37.00000161E-6,0.0,
,,,-36.00000127E-6,0.0,
,,,-35.00000093E-6,0.0,
,,,-34.00000060E-6,800.000011921E-3,
,,,-33.00000390E-6,0.0,
,,,-32.00000356E-6,800.000011921E-3,
,,,-31.00000322E-6,800.000011921E-3,
,,,-30.00000288E-6,800.000011921E-3,
,,,-29.00000254E-6,0.0,
,,,-28.00000220E-6,800.000011921E-3,
,,,-27.00000186E-6,0.0,
,,,-26.00000153E-6,800.000011921E-3,
,,,-25.00000301E-6,800.000011921E-3,
,,,-24.00000267E-6,800.000011921E-3,
,,,-23.00000233E-6,0.0,
,,,-22.00000199E-6,0.0,
,,,-21.00000165E-6,800.000011921E-3,
,,,-20.0000031E-6,0.0,
,,,-19.0000028E-6,0.0,
,,,-18.0000025E-6,800.000011921E-3,
,,,-17.0000021E-6,800.000011921E-3,
,,,-16.0000018E-6,0.0,
,,,-15.0000023E-6,0.0,
,,,-14.0000020E-6,0.0,
,,,-13.0000026E-6,0.0,
,,,-12.0000022E-6,0.0,
,,,-11.0000019E-6,800.000011921E-3,
,,,-10.0000025E-6,0.0,
,,,-9.000002137E-6,0.0,
,,,-8.000002708E-6,0.0,
,,,-7.00000237E-6,0.0,
,,,-6.00000203E-6,0.0,
,,,-5.00000215E-6,800.000011921E-3,
,,,-4.00000226E-6,0.0,
,,,-3.00000238E-6,800.000011921E-3,
,,,-2.0000023E-6,0.0,
,,,-1.0000023E-6,800.000011921E-3,
,,,-2.2737367E-12,44.79999924,
,,,999.997723738E-9,45.60000229,
,,,1.9999977E-6,46.40000153,
,,,2.99999783E-6,46.40000153,
,,,3.99999772E-6,46.40000153,
,,,4.99999760E-6,46.40000153,
,,,5.99999748E-6,47.20000076,
,,,6.99999782E-6,47.20000076,
,,,7.999997251E-6,47.20000076,
,,,8.999997590E-6,47.20000076,
,,,9.999997928E-6,47.20000076,
,,,10.9999974E-6,47.20000076,
,,,11.9999977E-6,47.20000076,
,,,12.9999980E-6,47.20000076,
,,,13.9999975E-6,47.20000076,
,,,14.9999978E-6,47.20000076,
,,,15.9999981E-6,47.20000076,
,,,16.9999985E-6,47.20000076,
,,,17.9999970E-6,47.20000076,
,,,18.9999973E-6,47.20000076,
,,,19.9999977E-6,47.20000076,
,,,20.99999801E-6,47.20000076,
,,,21.99999835E-6,47.20000076,
,,,22.99999687E-6,47.20000076,
,,,23.99999721E-6,47.20000076,
,,,24.99999755E-6,47.20000076,
,,,25.99999789E-6,47.20000076,
,,,26.99999823E-6,47.20000076,
,,,27.99999857E-6,47.20000076,
,,,28.99999708E-6,47.20000076,
,,,29.99999742E-6,48.00000000,
,,,30.99999594E-6,47.20000076,
,,,31.99999628E-6,47.20000076,
,,,32.99999662E-6,47.20000076,
,,,33.99999696E-6,47.20000076,
,,,34.99999730E-6,47.20000076,
,,,35.99999764E-6,47.20000076,
,,,36.99999797E-6,47.20000076,
,,,37.99999831E-6,47.20000076,
,,,38.99999865E-6,47.20000076,
,,,39.99999899E-6,47.20000076,
,,,40.99999933E-6,47.20000076,
,,,41.99999603E-6,47.20000076,
,,,42.99999637E-6,47.20000076,
,,,43.99999671E-6,47.20000076,
,,,44.99999704E-6,47.20000076,
,,,45.99999738E-6,47.20000076,
,,,46.99999772E-6,47.20000076,
,,,47.99999806E-6,48.00000000,
,,,48.99999840E-6,47.20000076,
,,,49.99999874E-6,47.20000076,
,,,50.99999908E-6,47.20000076,
,,,51.99999578E-6,47.20000076,
,,,52.99999611E-6,47.20000076,
,,,53.99999645E-6,47.20000076,
,,,54.999996792E-6,47.20000076,
,,,55.999997130E-6,47.20000076,
,,,56.999997469E-6,47.20000076,
,,,57.999997807E-6,47.20000076,
,,,58.999998146E-6,47.20000076,
,,,59.999998484E-6,48.00000000,
,,,60.999998823E-6,47.20000076,
,,,61.999999161E-6,47.20000076,
,,,62.999999500E-6,47.20000076,
,,,63.999999838E-6,47.20000076,
,,,65.000000177E-6,47.20000076,
,,,66.000000515E-6,47.20000076,
,,,67.000000854E-6,47.20000076,
,,,67.999993917E-6,47.20000076,
,,,68.999994255E-6,47.20000076,
,,,69.999994594E-6,47.20000076,
,,,70.999994932E-6,47.20000076,
,,,71.999995271E-6,47.20000076,
,,,72.999995609E-6,47.20000076,
,,,73.999995948E-6,47.20000076,
,,,74.999996286E-6,47.20000076,
,,,75.999996625E-6,47.20000076,
,,,76.999996963E-6,47.20000076,
,,,77.999997302E-6,47.20000076,
,,,78.999997640E-6,47.20000076,
,,,79.999997979E-6,47.20000076,
,,,80.999998318E-6,47.20000076,
,,,81.999998656E-6,47.20000076,
,,,82.999998995E-6,47.20000076,
,,,83.999999333E-6,45.60000229,
,,,84.999999672E-6,2.4000001,
,,,86.000000010E-6,1.6000000,
,,,87.000000349E-6,1.6000000,
,,,88.000000687E-6,1.6000000,
,,,89.000001026E-6,800.000011921E-3,
,,,89.999994088E-6,800.000011921E-3,
,,,90.999994427E-6,800.000011921E-3,
,,,91.999994766E-6,800.000011921E-3,
,,,92.999995104E-6,800.000011921E-3,
,,,93.999995443E-6,800.000011921E-3,
,,,94.999995781E-6,800.000011921E-3,
,,,95.999996120E-6,800.000011921E-3,
,,,96.999996458E-6,800.000011921E-3,
,,,97.999996797E-6,800.000011921E-3,
,,,98.999997135E-6,800.000011921E-3,
,,,99.999997474E-6,800.000011921E-3,
,,,100.9999978E-6,800.000011921E-3,
,,,101.9999982E-6,800.000011921E-3,
,,,102.9999985E-6,800.000011921E-3,
,,,103.9999988E-6,800.000011921E-3,
,,,104.9999992E-6,800.000011921E-3,
,,,105.9999995E-6,800.000011921E-3,
,,,106.9999998E-6,800.000011921E-3,
,,,108.0000002E-6,800.000011921E-3,
,,,109.0000005E-6,800.000011921E-3,
,,,110.0000009E-6,800.000011921E-3,
,,,110.9999939E-6,0.0,
,,,111.9999943E-6,800.000011921E-3,
,,,112.9999946E-6,0.0,
,,,113.9999949E-6,800.000011921E-3,
,,,114.9999953E-6,0.0,
,,,115.9999956E-6,800.000011921E-3,
,,,116.9999960E-6,800.000011921E-3,
,,,117.9999963E-6,800.000011921E-3,
,,,118.9999966E-6,0.0,
,,,119.9999970E-6,26.39999962,
,,,120.9999973E-6,46.40000153,
,,,121.9999976E-6,46.40000153,
,,,122.9999907E-6,46.40000153,
,,,123.9999983E-6,47.20000076,
,,,124.9999914E-6,47.20000076,
,,,125.9999990E-6,47.20000076,
,,,126.9999921E-6,47.20000076,
,,,127.9999997E-6,47.20000076,
,,,128.9999927E-6,47.20000076,
,,,130.0000004E-6,47.20000076,
,,,130.9999934E-6,47.20000076,
,,,132.0000010E-6,47.20000076,
,,,132.9999941E-6,47.20000076,
,,,134.0000017E-6,47.20000076,
,,,134.9999948E-6,47.20000076,
,,,136.0000024E-6,47.20000076,
,,,136.9999954E-6,47.20000076,
,,,138.0000031E-6,47.20000076,
,,,138.9999961E-6,47.20000076,
,,,140.0000037E-6,47.20000076,
,,,140.9999968E-6,47.20000076,
,,,142.0000044E-6,47.20000076,
,,,142.9999975E-6,47.20000076,
,,,143.9999905E-6,47.20000076,
,,,144.9999982E-6,48.00000000,
,,,145.9999912E-6,47.20000076,
,,,146.9999988E-6,47.20000076,
,,,147.9999919E-6,48.00000000,
,,,148.99999951E-6,47.20000076,
,,,149.99999257E-6,47.20000076,
,,,151.00000019E-6,47.20000076,
,,,151.99999325E-6,47.20000076,
,,,153.00000086E-6,47.20000076,
,,,153.99999393E-6,47.20000076,
,,,155.00000154E-6,47.20000076,
,,,155.99999460E-6,48.00000000,
,,,157.00000222E-6,48.00000000,
,,,157.99999528E-6,48.00000000,
,,,159.00000290E-6,48.00000000,
,,,159.99999596E-6,48.00000000,
,,,161.00000357E-6,48.00000000,
,,,161.99999664E-6,47.20000076,
,,,163.00000425E-6,48.00000000,
,,,163.99999731E-6,47.20000076,
,,,164.99999037E-6,47.20000076,
,,,165.99999799E-6,47.20000076,
,,,166.99999105E-6,47.20000076,
,,,167.99999867E-6,48.00000000,
,,,168.99999173E-6,47.20000076,
,,,169.99999934E-6,47.20000076,
,,,170.99999241E-6,47.20000076,
,,,172.00000002E-6,48.00000000,
,,,172.99999308E-6,47.20000076,
,,,174.00000070E-6,48.00000000,
,,,174.99999376E-6,47.20000076,
,,,176.00000137E-6,48.00000000,
,,,176.99999444E-6,47.20000076,
,,,178.00000205E-6,47.20000076,
,,,178.99999511E-6,48.00000000,
,,,180.00000273E-6,25.60000038,
,,,180.99999579E-6,1.6000000,
,,,182.00000341E-6,1.6000000,
,,,182.99999647E-6,800.000011921E-3,
,,,184.00000408E-6,800.000011921E-3,
,,,184.99999715E-6,800.000011921E-3,
,,,185.99999021E-6,800.000011921E-3,
,,,186.99999782E-6,800.000011921E-3,
,,,187.99999089E-6,800.000011921E-3,
,,,188.99999850E-6,800.000011921E-3,
,,,189.99999156E-6,800.000011921E-3,
,,,190.99999918E-6,800.000011921E-3,
,,,191.99999224E-6,800.000011921E-3,
,,,192.99999985E-6,800.000011921E-3,
,,,193.99999292E-6,800.000011921E-3,
,,,195.00000053E-6,800.000011921E-3,
,,,195.99999359E-6,800.000011921E-3,
,,,197.00000121E-6,800.000011921E-3,
,,,197.99999427E-6,800.000011921E-3,
,,,199.00000188E-6,800.000011921E-3,
,,,199.99999495E-6,0.0,
,,,201.00000256E-6,800.000011921E-3,
,,,201.99999562E-6,800.000011921E-3,
,,,203.00000324E-6,800.000011921E-3,
,,,203.99999630E-6,800.000011921E-3,
,,,205.00000392E-6,800.000011921E-3,
,,,205.99999698E-6,0.0,
,,,206.99999004E-6,800.000011921E-3,
,,,207.99999766E-6,800.000011921E-3,
,,,208.99999072E-6,800.000011921E-3,
,,,209.99999833E-6,800.000011921E-3,
,,,210.99999140E-6,800.000011921E-3,
,,,211.99999901E-6,800.000011921E-3,
,,,212.99999207E-6,0.0,
,,,213.99999969E-6,800.000011921E-3,
,,,214.99999275E-6,0.0,
,,,216.00000036E-6,800.000011921E-3,
,,,216.99999343E-6,800.000011921E-3,
,,,218.00000104E-6,0.0,
,,,218.99999410E-6,800.000011921E-3,
,,,220.00000172E-6,800.000011921E-3,
,,,220.99999478E-6,0.0,
,,,222.00000240E-6,0.0,
,,,222.99999546E-6,0.0,
,,,224.00000307E-6,800.000011921E-3,
,,,224.99999614E-6,800.000011921E-3,
,,,226.00000375E-6,0.0,
,,,226.99999681E-6,0.0,
,,,227.99998987E-6,800.000011921E-3,
,,,228.99999749E-6,800.000011921E-3,
,,,229.99999055E-6,800.000011921E-3,
,,,230.99999817E-6,800.000011921E-3,
,,,231.99999123E-6,800.000011921E-3,
,,,232.99999884E-6,800.000011921E-3,
,,,233.99999191E-6,800.000011921E-3,
,,,234.99999952E-6,800.000011921E-3,
,,,235.99999258E-6,800.000011921E-3,
,,,237.00000020E-6,800.000011921E-3,
,,,237.99999326E-6,800.000011921E-3,
,,,239.00000087E-6,800.000011921E-3,
,,,239.99999394E-6,800.000011921E-3,
,,,241.00000155E-6,800.000011921E-3,
,,,241.99999461E-6,800.000011921E-3,
,,,243.00000223E-6,800.000011921E-3,
,,,243.99999529E-6,800.000011921E-3,
,,,245.00000291E-6,800.000011921E-3,
,,,246.00001052E-6,800.000011921E-3,
,,,246.99998903E-6,0.0,
,,,247.99999665E-6,0.0,
,,,249.00000426E-6,800.000011921E-3,
,,,249.99998277E-6,0.0,
,,,250.99999039E-6,0.0,
,,,251.99999800E-6,0.0,
,,,253.00000561E-6,0.0,
,,,253.99998412E-6,0.0,
,,,254.99999174E-6,800.000011921E-3,
,,,255.99999935E-6,800.000011921E-3,
,,,257.00000697E-6,800.000011921E-3,
,,,257.99998548E-6,800.000011921E-3,
,,,258.99999309E-6,800.000011921E-3,
,,,260.00000071E-6,0.0,
,,,261.00000832E-6,800.000011921E-3,
,,,261.99998683E-6,0.0,
,,,262.99999445E-6,0.0,
,,,264.00000206E-6,0.0,
,,,265.00000968E-6,0.0,
,,,265.99998819E-6,800.000011921E-3,
,,,266.99999580E-6,0.0,
,,,268.00000342E-6,0.0,
,,,269.00001103E-6,800.000011921E-3,
,,,269.99998954E-6,0.0,
,,,270.99999716E-6,0.0,
,,,272.00000477E-6,800.000011921E-3,
,,,272.99998328E-6,0.0,
,,,273.99999090E-6,800.000011921E-3,
,,,274.99999851E-6,800.000011921E-3,
,,,276.00000612E-6,0.0,
,,,276.99998464E-6,800.000011921E-3,
,,,277.99999225E-6,0.0,
,,,278.99999986E-6,800.000011921E-3,
,,,280.00000748E-6,800.000011921E-3,
,,,280.99998599E-6,800.000011921E-3,
,,,281.99999360E-6,0.0,
,,,283.00000122E-6,0.0,
,,,284.00000883E-6,0.0,
,,,284.99998734E-6,0.0,
,,,285.99999496E-6,0.0,
,,,287.00000257E-6,0.0,
,,,288.00001019E-6,0.0,
,,,288.99998870E-6,0.0,
,,,289.99999631E-6,800.000011921E-3,
,,,291.00000393E-6,0.0,
,,,292.00001154E-6,0.0,
,,,292.99999005E-6,0.0,
,,,293.99999767E-6,0.0,
,,,295.00000528E-6,0.0,
,,,295.99998379E-6,800.000011921E-3,
,,,296.99999141E-6,0.0,
,,,297.99999902E-6,800.000011921E-3,
,,,299.00000663E-6,800.000011921E-3,
,,,299.99998515E-6,800.000011921E-3,
,,,300.99999276E-6,800.000011921E-3,
,,,302.00000037E-6,0.0,
,,,303.00000799E-6,0.0,
,,,303.99998650E-6,0.0,
,,,304.99999411E-6,0.0,
,,,306.00000173E-6,800.000011921E-3,
,,,307.00000934E-6,800.000011921E-3,
,,,307.99998785E-6,800.000011921E-3,
,,,308.99999547E-6,0.0,
,,,310.00000308E-6,800.000011921E-3,
,,,311.00001070E-6,0.0,
,,,311.99998921E-6,800.000011921E-3,
,,,312.99999682E-6,0.0,
,,,314.00000444E-6,0.0,
,,,314.99998295E-6,0.0,
,,,315.99999056E-6,0.0,
,,,316.99999818E-6,0.0,
,,,318.00000579E-6,0.0,
,,,318.99998430E-6,0.0,
,,,319.99999192E-6,0.0,
,,,320.99999953E-6,800.000011921E-3,
,,,322.00000715E-6,0.0,
,,,322.99998566E-6,800.000011921E-3,
,,,323.99999327E-6,0.0,
,,,325.00000088E-6,0.0,
,,,326.00000850E-6,0.0,
,,,326.99998701E-6,0.0,
,,,327.99999462E-6,0.0,
,,,329.00000224E-6,0.0,
,,,330.00000985E-6,800.000011921E-3,
,,,330.99998836E-6,800.000011921E-3,
,,,331.99999598E-6,800.000011921E-3,
,,,333.00000359E-6,0.0,
,,,334.00001121E-6,0.0,
,,,334.99998972E-6,0.0,
,,,335.99999733E-6,0.0,
,,,337.00000495E-6,800.000011921E-3,
,,,337.99998346E-6,800.000011921E-3,
,,,338.99999107E-6,0.0,
,,,339.99999869E-6,800.000011921E-3,
,,,341.00000630E-6,800.000011921E-3,
,,,341.99998481E-6,0.0,
,,,342.99999243E-6,0.0,
,,,344.00000004E-6,0.0,
,,,345.00000766E-6,0.0,
,,,345.99998617E-6,800.000011921E-3,
,,,346.99999378E-6,0.0,
,,,348.00000140E-6,0.0,
,,,349.00000901E-6,800.000011921E-3,
,,,349.99998752E-6,800.000011921E-3,
,,,350.99999513E-6,800.000011921E-3,
,,,352.00000275E-6,800.000011921E-3,
,,,353.00001036E-6,0.0,
,,,353.99998887E-6,800.000011921E-3,
,,,354.99999649E-6,800.000011921E-3,
,,,356.00000410E-6,800.000011921E-3,
,,,356.99998261E-6,0.0,
,,,357.99999023E-6,800.000011921E-3,
,,,358.99999784E-6,0.0,
,,,360.00000546E-6,0.0,
,,,360.99998397E-6,0.0,
,,,361.99999158E-6,0.0,
,,,362.99999920E-6,800.000011921E-3,
,,,364.00000681E-6,0.0,
,,,364.99998532E-6,0.0,
,,,365.99999294E-6,800.000011921E-3,
,,,367.00000055E-6,0.0,
,,,368.00000817E-6,0.0,
,,,368.99998668E-6,0.0,
,,,369.99999429E-6,0.0,
,,,371.00000191E-6,0.0,
,,,372.00000952E-6,800.000011921E-3,
,,,372.99998803E-6,800.000011921E-3,
,,,373.99999565E-6,800.000011921E-3,
,,,375.00000326E-6,0.0,
,,,376.00001087E-6,800.000011921E-3,
,,,376.99998938E-6,0.0,
,,,377.99999700E-6,0.0,
,,,379.00000461E-6,0.0,
,,,379.99998312E-6,0.0,
,,,380.99999074E-6,0.0,
,,,381.99999835E-6,0.0,
,,,383.00000597E-6,0.0,
,,,383.99998448E-6,0.0,
,,,384.99999209E-6,800.000011921E-3,
,,,385.99999971E-6,0.0,
,,,387.00000732E-6,0.0,
,,,387.99998583E-6,800.000011921E-3,
,,,388.99999345E-6,0.0,
,,,390.00000106E-6,0.0,
,,,391.00000868E-6,0.0,
,,,391.99998719E-6,800.000011921E-3,
,,,392.99999480E-6,0.0,
,,,394.00000242E-6,800.000011921E-3,
,,,395.00001003E-6,800.000011921E-3,
,,,395.99998854E-6,0.0,
,,,396.99999616E-6,800.000011921E-3,
,,,398.00000377E-6,0.0,
,,,398.99998228E-6,0.0,
,,,399.99998990E-6,800.000011921E-3,
,,,400.99999751E-6,800.000011921E-3,
,,,402.00000512E-6,0.0,
,,,402.99998363E-6,0.0,
,,,403.999991249E-6,0.0,
,,,404.999998864E-6,800.000011921E-3,
,,,406.000006478E-6,800.000011921E-3,
,,,406.999984989E-6,0.0,
,,,407.999992603E-6,800.000011921E-3,
,,,409.000000218E-6,800.000011921E-3,
,,,410.000007832E-6,0.0,
,,,410.999986343E-6,800.000011921E-3,
,,,411.999993958E-6,0.0,
,,,413.000001572E-6,800.000011921E-3,
,,,414.000009187E-6,800.000011921E-3,
,,,414.999987697E-6,800.000011921E-3,
,,,415.999995312E-6,0.0,
,,,417.000002926E-6,800.000011921E-3,
