data/1_1 koper(ii)chloride_b H20/T1/delay620u002.csv

Record Length,2500,Points,-220.00000172E-6,0.0,
Sample Interval,1.000000E-6,s,-219.00000866E-6,0.0,
Trigger Point,220.00000227,Samples,-218.00000104E-6,-800.000011921E-3,
,,,-217.00000798E-6,-800.000011921E-3,
,,,-216.00000036E-6,-800.000011921E-3,
,,,-215.00000730E-6,-800.000011921E-3,
Source,CH2,,-213.99999969E-6,-800.000011921E-3,
Vertical Units,Volts,,-213.00000662E-6,-800.000011921E-3,
Vertical Scale,20.0000003,,-211.99999901E-6,-800.000011921E-3,
Vertical Offset,0,,-211.00000595E-6,0.0,
Horizontal Units,s,,-209.99999833E-6,0.0,
Horizontal Scale,249.99999937E-6,,-209.00000527E-6,0.0,
Pt Fmt,Y,,-207.99999766E-6,0.0,
Yzero,-2.0000000,,-207.00000459E-6,0.0,
Probe Atten,10.0000000,,-205.99999698E-6,0.0,
,,,-205.00000392E-6,-800.000011921E-3,
Note,TDS 2024B - 12:13:27   16-11-2021,,-203.99999630E-6,0.0,
,,,-203.00000324E-6,-800.000011921E-3,
,,,-201.99999562E-6,0.0,
,,,-201.00000256E-6,-800.000011921E-3,
,,,-199.99999495E-6,0.0,
,,,-199.00000188E-6,-800.000011921E-3,
,,,-198.00000882E-6,-800.000011921E-3,
,,,-197.00000121E-6,-800.000011921E-3,
,,,-196.00000815E-6,-800.000011921E-3,
,,,-195.00000053E-6,0.0,
,,,-194.00000747E-6,-800.000011921E-3,
,,,-192.99999985E-6,-800.000011921E-3,
,,,-192.00000679E-6,0.0,
,,,-190.99999918E-6,0.0,
,,,-190.00000611E-6,-800.000011921E-3,
,,,-188.99999850E-6,-800.000011921E-3,
,,,-188.00000544E-6,0.0,
,,,-186.99999782E-6,0.0,
,,,-186.00000476E-6,0.0,
,,,-184.99999715E-6,0.0,
,,,-184.00000408E-6,0.0,
,,,-182.99999647E-6,0.0,
,,,-182.00000341E-6,0.0,
,,,-180.99999579E-6,800.000011921E-3,
,,,-180.00000273E-6,800.000011921E-3,
,,,-178.99999511E-6,800.000011921E-3,
,,,-178.00000205E-6,800.000011921E-3,
,,,-177.00000899E-6,800.000011921E-3,
,,,-176.00000137E-6,800.000011921E-3,
,,,-175.00000831E-6,800.000011921E-3,
,,,-174.00000070E-6,800.000011921E-3,
,,,-173.00000763E-6,800.000011921E-3,
,,,-172.00000002E-6,800.000011921E-3,
,,,-171.00000696E-6,800.000011921E-3,
,,,-169.99999934E-6,0.0,
,,,-169.00000628E-6,0.0,
,,,-167.99999867E-6,0.0,
,,,-167.00000560E-6,0.0,
,,,-165.99999799E-6,0.0,
,,,-165.00000493E-6,0.0,
,,,-163.99999731E-6,0.0,
,,,-163.00000425E-6,0.0,
,,,-161.99999664E-6,0.0,
,,,-161.00000357E-6,0.0,
,,,-159.99999596E-6,0.0,
,,,-159.00000290E-6,0.0,
,,,-157.99999528E-6,0.0,
,,,-157.00000222E-6,0.0,
,,,-155.99999460E-6,0.0,
,,,-155.00000154E-6,0.0,
,,,-154.00000848E-6,0.0,
,,,-153.00000086E-6,0.0,
,,,-152.00000780E-6,-800.000011921E-3,
,,,-151.00000019E-6,0.0,
,,,-150.00000712E-6,-800.000011921E-3,
,,,-148.99999951E-6,0.0,
,,,-148.0000064E-6,0.0,
,,,-146.9999988E-6,0.0,
,,,-146.0000058E-6,0.0,
,,,-144.9999982E-6,0.0,
,,,-144.0000051E-6,0.0,
,,,-142.9999975E-6,0.0,
,,,-142.0000044E-6,0.0,
,,,-140.9999968E-6,0.0,
,,,-140.0000037E-6,0.0,
,,,-138.9999961E-6,0.0,
,,,-138.0000031E-6,-800.000011921E-3,
,,,-136.9999954E-6,0.0,
,,,-136.0000024E-6,-800.000011921E-3,
,,,-134.9999948E-6,-800.000011921E-3,
,,,-134.0000017E-6,-800.000011921E-3,
,,,-133.0000086E-6,-800.000011921E-3,
,,,-132.0000010E-6,-800.000011921E-3,
,,,-131.0000080E-6,-800.000011921E-3,
,,,-130.0000004E-6,-800.000011921E-3,
,,,-129.0000073E-6,0.0,
,,,-127.9999997E-6,0.0,
,,,-127.0000066E-6,0.0,
,,,-125.9999990E-6,0.0,
,,,-125.0000059E-6,-800.000011921E-3,
,,,-123.9999983E-6,0.0,
,,,-123.0000053E-6,0.0,
,,,-122.0000049E-6,0.0,
,,,-121.0000046E-6,0.0,
,,,-120.0000042E-6,0.0,
,,,-119.0000039E-6,0.0,
,,,-118.0000036E-6,0.0,
,,,-117.0000032E-6,0.0,
,,,-116.0000029E-6,0.0,
,,,-115.0000026E-6,0.0,
,,,-114.0000022E-6,0.0,
,,,-113.0000019E-6,0.0,
,,,-112.0000015E-6,0.0,
,,,-111.0000012E-6,0.0,
,,,-110.0000009E-6,0.0,
,,,-109.0000005E-6,0.0,
,,,-108.0000002E-6,0.0,
,,,-106.9999998E-6,0.0,
,,,-105.9999995E-6,-800.000011921E-3,
,,,-104.9999992E-6,0.0,
,,,-103.9999988E-6,0.0,
,,,-102.9999985E-6,0.0,
,,,-102.0000054E-6,0.0,
,,,-101.0000051E-6,0.0,
,,,-100.0000047E-6,0.0,
,,,-99.000004411E-6,0.0,
,,,-98.000004073E-6,0.0,
,,,-97.000003734E-6,800.000011921E-3,
,,,-96.000003396E-6,1.6000000,
,,,-95.000003057E-6,1.6000000,
,,,-94.000002719E-6,800.000011921E-3,
,,,-93.000002380E-6,800.000011921E-3,
,,,-92.000002041E-6,800.000011921E-3,
,,,-91.000001703E-6,0.0,
,,,-90.000001364E-6,0.0,
,,,-89.000001026E-6,0.0,
,,,-88.000000687E-6,0.0,
,,,-87.000000349E-6,0.0,
,,,-86.000000010E-6,0.0,
,,,-84.999999672E-6,0.0,
,,,-83.999999333E-6,0.0,
,,,-82.999998995E-6,0.0,
,,,-81.999998656E-6,0.0,
,,,-81.000005594E-6,0.0,
,,,-80.000005255E-6,0.0,
,,,-79.000004916E-6,0.0,
,,,-78.000004578E-6,0.0,
,,,-77.000004239E-6,0.0,
,,,-76.000003901E-6,0.0,
,,,-75.000003562E-6,0.0,
,,,-74.000003224E-6,0.0,
,,,-73.000002885E-6,0.0,
,,,-72.000002547E-6,0.0,
,,,-71.000002208E-6,0.0,
,,,-70.000001870E-6,0.0,
,,,-69.000001531E-6,0.0,
,,,-68.000001193E-6,800.000011921E-3,
,,,-67.000000854E-6,0.0,
,,,-66.000000515E-6,0.0,
,,,-65.000000177E-6,800.000011921E-3,
,,,-63.999999838E-6,0.0,
,,,-62.999999500E-6,0.0,
,,,-61.999999161E-6,0.0,
,,,-61.000002461E-6,800.000011921E-3,
,,,-60.000002122E-6,0.0,
,,,-59.000001784E-6,0.0,
,,,-58.000001445E-6,0.0,
,,,-57.000001107E-6,0.0,
,,,-56.000000768E-6,0.0,
,,,-55.000000430E-6,0.0,
,,,-54.00000373E-6,0.0,
,,,-53.00000339E-6,0.0,
,,,-52.00000305E-6,-800.000011921E-3,
,,,-51.00000271E-6,-800.000011921E-3,
,,,-50.00000237E-6,-800.000011921E-3,
,,,-49.00000204E-6,-800.000011921E-3,
,,,-48.00000170E-6,-800.000011921E-3,
,,,-47.00000136E-6,0.0,
,,,-46.00000102E-6,0.0,
,,,-45.00000068E-6,-800.000011921E-3,
,,,-44.00000034E-6,0.0,
,,,-43.00000364E-6,0.0,
,,,-42.00000330E-6,0.0,
,,,-41.00000297E-6,0.0,
,,,-40.00000263E-6,0.0,
,,,-39.00000229E-6,0.0,
,,,-38.00000195E-6,800.000011921E-3,
,,,-37.00000161E-6,0.0,
,,,-36.00000127E-6,0.0,
,,,-35.00000093E-6,800.000011921E-3,
,,,-34.00000060E-6,0.0,
,,,-33.00000390E-6,0.0,
,,,-32.00000356E-6,0.0,
,,,-31.00000322E-6,0.0,
,,,-30.00000288E-6,0.0,
,,,-29.00000254E-6,0.0,
,,,-28.00000220E-6,0.0,
,,,-27.00000186E-6,0.0,
,,,-26.00000153E-6,0.0,
,,,-25.00000301E-6,0.0,
,,,-24.00000267E-6,0.0,
,,,-23.00000233E-6,0.0,
,,,-22.00000199E-6,0.0,
,,,-21.00000165E-6,0.0,
,,,-20.0000031E-6,0.0,
,,,-19.0000028E-6,0.0,
,,,-18.0000025E-6,0.0,
,,,-17.0000021E-6,0.0,
,,,-16.0000018E-6,0.0,
,,,-15.0000023E-6,0.0,
,,,-14.0000020E-6,-800.000011921E-3,
,,,-13.0000026E-6,0.0,
,,,-12.0000022E-6,0.0,
,,,-11.0000019E-6,0.0,
,,,-10.0000025E-6,0.0,
,,,-9.000002137E-6,-800.000011921E-3,
,,,-8.000002708E-6,-800.000011921E-3,
,,,-7.00000237E-6,-800.000011921E-3,
,,,-6.00000203E-6,-800.000011921E-3,
,,,-5.00000215E-6,0.0,
,,,-4.00000226E-6,-800.000011921E-3,
,,,-3.00000238E-6,-800.000011921E-3,
,,,-2.0000023E-6,-800.000011921E-3,
,,,-1.0000023E-6,0.0,
,,,-2.2737367E-12,0.0,
,,,999.997723738E-9,9.600000381,
,,,1.9999977E-6,28.00000000,
,,,2.99999783E-6,43.20000076,
,,,3.99999772E-6,54.40000153,
,,,4.99999760E-6,64.000000000,
,,,5.99999748E-6,72.000000000,
,,,6.99999782E-6,77.599998474,
,,,7.999997251E-6,83.200004578,
,,,8.999997590E-6,87.200004578,
,,,9.999997928E-6,90.400001526,
,,,10.9999974E-6,92.800003052,
,,,11.9999977E-6,95.200004578,
,,,12.9999980E-6,97.599998474,
,,,13.9999975E-6,98.400001526,
,,,14.9999978E-6,100.0000000,
,,,15.9999981E-6,100.8000031,
,,,16.9999985E-6,101.5999985,
,,,17.9999970E-6,101.5999985,
,,,18.9999973E-6,102.4000015,
,,,19.9999977E-6,103.2000046,
,,,20.99999801E-6,103.2000046,
,,,21.99999835E-6,103.2000046,
,,,22.99999687E-6,104.0000000,
,,,23.99999721E-6,104.0000000,
,,,24.99999755E-6,104.0000000,
,,,25.99999789E-6,104.0000000,
,,,26.99999823E-6,104.0000000,
,,,27.99999857E-6,104.8000031,
,,,28.99999708E-6,104.8000031,
,,,29.99999742E-6,104.8000031,
,,,30.99999594E-6,104.8000031,
,,,31.99999628E-6,104.8000031,
,,,32.99999662E-6,104.8000031,
,,,33.99999696E-6,104.8000031,
,,,34.99999730E-6,104.8000031,
,,,35.99999764E-6,104.8000031,
,,,36.99999797E-6,104.8000031,
,,,37.99999831E-6,104.8000031,
,,,38.99999865E-6,104.8000031,
,,,39.99999899E-6,104.8000031,
,,,40.99999933E-6,104.8000031,
,,,41.99999603E-6,104.8000031,
,,,42.99999637E-6,104.8000031,
,,,43.99999671E-6,104.8000031,
,,,44.99999704E-6,104.8000031,
,,,45.99999738E-6,104.8000031,
,,,46.99999772E-6,104.8000031,
,,,47.99999806E-6,104.8000031,
,,,48.99999840E-6,104.8000031,
,,,49.99999874E-6,104.8000031,
,,,50.99999908E-6,104.8000031,
,,,51.99999578E-6,104.8000031,
,,,52.99999611E-6,104.8000031,
,,,53.99999645E-6,104.8000031,
,,,54.999996792E-6,104.8000031,
,,,55.999997130E-6,104.8000031,
,,,56.999997469E-6,104.8000031,
,,,57.999997807E-6,104.8000031,
,,,58.999998146E-6,104.8000031,
,,,59.999998484E-6,104.8000031,
,,,60.999998823E-6,104.8000031,
,,,61.999999161E-6,104.8000031,
,,,62.999999500E-6,104.8000031,
,,,63.999999838E-6,104.8000031,
,,,65.000000177E-6,104.8000031,
,,,66.000000515E-6,104.8000031,
,,,67.000000854E-6,104.8000031,
,,,67.999993917E-6,104.8000031,
,,,68.999994255E-6,104.8000031,
,,,69.999994594E-6,105.5999985,
,,,70.999994932E-6,104.8000031,
,,,71.999995271E-6,104.8000031,
,,,72.999995609E-6,104.8000031,
,,,73.999995948E-6,104.8000031,
,,,74.999996286E-6,104.8000031,
,,,75.999996625E-6,105.5999985,
,,,76.999996963E-6,104.8000031,
,,,77.999997302E-6,104.8000031,
,,,78.999997640E-6,104.8000031,
,,,79.999997979E-6,104.8000031,
,,,80.999998318E-6,104.8000031,
,,,81.999998656E-6,104.8000031,
,,,82.999998995E-6,104.8000031,
,,,83.999999333E-6,104.8000031,
,,,84.999999672E-6,104.8000031,
,,,86.000000010E-6,104.8000031,
,,,87.000000349E-6,104.8000031,
,,,88.000000687E-6,104.8000031,
,,,89.000001026E-6,105.5999985,
,,,89.999994088E-6,104.8000031,
,,,90.999994427E-6,95.200004578,
,,,91.999994766E-6,80.800003052,
,,,92.999995104E-6,66.400001526,
,,,93.999995443E-6,54.40000153,
,,,94.999995781E-6,44.79999924,
,,,95.999996120E-6,36.79999924,
,,,96.999996458E-6,29.60000038,
,,,97.999996797E-6,24.80000114,
,,,98.999997135E-6,20.0000000,
,,,99.999997474E-6,16.0000000,
,,,100.9999978E-6,13.6000004,
,,,101.9999982E-6,11.1999998,
,,,102.9999985E-6,8.800000191,
,,,103.9999988E-6,6.40000010,
,,,104.9999992E-6,5.59999990,
,,,105.9999995E-6,4.80000019,
,,,106.9999998E-6,3.20000005,
,,,108.0000002E-6,2.4000001,
,,,109.0000005E-6,3.20000005,
,,,110.0000009E-6,2.4000001,
,,,110.9999939E-6,1.6000000,
,,,111.9999943E-6,1.6000000,
,,,112.9999946E-6,1.6000000,
,,,113.9999949E-6,800.000011921E-3,
,,,114.9999953E-6,800.000011921E-3,
,,,115.9999956E-6,800.000011921E-3,
,,,116.9999960E-6,800.000011921E-3,
,,,117.9999963E-6,800.000011921E-3,
,,,118.9999966E-6,0.0,
,,,119.9999970E-6,0.0,
,,,120.9999973E-6,0.0,
,,,121.9999976E-6,0.0,
,,,122.9999907E-6,0.0,
,,,123.9999983E-6,-800.000011921E-3,
,,,124.9999914E-6,0.0,
,,,125.9999990E-6,0.0,
,,,126.9999921E-6,-800.000011921E-3,
,,,127.9999997E-6,0.0,
,,,128.9999927E-6,0.0,
,,,130.0000004E-6,0.0,
,,,130.9999934E-6,0.0,
,,,132.0000010E-6,0.0,
,,,132.9999941E-6,0.0,
,,,134.0000017E-6,0.0,
,,,134.9999948E-6,0.0,
,,,136.0000024E-6,0.0,
,,,136.9999954E-6,0.0,
,,,138.0000031E-6,0.0,
,,,138.9999961E-6,0.0,
,,,140.0000037E-6,0.0,
,,,140.9999968E-6,0.0,
,,,142.0000044E-6,0.0,
,,,142.9999975E-6,0.0,
,,,143.9999905E-6,0.0,
,,,144.9999982E-6,0.0,
,,,145.9999912E-6,0.0,
,,,146.9999988E-6,0.0,
,,,147.9999919E-6,0.0,
,,,148.99999951E-6,0.0,
,,,149.99999257E-6,0.0,
,,,151.00000019E-6,0.0,
,,,151.99999325E-6,0.0,
,,,153.00000086E-6,0.0,
,,,153.99999393E-6,0.0,
,,,155.00000154E-6,0.0,
,,,155.99999460E-6,-800.000011921E-3,
,,,157.00000222E-6,-800.000011921E-3,
,,,157.99999528E-6,0.0,
,,,159.00000290E-6,-800.000011921E-3,
,,,159.99999596E-6,0.0,
,,,161.00000357E-6,0.0,
,,,161.99999664E-6,0.0,
,,,163.00000425E-6,0.0,
,,,163.99999731E-6,0.0,
,,,164.99999037E-6,0.0,
,,,165.99999799E-6,0.0,
,,,166.99999105E-6,0.0,
,,,167.99999867E-6,0.0,
,,,168.99999173E-6,0.0,
,,,169.99999934E-6,0.0,
,,,170.99999241E-6,-800.000011921E-3,
,,,172.00000002E-6,0.0,
,,,172.99999308E-6,0.0,
,,,174.00000070E-6,0.0,
,,,174.99999376E-6,0.0,
,,,176.00000137E-6,0.0,
,,,176.99999444E-6,-800.000011921E-3,
,,,178.00000205E-6,-800.000011921E-3,
,,,178.99999511E-6,-800.000011921E-3,
,,,180.00000273E-6,0.0,
,,,180.99999579E-6,-800.000011921E-3,
,,,182.00000341E-6,-800.000011921E-3,
,,,182.99999647E-6,-800.000011921E-3,
,,,184.00000408E-6,-800.000011921E-3,
,,,184.99999715E-6,-800.000011921E-3,
,,,185.99999021E-6,-800.000011921E-3,
,,,186.99999782E-6,0.0,
,,,187.99999089E-6,0.0,
,,,188.99999850E-6,0.0,
,,,189.99999156E-6,0.0,
,,,190.99999918E-6,0.0,
,,,191.99999224E-6,0.0,
,,,192.99999985E-6,0.0,
,,,193.99999292E-6,0.0,
,,,195.00000053E-6,0.0,
,,,195.99999359E-6,0.0,
,,,197.00000121E-6,-800.000011921E-3,
,,,197.99999427E-6,0.0,
,,,199.00000188E-6,0.0,
,,,199.99999495E-6,0.0,
,,,201.00000256E-6,-800.000011921E-3,
,,,201.99999562E-6,-800.000011921E-3,
,,,203.00000324E-6,-800.000011921E-3,
,,,203.99999630E-6,-800.000011921E-3,
,,,205.00000392E-6,-800.000011921E-3,
,,,205.99999698E-6,-800.000011921E-3,
,,,206.99999004E-6,-800.000011921E-3,
,,,207.99999766E-6,-800.000011921E-3,
,,,208.99999072E-6,-800.000011921E-3,
,,,209.99999833E-6,0.0,
,,,210.99999140E-6,0.0,
,,,211.99999901E-6,0.0,
,,,212.99999207E-6,-800.000011921E-3,
,,,213.99999969E-6,-800.000011921E-3,
,,,214.99999275E-6,-800.000011921E-3,
,,,216.00000036E-6,-800.000011921E-3,
,,,216.99999343E-6,-800.000011921E-3,
,,,218.00000104E-6,0.0,
,,,218.99999410E-6,0.0,
,,,220.00000172E-6,800.000011921E-3,
,,,220.99999478E-6,0.0,
,,,222.00000240E-6,0.0,
,,,222.99999546E-6,0.0,
,,,224.00000307E-6,0.0,
,,,224.99999614E-6,0.0,
,,,226.00000375E-6,0.0,
,,,226.99999681E-6,0.0,
,,,227.99998987E-6,0.0,
,,,228.99999749E-6,0.0,
,,,229.99999055E-6,0.0,
,,,230.99999817E-6,0.0,
,,,231.99999123E-6,0.0,
,,,232.99999884E-6,0.0,
,,,233.99999191E-6,-800.000011921E-3,
,,,234.99999952E-6,-800.000011921E-3,
,,,235.99999258E-6,0.0,
,,,237.00000020E-6,0.0,
,,,237.99999326E-6,-800.000011921E-3,
,,,239.00000087E-6,-800.000011921E-3,
,,,239.99999394E-6,-800.000011921E-3,
,,,241.00000155E-6,-800.000011921E-3,
,,,241.99999461E-6,-800.000011921E-3,
,,,243.00000223E-6,-800.000011921E-3,
,,,243.99999529E-6,-800.000011921E-3,
,,,245.00000291E-6,-800.000011921E-3,
,,,246.00001052E-6,-800.000011921E-3,
,,,246.99998903E-6,-800.000011921E-3,
,,,247.99999665E-6,-800.000011921E-3,
,,,249.00000426E-6,-800.000011921E-3,
,,,249.99998277E-6,-800.000011921E-3,
,,,250.99999039E-6,-800.000011921E-3,
,,,251.99999800E-6,-800.000011921E-3,
,,,253.00000561E-6,-800.000011921E-3,
,,,253.99998412E-6,0.0,
,,,254.99999174E-6,0.0,
,,,255.99999935E-6,-800.000011921E-3,
,,,257.00000697E-6,-800.000011921E-3,
,,,257.99998548E-6,-800.000011921E-3,
,,,258.99999309E-6,-800.000011921E-3,
,,,260.00000071E-6,0.0,
,,,261.00000832E-6,0.0,
,,,261.99998683E-6,0.0,
,,,262.99999445E-6,-800.000011921E-3,
,,,264.00000206E-6,0.0,
,,,265.00000968E-6,-800.000011921E-3,
,,,265.99998819E-6,-800.000011921E-3,
,,,266.99999580E-6,0.0,
,,,268.00000342E-6,0.0,
,,,269.00001103E-6,0.0,
,,,269.99998954E-6,0.0,
,,,270.99999716E-6,0.0,
,,,272.00000477E-6,-800.000011921E-3,
,,,272.99998328E-6,0.0,
,,,273.99999090E-6,0.0,
,,,274.99999851E-6,0.0,
,,,276.00000612E-6,0.0,
,,,276.99998464E-6,0.0,
,,,277.99999225E-6,0.0,
,,,278.99999986E-6,0.0,
,,,280.00000748E-6,-800.000011921E-3,
,,,280.99998599E-6,-800.000011921E-3,
,,,281.99999360E-6,-800.000011921E-3,
,,,283.00000122E-6,-800.000011921E-3,
,,,284.00000883E-6,-800.000011921E-3,
,,,284.99998734E-6,-800.000011921E-3,
,,,285.99999496E-6,-800.000011921E-3,
,,,287.00000257E-6,-800.000011921E-3,
,,,288.00001019E-6,-800.000011921E-3,
,,,288.99998870E-6,-800.000011921E-3,
,,,289.99999631E-6,0.0,
,,,291.00000393E-6,0.0,
,,,292.00001154E-6,0.0,
,,,292.99999005E-6,-800.000011921E-3,
,,,293.99999767E-6,-800.000011921E-3,
,,,295.00000528E-6,-800.000011921E-3,
,,,295.99998379E-6,-800.000011921E-3,
,,,296.99999141E-6,-800.000011921E-3,
,,,297.99999902E-6,-800.000011921E-3,
,,,299.00000663E-6,-800.000011921E-3,
,,,299.99998515E-6,-800.000011921E-3,
,,,300.99999276E-6,0.0,
,,,302.00000037E-6,0.0,
,,,303.00000799E-6,0.0,
,,,303.99998650E-6,0.0,
,,,304.99999411E-6,0.0,
,,,306.00000173E-6,0.0,
,,,307.00000934E-6,0.0,
,,,307.99998785E-6,0.0,
,,,308.99999547E-6,0.0,
,,,310.00000308E-6,0.0,
,,,311.00001070E-6,800.000011921E-3,
,,,311.99998921E-6,0.0,
,,,312.99999682E-6,800.000011921E-3,
,,,314.00000444E-6,800.000011921E-3,
,,,314.99998295E-6,0.0,
,,,315.99999056E-6,800.000011921E-3,
,,,316.99999818E-6,800.000011921E-3,
,,,318.00000579E-6,800.000011921E-3,
,,,318.99998430E-6,800.000011921E-3,
,,,319.99999192E-6,0.0,
,,,320.99999953E-6,8.800000191,
,,,322.00000715E-6,27.20000076,
,,,322.99998566E-6,41.60000229,
,,,323.99999327E-6,53.60000229,
,,,325.00000088E-6,63.200000763,
,,,326.00000850E-6,71.200004578,
,,,326.99998701E-6,77.599998474,
,,,327.99999462E-6,83.200004578,
,,,329.00000224E-6,87.200004578,
,,,330.00000985E-6,90.400001526,
,,,330.99998836E-6,92.800003052,
,,,331.99999598E-6,95.200004578,
,,,333.00000359E-6,96.800003052,
,,,334.00001121E-6,99.200004578,
,,,334.99998972E-6,100.0000000,
,,,335.99999733E-6,100.8000031,
,,,337.00000495E-6,101.5999985,
,,,337.99998346E-6,102.4000015,
,,,338.99999107E-6,102.4000015,
,,,339.99999869E-6,103.2000046,
,,,341.00000630E-6,103.2000046,
,,,341.99998481E-6,103.2000046,
,,,342.99999243E-6,104.0000000,
,,,344.00000004E-6,104.0000000,
,,,345.00000766E-6,104.0000000,
,,,345.99998617E-6,104.0000000,
,,,346.99999378E-6,104.8000031,
,,,348.00000140E-6,104.8000031,
,,,349.00000901E-6,104.8000031,
,,,349.99998752E-6,104.8000031,
,,,350.99999513E-6,104.8000031,
,,,352.00000275E-6,104.8000031,
,,,353.00001036E-6,104.8000031,
,,,353.99998887E-6,104.8000031,
,,,354.99999649E-6,104.8000031,
,,,356.00000410E-6,104.8000031,
,,,356.99998261E-6,104.8000031,
,,,357.99999023E-6,104.8000031,
,,,358.99999784E-6,105.5999985,
,,,360.00000546E-6,104.8000031,
,,,360.99998397E-6,104.8000031,
,,,361.99999158E-6,104.8000031,
,,,362.99999920E-6,104.8000031,
,,,364.00000681E-6,104.8000031,
,,,364.99998532E-6,104.8000031,
,,,365.99999294E-6,104.8000031,
,,,367.00000055E-6,104.8000031,
,,,368.00000817E-6,104.8000031,
,,,368.99998668E-6,104.8000031,
,,,369.99999429E-6,104.8000031,
,,,371.00000191E-6,104.8000031,
,,,372.00000952E-6,104.8000031,
,,,372.99998803E-6,104.8000031,
,,,373.99999565E-6,104.8000031,
,,,375.00000326E-6,104.8000031,
,,,376.00001087E-6,104.8000031,
,,,376.99998938E-6,104.8000031,
,,,377.99999700E-6,104.8000031,
,,,379.00000461E-6,105.5999985,
,,,379.99998312E-6,105.5999985,
,,,380.99999074E-6,104.8000031,
,,,381.99999835E-6,104.8000031,
,,,383.00000597E-6,104.8000031,
,,,383.99998448E-6,104.8000031,
,,,384.99999209E-6,104.8000031,
,,,385.99999971E-6,100.0000000,
,,,387.00000732E-6,93.599998474,
,,,387.99998583E-6,87.200004578,
,,,388.99999345E-6,80.800003052,
,,,390.00000106E-6,74.400001526,
,,,391.00000868E-6,69.599998474,
,,,391.99998719E-6,64.800003052,
,,,392.99999480E-6,60.000000000,
,,,394.00000242E-6,56.799999237,
,,,395.00001003E-6,53.60000229,
,,,395.99998854E-6,50.40000153,
,,,396.99999616E-6,48.00000000,
,,,398.00000377E-6,46.40000153,
,,,398.99998228E-6,44.79999924,
,,,399.99998990E-6,43.20000076,
,,,400.99999751E-6,42.40000153,
,,,402.00000512E-6,41.60000229,
,,,402.99998363E-6,40.79999924,
,,,403.999991249E-6,40.00000000,
,,,404.999998864E-6,39.20000076,
,,,406.000006478E-6,39.20000076,
,,,406.999984989E-6,39.20000076,
,,,407.999992603E-6,38.40000153,
,,,409.000000218E-6,37.60000229,
,,,410.000007832E-6,37.60000229,
,,,410.999986343E-6,37.60000229,
,,,411.999993958E-6,37.60000229,
,,,413.000001572E-6,37.60000229,
,,,414.000009187E-6,37.60000229,
,,,414.999987697E-6,37.60000229,
,,,415.999995312E-6,36.79999924,
,,,417.000002926E-6,37.60000229,
,,,418.000010541E-6,36.79999924,
,,,418.999989051E-6,37.60000229,
,,,419.999996666E-6,37.60000229,
,,,421.000004280E-6,37.60000229,
,,,421.999982791E-6,36.79999924,
,,,422.999990406E-6,36.79999924,
,,,423.999998020E-6,36.79999924,
,,,425.000005635E-6,36.00000000,
,,,425.999984145E-6,36.00000000,
,,,426.999991760E-6,36.00000000,
,,,427.999999374E-6,36.00000000,
,,,429.000006989E-6,36.00000000,
,,,429.999985499E-6,36.00000000,
,,,430.999993114E-6,36.00000000,
,,,432.000000728E-6,36.00000000,
,,,433.000008343E-6,36.00000000,
,,,433.999986853E-6,35.20000076,
,,,434.999994468E-6,35.20000076,
,,,436.000002082E-6,35.20000076,
