data/1_1 aceton koper(ii)chloride_a/T1/delay650u002.csv

Record Length,2500,Points,-499.999965541E-6,800.000011921E-3,
Sample Interval,2.0000000E-6,s,-497.999950312E-6,0.0,
Trigger Point,249.99998340,Samples,-495.999993291E-6,0.0,
,,,-493.999978062E-6,0.0,
,,,-491.999962833E-6,0.0,
,,,-489.999947604E-6,800.000011921E-3,
Source,CH2,,-487.999961479E-6,0.0,
Vertical Units,Volts,,-485.999975353E-6,0.0,
Vertical Scale,20.0000003,,-483.999960124E-6,0.0,
Vertical Offset,0,,-481.999973999E-6,800.000011921E-3,
Horizontal Units,s,,-479.999958770E-6,800.000011921E-3,
Horizontal Scale,499.999998738E-6,,-477.999972645E-6,0.0,
Pt Fmt,Y,,-475.999957416E-6,0.0,
Yzero,-2.0000000,,-473.999971291E-6,0.0,
Probe Atten,10.0000000,,-471.999956062E-6,0.0,
,,,-469.999969937E-6,0.0,
Note,TDS 2024B - 12:04:19   15-11-2021,,-467.999954708E-6,0.0,
,,,-465.999968583E-6,0.0,
,,,-463.999953354E-6,800.000011921E-3,
,,,-461.999967229E-6,0.0,
,,,-459.999952000E-6,0.0,
,,,-457.999965874E-6,0.0,
,,,-455.999979749E-6,800.000011921E-3,
,,,-453.999964520E-6,0.0,
,,,-451.999978395E-6,0.0,
,,,-449.999963166E-6,800.000011921E-3,
,,,-447.999977041E-6,0.0,
,,,-445.999961812E-6,0.0,
,,,-443.999975687E-6,0.0,
,,,-441.999960458E-6,0.0,
,,,-439.999974333E-6,0.0,
,,,-437.999959104E-6,0.0,
,,,-435.999972979E-6,0.0,
,,,-433.999957750E-6,0.0,
,,,-431.999971624E-6,800.000011921E-3,
,,,-429.999956395E-6,0.0,
,,,-427.999970270E-6,0.0,
,,,-425.999955041E-6,0.0,
,,,-423.999968916E-6,-800.000011921E-3,
,,,-421.999953687E-6,0.0,
,,,-419.999967562E-6,800.000011921E-3,
,,,-417.999952333E-6,0.0,
,,,-415.999966208E-6,-800.000011921E-3,
,,,-413.999980083E-6,-800.000011921E-3,
,,,-411.999964854E-6,0.0,
,,,-409.999978729E-6,0.0,
,,,-407.999963500E-6,-800.000011921E-3,
,,,-405.999977374E-6,0.0,
,,,-403.999962145E-6,0.0,
,,,-401.99997602E-6,0.0,
,,,-399.99996079E-6,0.0,
,,,-397.99997467E-6,0.0,
,,,-395.99995944E-6,0.0,
,,,-393.99997331E-6,0.0,
,,,-391.99995808E-6,0.0,
,,,-389.99997196E-6,0.0,
,,,-387.99995673E-6,0.0,
,,,-385.99997060E-6,0.0,
,,,-383.99995537E-6,0.0,
,,,-381.99996925E-6,0.0,
,,,-379.99995402E-6,0.0,
,,,-377.99996790E-6,0.0,
,,,-375.99995267E-6,0.0,
,,,-373.99996654E-6,800.000011921E-3,
,,,-371.99998042E-6,800.000011921E-3,
,,,-369.99996519E-6,800.000011921E-3,
,,,-367.99997906E-6,0.0,
,,,-365.99996383E-6,0.0,
,,,-363.99997771E-6,0.0,
,,,-361.99996248E-6,0.0,
,,,-359.99997635E-6,0.0,
,,,-357.99996112E-6,800.000011921E-3,
,,,-355.99997500E-6,800.000011921E-3,
,,,-353.99995977E-6,800.000011921E-3,
,,,-351.99997365E-6,800.000011921E-3,
,,,-349.99995842E-6,800.000011921E-3,
,,,-347.99997229E-6,0.0,
,,,-345.99995706E-6,0.0,
,,,-343.99997094E-6,0.0,
,,,-341.99995571E-6,0.0,
,,,-339.99996958E-6,0.0,
,,,-337.99995435E-6,0.0,
,,,-335.99996823E-6,0.0,
,,,-333.99995300E-6,0.0,
,,,-331.99996687E-6,0.0,
,,,-329.99995165E-6,0.0,
,,,-327.99996552E-6,0.0,
,,,-325.99997940E-6,0.0,
,,,-323.99996417E-6,0.0,
,,,-321.99997804E-6,0.0,
,,,-319.99996281E-6,0.0,
,,,-317.99997669E-6,0.0,
,,,-315.99996146E-6,0.0,
,,,-313.99997533E-6,0.0,
,,,-311.99996010E-6,0.0,
,,,-309.99997398E-6,0.0,
,,,-307.99995875E-6,0.0,
,,,-305.99997262E-6,0.0,
,,,-303.99995740E-6,0.0,
,,,-301.99997127E-6,0.0,
,,,-299.99995604E-6,0.0,
,,,-297.99996992E-6,800.000011921E-3,
,,,-295.99995469E-6,800.000011921E-3,
,,,-293.99996856E-6,800.000011921E-3,
,,,-291.99995333E-6,800.000011921E-3,
,,,-289.99996721E-6,0.0,
,,,-287.99995198E-6,0.0,
,,,-285.99996585E-6,800.000011921E-3,
,,,-283.99997973E-6,800.000011921E-3,
,,,-281.99996450E-6,800.000011921E-3,
,,,-279.99997837E-6,800.000011921E-3,
,,,-277.99996315E-6,800.000011921E-3,
,,,-275.99997702E-6,800.000011921E-3,
,,,-273.99996179E-6,800.000011921E-3,
,,,-271.99997567E-6,800.000011921E-3,
,,,-269.99996044E-6,800.000011921E-3,
,,,-267.99997431E-6,0.0,
,,,-265.99995908E-6,0.0,
,,,-263.99997296E-6,0.0,
,,,-261.99995773E-6,0.0,
,,,-259.99997160E-6,0.0,
,,,-257.99995637E-6,0.0,
,,,-255.99997025E-6,0.0,
,,,-253.99995502E-6,0.0,
,,,-251.99996890E-6,0.0,
,,,-249.99995367E-6,0.0,
,,,-247.99996754E-6,0.0,
,,,-245.99995231E-6,0.0,
,,,-243.99996619E-6,0.0,
,,,-241.99996551E-6,0.0,
,,,-239.99996483E-6,0.0,
,,,-237.99996416E-6,0.0,
,,,-235.99996348E-6,0.0,
,,,-233.99996280E-6,0.0,
,,,-231.99996212E-6,0.0,
,,,-229.99996145E-6,-800.000011921E-3,
,,,-227.99996077E-6,0.0,
,,,-225.99996009E-6,800.000011921E-3,
,,,-223.99995942E-6,0.0,
,,,-221.99997329E-6,-800.000011921E-3,
,,,-219.99997261E-6,0.0,
,,,-217.99997194E-6,800.000011921E-3,
,,,-215.99997126E-6,800.000011921E-3,
,,,-213.99997058E-6,0.0,
,,,-211.99996991E-6,0.0,
,,,-209.99996923E-6,0.0,
,,,-207.99996855E-6,800.000011921E-3,
,,,-205.99996787E-6,0.0,
,,,-203.99996720E-6,0.0,
,,,-201.99996652E-6,0.0,
,,,-199.99996584E-6,0.0,
,,,-197.99996517E-6,0.0,
,,,-195.99996449E-6,0.0,
,,,-193.99996381E-6,0.0,
,,,-191.99996314E-6,0.0,
,,,-189.99996246E-6,0.0,
,,,-187.99996178E-6,0.0,
,,,-185.99996110E-6,800.000011921E-3,
,,,-183.99996043E-6,0.0,
,,,-181.99995975E-6,0.0,
,,,-179.99997362E-6,0.0,
,,,-177.99997295E-6,0.0,
,,,-175.99997227E-6,0.0,
,,,-173.99997159E-6,0.0,
,,,-171.99997092E-6,0.0,
,,,-169.99997024E-6,0.0,
,,,-167.99996956E-6,0.0,
,,,-165.99996889E-6,0.0,
,,,-163.99996821E-6,0.0,
,,,-161.99996753E-6,0.0,
,,,-159.99996685E-6,0.0,
,,,-157.99996618E-6,0.0,
,,,-155.99996550E-6,0.0,
,,,-153.99996482E-6,0.0,
,,,-151.99996415E-6,0.0,
,,,-149.99996347E-6,0.0,
,,,-147.9999628E-6,0.0,
,,,-145.9999621E-6,0.0,
,,,-143.9999614E-6,800.000011921E-3,
,,,-141.9999608E-6,0.0,
,,,-139.9999601E-6,800.000011921E-3,
,,,-137.9999594E-6,800.000011921E-3,
,,,-135.9999733E-6,0.0,
,,,-133.9999726E-6,0.0,
,,,-131.9999719E-6,0.0,
,,,-129.9999713E-6,0.0,
,,,-127.9999706E-6,800.000011921E-3,
,,,-125.9999699E-6,0.0,
,,,-123.9999692E-6,0.0,
,,,-121.9999685E-6,0.0,
,,,-119.9999679E-6,0.0,
,,,-117.9999672E-6,0.0,
,,,-115.9999665E-6,0.0,
,,,-113.9999658E-6,0.0,
,,,-111.9999652E-6,0.0,
,,,-109.9999645E-6,0.0,
,,,-107.9999638E-6,0.0,
,,,-105.9999631E-6,0.0,
,,,-103.9999697E-6,0.0,
,,,-101.9999690E-6,0.0,
,,,-99.999968370E-6,0.0,
,,,-97.999967693E-6,0.0,
,,,-95.999967016E-6,0.0,
,,,-93.999966339E-6,0.0,
,,,-91.999965662E-6,0.0,
,,,-89.999964985E-6,0.0,
,,,-87.999964308E-6,800.000011921E-3,
,,,-85.999963630E-6,800.000011921E-3,
,,,-83.999970229E-6,0.0,
,,,-81.999969552E-6,0.0,
,,,-79.999968875E-6,0.0,
,,,-77.999968198E-6,0.0,
,,,-75.999967521E-6,0.0,
,,,-73.999966844E-6,0.0,
,,,-71.999966167E-6,0.0,
,,,-69.999965490E-6,0.0,
,,,-67.999964813E-6,0.0,
,,,-65.999964136E-6,0.0,
,,,-63.999963459E-6,0.0,
,,,-61.999970058E-6,0.0,
,,,-59.999965742E-6,-800.000011921E-3,
,,,-57.999965065E-6,0.0,
,,,-55.999968026E-6,0.0,
,,,-53.99996735E-6,-800.000011921E-3,
,,,-51.99996667E-6,0.0,
,,,-49.99996600E-6,0.0,
,,,-47.99996532E-6,0.0,
,,,-45.99996828E-6,0.0,
,,,-43.99996760E-6,0.0,
,,,-41.99996692E-6,0.0,
,,,-39.99996625E-6,0.0,
,,,-37.99996557E-6,-800.000011921E-3,
,,,-35.99996853E-6,0.0,
,,,-33.99996785E-6,800.000011921E-3,
,,,-31.99996718E-6,800.000011921E-3,
,,,-29.99996650E-6,0.0,
,,,-27.99996582E-6,0.0,
,,,-25.99996697E-6,0.0,
,,,-23.99996629E-6,0.0,
,,,-21.99996743E-6,0.0,
,,,-19.9999668E-6,0.0,
,,,-17.9999661E-6,0.0,
,,,-15.9999672E-6,-800.000011921E-3,
,,,-13.9999665E-6,0.0,
,,,-11.9999668E-6,-800.000011921E-3,
,,,-9.999967006E-6,-800.000011921E-3,
,,,-7.999966328E-6,0.0,
,,,-5.99996656E-6,-800.000011921E-3,
,,,-3.99996679E-6,0.0,
,,,-1.9999668E-6,0.0,
,,,33.19655648E-12,5.59999990,
,,,2.0000332E-6,30.39999962,
,,,4.00003319E-6,48.00000000,
,,,6.00003295E-6,58.400001526,
,,,8.000033631E-6,65.599998474,
,,,10.0000334E-6,70.400001526,
,,,12.0000332E-6,73.599998474,
,,,14.0000329E-6,76.000000000,
,,,16.0000327E-6,76.800003052,
,,,18.0000334E-6,77.599998474,
,,,20.0000322E-6,78.400001526,
,,,22.00003291E-6,79.200004578,
,,,24.00003359E-6,80.000000000,
,,,26.00003245E-6,79.200004578,
,,,28.00003313E-6,80.000000000,
,,,30.00003380E-6,79.200004578,
,,,32.00003266E-6,80.000000000,
,,,34.00003334E-6,80.000000000,
,,,36.00003402E-6,80.000000000,
,,,38.00003469E-6,80.000000000,
,,,40.00003173E-6,76.000000000,
,,,42.00003241E-6,60.000000000,
,,,44.00003309E-6,44.00000000,
,,,46.00003376E-6,32.00000000,
,,,48.00003444E-6,24.00000000,
,,,50.00003148E-6,18.3999996,
,,,52.00003216E-6,14.4000006,
,,,54.00003283E-6,12.0000000,
,,,56.000033510E-6,10.4000006,
,,,58.000034187E-6,9.600000381,
,,,60.000034864E-6,8.800000191,
,,,62.000035541E-6,8.000000000,
,,,64.000036218E-6,7.20000029,
,,,66.000029619E-6,6.40000010,
,,,68.000030296E-6,6.40000010,
,,,70.000030973E-6,6.40000010,
,,,72.000031651E-6,6.40000010,
,,,74.000032328E-6,5.59999990,
,,,76.000033005E-6,5.59999990,
,,,78.000033682E-6,4.80000019,
,,,80.000034359E-6,4.80000019,
,,,82.000035036E-6,4.80000019,
,,,84.000035713E-6,4.80000019,
,,,86.000036390E-6,5.59999990,
,,,88.000029791E-6,5.59999990,
,,,90.000030468E-6,5.59999990,
,,,92.000031145E-6,5.59999990,
,,,94.000031822E-6,5.59999990,
,,,96.000032499E-6,5.59999990,
,,,98.000033177E-6,5.59999990,
,,,100.0000339E-6,4.80000019,
,,,102.0000345E-6,4.80000019,
,,,104.0000352E-6,4.80000019,
,,,106.0000359E-6,4.00000000,
,,,108.0000366E-6,4.00000000,
,,,110.0000300E-6,4.80000019,
,,,112.0000306E-6,4.00000000,
,,,114.0000313E-6,4.80000019,
,,,116.0000320E-6,4.80000019,
,,,118.0000327E-6,4.80000019,
,,,120.0000333E-6,4.00000000,
,,,122.0000340E-6,4.00000000,
,,,124.0000274E-6,4.00000000,
,,,126.0000281E-6,4.00000000,
,,,128.0000288E-6,4.00000000,
,,,130.0000295E-6,4.00000000,
,,,132.0000301E-6,4.00000000,
,,,134.0000308E-6,4.00000000,
,,,136.0000315E-6,4.00000000,
,,,138.0000322E-6,3.20000005,
,,,140.0000328E-6,3.20000005,
,,,142.0000335E-6,3.20000005,
,,,144.0000342E-6,3.20000005,
,,,146.0000349E-6,3.20000005,
,,,148.0000356E-6,3.20000005,
,,,150.00003623E-6,3.20000005,
,,,152.00003691E-6,2.4000001,
,,,154.00003758E-6,2.4000001,
,,,156.00003826E-6,3.20000005,
,,,158.00003894E-6,3.20000005,
,,,160.00003961E-6,3.20000005,
,,,162.00002574E-6,4.00000000,
,,,164.00002642E-6,3.20000005,
,,,166.00002709E-6,2.4000001,
,,,168.00002777E-6,2.4000001,
,,,170.00002845E-6,2.4000001,
,,,172.00002912E-6,2.4000001,
,,,174.00002980E-6,2.4000001,
,,,176.00003048E-6,2.4000001,
,,,178.00003116E-6,2.4000001,
,,,180.00003183E-6,2.4000001,
,,,182.00003251E-6,2.4000001,
,,,184.00003319E-6,2.4000001,
,,,186.00003386E-6,1.6000000,
,,,188.00003454E-6,2.4000001,
,,,190.00003522E-6,2.4000001,
,,,192.00003590E-6,2.4000001,
,,,194.00003657E-6,2.4000001,
,,,196.00003725E-6,2.4000001,
,,,198.00003793E-6,2.4000001,
,,,200.00003860E-6,1.6000000,
,,,202.00003928E-6,1.6000000,
,,,204.00003996E-6,1.6000000,
,,,206.00002608E-6,1.6000000,
,,,208.00002676E-6,1.6000000,
,,,210.00002744E-6,800.000011921E-3,
,,,212.00002811E-6,800.000011921E-3,
,,,214.00002879E-6,800.000011921E-3,
,,,216.00002947E-6,1.6000000,
,,,218.00003015E-6,1.6000000,
,,,220.00003082E-6,1.6000000,
,,,222.00003150E-6,1.6000000,
,,,224.00003218E-6,1.6000000,
,,,226.00003285E-6,1.6000000,
,,,228.00003353E-6,1.6000000,
,,,230.00003421E-6,1.6000000,
,,,232.00003488E-6,1.6000000,
,,,234.00003556E-6,1.6000000,
,,,236.00003624E-6,1.6000000,
,,,238.00003692E-6,1.6000000,
,,,240.00003759E-6,800.000011921E-3,
,,,242.00003827E-6,800.000011921E-3,
,,,244.00003895E-6,800.000011921E-3,
,,,246.00003962E-6,800.000011921E-3,
,,,248.00002575E-6,800.000011921E-3,
,,,250.00004098E-6,800.000011921E-3,
,,,252.00002710E-6,1.6000000,
,,,254.00004233E-6,800.000011921E-3,
,,,256.00002846E-6,1.6000000,
,,,258.00004369E-6,800.000011921E-3,
,,,260.00002981E-6,800.000011921E-3,
,,,262.00004504E-6,800.000011921E-3,
,,,264.00003117E-6,800.000011921E-3,
,,,266.00004639E-6,800.000011921E-3,
,,,268.00003252E-6,800.000011921E-3,
,,,270.00001865E-6,800.000011921E-3,
,,,272.00003387E-6,1.6000000,
,,,274.00002000E-6,1.6000000,
,,,276.00003523E-6,800.000011921E-3,
,,,278.00002135E-6,800.000011921E-3,
,,,280.00003658E-6,800.000011921E-3,
,,,282.00002271E-6,800.000011921E-3,
,,,284.00003794E-6,800.000011921E-3,
,,,286.00002406E-6,800.000011921E-3,
,,,288.00003929E-6,0.0,
,,,290.00002542E-6,0.0,
,,,292.00004064E-6,0.0,
,,,294.00002677E-6,0.0,
,,,296.00004200E-6,800.000011921E-3,
,,,298.00002812E-6,0.0,
,,,300.00004335E-6,0.0,
,,,302.00002948E-6,0.0,
,,,304.00004471E-6,-800.000011921E-3,
,,,306.00003083E-6,0.0,
,,,308.00004606E-6,0.0,
,,,310.00003219E-6,0.0,
,,,312.00001831E-6,0.0,
,,,314.00003354E-6,0.0,
,,,316.00001967E-6,0.0,
,,,318.00003489E-6,0.0,
,,,320.00002102E-6,0.0,
,,,322.00003625E-6,0.0,
,,,324.00002237E-6,0.0,
,,,326.00003760E-6,0.0,
,,,328.00002373E-6,0.0,
,,,330.00003896E-6,0.0,
,,,332.00002508E-6,0.0,
,,,334.00004031E-6,0.0,
,,,336.00002644E-6,0.0,
,,,338.00004167E-6,0.0,
,,,340.00002779E-6,800.000011921E-3,
,,,342.00004302E-6,800.000011921E-3,
,,,344.00002914E-6,800.000011921E-3,
,,,346.00004437E-6,800.000011921E-3,
,,,348.00003050E-6,0.0,
,,,350.00004573E-6,5.59999990,
,,,352.00003185E-6,30.39999962,
,,,354.00001798E-6,47.20000076,
,,,356.00003321E-6,58.400001526,
,,,358.00001933E-6,65.599998474,
,,,360.00003456E-6,71.200004578,
,,,362.00002069E-6,73.599998474,
,,,364.00003592E-6,76.000000000,
,,,366.00002204E-6,76.800003052,
,,,368.00003727E-6,78.400001526,
,,,370.00002339E-6,79.200004578,
,,,372.00003862E-6,79.200004578,
,,,374.00002475E-6,79.200004578,
,,,376.00003998E-6,67.200004578,
,,,378.00002610E-6,51.20000076,
,,,380.00004133E-6,39.20000076,
,,,382.00002746E-6,29.60000038,
,,,384.00004269E-6,23.20000076,
,,,386.00002881E-6,19.2000008,
,,,388.00004404E-6,15.1999998,
,,,390.00003017E-6,13.6000004,
,,,392.00004539E-6,12.8000002,
,,,394.00003152E-6,11.1999998,
,,,396.00004675E-6,10.4000006,
,,,398.00003287E-6,9.600000381,
,,,400.00001900E-6,9.600000381,
,,,402.00003423E-6,9.600000381,
,,,404.000020353E-6,9.600000381,
,,,406.000035582E-6,8.800000191,
,,,408.000021707E-6,8.800000191,
,,,410.000036936E-6,8.800000191,
,,,412.000023061E-6,8.800000191,
,,,414.000038290E-6,8.800000191,
,,,416.000024416E-6,8.800000191,
,,,418.000039645E-6,9.600000381,
,,,420.000025770E-6,9.600000381,
,,,422.000040999E-6,9.600000381,
,,,424.000027124E-6,9.600000381,
,,,426.000042353E-6,8.800000191,
,,,428.000028478E-6,8.800000191,
,,,430.000043707E-6,8.800000191,
,,,432.000029832E-6,8.800000191,
,,,434.000045061E-6,8.800000191,
,,,436.000031186E-6,8.800000191,
,,,438.000046415E-6,8.800000191,
,,,440.000032540E-6,8.800000191,
,,,442.000018666E-6,8.000000000,
,,,444.000033895E-6,8.800000191,
,,,446.000020020E-6,8.800000191,
,,,448.000035249E-6,8.800000191,
,,,450.000021374E-6,8.000000000,
,,,452.000036603E-6,8.800000191,
,,,454.000022728E-6,8.000000000,
,,,456.000037957E-6,8.800000191,
,,,458.000024082E-6,8.000000000,
,,,460.000039311E-6,8.000000000,
,,,462.000025436E-6,8.800000191,
,,,464.000040665E-6,8.800000191,
,,,466.000026790E-6,8.800000191,
,,,468.000042019E-6,8.000000000,
,,,470.000028145E-6,8.000000000,
,,,472.000043374E-6,8.800000191,
,,,474.000029499E-6,7.20000029,
,,,476.000044728E-6,7.20000029,
,,,478.000030853E-6,7.20000029,
,,,480.000046082E-6,7.20000029,
,,,482.000032207E-6,7.20000029,
,,,484.000018332E-6,8.000000000,
,,,486.000033561E-6,8.800000191,
,,,488.000019686E-6,8.000000000,
,,,490.000005811E-6,8.000000000,
,,,492.000021040E-6,8.000000000,
,,,494.000036269E-6,7.20000029,
,,,496.000051498E-6,7.20000029,
,,,498.000008520E-6,7.20000029,
,,,500.000023749E-6,7.20000029,
,,,502.000038978E-6,6.40000010,
,,,504.000054207E-6,6.40000010,
,,,506.000011228E-6,6.40000010,
,,,508.000026457E-6,6.40000010,
,,,510.000041686E-6,6.40000010,
,,,512.000056915E-6,6.40000010,
,,,514.000013936E-6,6.40000010,
,,,516.000029165E-6,6.40000010,
,,,518.000044394E-6,6.40000010,
,,,520.000059623E-6,5.59999990,
,,,522.000016645E-6,6.40000010,
,,,524.000031874E-6,5.59999990,
,,,526.000047103E-6,5.59999990,
,,,528.000004124E-6,5.59999990,
,,,530.000019353E-6,5.59999990,
,,,532.000034582E-6,6.40000010,
,,,534.000049811E-6,6.40000010,
,,,536.000006832E-6,5.59999990,
,,,538.000022061E-6,6.40000010,
,,,540.000037290E-6,5.59999990,
,,,542.000052519E-6,5.59999990,
,,,544.000009540E-6,5.59999990,
,,,546.000024769E-6,5.59999990,
,,,548.000039998E-6,6.40000010,
,,,550.000055227E-6,5.59999990,
,,,552.000012249E-6,5.59999990,
,,,554.000027478E-6,5.59999990,
,,,556.000042707E-6,5.59999990,
,,,558.000057936E-6,5.59999990,
,,,560.000014957E-6,5.59999990,
,,,562.000030186E-6,5.59999990,
,,,564.000045415E-6,5.59999990,
,,,566.000060644E-6,4.80000019,
,,,568.000017665E-6,4.80000019,
,,,570.000032894E-6,5.59999990,
,,,572.000048123E-6,5.59999990,
,,,574.000005145E-6,4.80000019,
,,,576.000020374E-6,4.80000019,
,,,578.000035603E-6,4.80000019,
,,,580.000050832E-6,4.80000019,
,,,582.000007853E-6,4.80000019,
,,,584.000023082E-6,4.00000000,
,,,586.000038311E-6,4.80000019,
,,,588.000053540E-6,4.00000000,
,,,590.000010561E-6,4.00000000,
,,,592.000025790E-6,4.00000000,
,,,594.000041019E-6,4.00000000,
,,,596.000056248E-6,3.20000005,
,,,598.000013269E-6,3.20000005,
,,,600.000028498E-6,3.20000005,
,,,602.000043727E-6,4.00000000,
,,,604.000058956E-6,4.00000000,
,,,606.000015978E-6,3.20000005,
,,,608.000031207E-6,3.20000005,
,,,610.000046436E-6,3.20000005,
,,,612.000003457E-6,4.00000000,
,,,614.000018686E-6,3.20000005,
,,,616.000033915E-6,4.00000000,
,,,618.000049144E-6,4.00000000,
,,,620.000006165E-6,4.00000000,
,,,622.000021394E-6,4.00000000,
,,,624.000036623E-6,4.00000000,
,,,626.000051852E-6,4.00000000,
,,,628.000008874E-6,4.00000000,
,,,630.000024103E-6,3.20000005,
,,,632.000039332E-6,3.20000005,
,,,634.000054561E-6,3.20000005,
,,,636.000011582E-6,4.00000000,
,,,638.000026811E-6,3.20000005,
,,,640.000042040E-6,3.20000005,
,,,642.000057269E-6,3.20000005,
,,,644.000014290E-6,2.4000001,
,,,646.000029519E-6,3.20000005,
,,,648.000044748E-6,2.4000001,
,,,650.000059977E-6,2.4000001,
,,,652.000016998E-6,3.20000005,
,,,654.000032227E-6,3.20000005,
,,,656.000047456E-6,3.20000005,
,,,658.000004478E-6,2.4000001,
,,,660.000019707E-6,2.4000001,
,,,662.000034936E-6,1.6000000,
,,,664.000050165E-6,2.4000001,
,,,666.000007186E-6,1.6000000,
,,,668.000022415E-6,2.4000001,
,,,670.000037644E-6,2.4000001,
,,,672.000052873E-6,3.20000005,
,,,674.000009894E-6,3.20000005,
,,,676.000025123E-6,2.4000001,
,,,678.000040352E-6,3.20000005,
,,,680.000055581E-6,2.4000001,
,,,682.000012603E-6,2.4000001,
,,,684.000027832E-6,2.4000001,
,,,686.000043061E-6,1.6000000,
,,,688.000058290E-6,1.6000000,
,,,690.000015311E-6,2.4000001,
,,,692.000030540E-6,3.20000005,
,,,694.000045769E-6,3.20000005,
,,,696.000002790E-6,2.4000001,
,,,698.000018019E-6,3.20000005,
,,,700.000033248E-6,3.20000005,
,,,702.000048477E-6,2.4000001,
,,,704.000005499E-6,2.4000001,
,,,706.000020728E-6,2.4000001,
,,,708.000035957E-6,2.4000001,
,,,710.000051185E-6,2.4000001,
,,,712.000008207E-6,2.4000001,
,,,714.000023436E-6,2.4000001,
,,,716.000038665E-6,2.4000001,
,,,718.000053894E-6,2.4000001,
,,,720.000010915E-6,2.4000001,
,,,722.000026144E-6,2.4000001,
,,,724.000041373E-6,1.6000000,
,,,726.000056602E-6,1.6000000,
,,,728.000013623E-6,1.6000000,
,,,730.000028852E-6,1.6000000,
,,,732.000044081E-6,1.6000000,
,,,734.000059310E-6,1.6000000,
,,,736.000016332E-6,1.6000000,
,,,738.000031561E-6,1.6000000,
,,,740.000046790E-6,1.6000000,
,,,742.000003811E-6,1.6000000,
,,,744.000019040E-6,1.6000000,
,,,746.000034269E-6,1.6000000,
,,,748.000049498E-6,1.6000000,
,,,750.000006519E-6,1.6000000,
,,,752.000021748E-6,1.6000000,
,,,754.000036977E-6,1.6000000,
,,,756.000052206E-6,1.6000000,
,,,758.000009228E-6,2.4000001,
,,,760.000024457E-6,2.4000001,
,,,762.000039686E-6,1.6000000,
,,,764.000054915E-6,1.6000000,
,,,766.000011936E-6,1.6000000,
,,,768.000027165E-6,1.6000000,
,,,770.000042394E-6,1.6000000,
,,,772.000057623E-6,1.6000000,
,,,774.000014644E-6,1.6000000,
,,,776.000029873E-6,1.6000000,
,,,778.000045102E-6,1.6000000,
,,,780.000002123E-6,1.6000000,
,,,782.000017352E-6,1.6000000,
,,,784.000032581E-6,1.6000000,
,,,786.000047810E-6,1.6000000,
,,,788.000004832E-6,1.6000000,
,,,790.000020061E-6,1.6000000,
,,,792.000035290E-6,1.6000000,
,,,794.000050519E-6,800.000011921E-3,
,,,796.000007540E-6,1.6000000,
,,,798.000022769E-6,1.6000000,
,,,800.000037998E-6,1.6000000,
,,,802.000053227E-6,1.6000000,
,,,804.000010248E-6,1.6000000,
,,,806.000025477E-6,1.6000000,
,,,808.000040706E-6,1.6000000,
,,,810.000055935E-6,1.6000000,
