data/verhouding 1_4 koper(ii)chloride/T2/delay450u002.csv

Record Length,2500,Points,-27.99999857E-6,-800.000011921E-3,
Sample Interval,400.00000467E-9,s,-27.59999916E-6,-800.000011921E-3,
Trigger Point,69.999995595,Samples,-27.19999793E-6,0.0,
,,,-26.79999852E-6,-800.000011921E-3,
,,,-26.39999911E-6,800.000011921E-3,
,,,-25.99999789E-6,0.0,
Source,CH2,,-25.59999848E-6,0.0,
Vertical Units,Volts,,-25.19999907E-6,0.0,
Vertical Scale,20.0000003,,-24.79999785E-6,800.000011921E-3,
Vertical Offset,0,,-24.39999844E-6,0.0,
Horizontal Units,s,,-23.99999903E-6,0.0,
Horizontal Scale,100.0000012E-6,,-23.59999780E-6,800.000011921E-3,
Pt Fmt,Y,,-23.19999840E-6,0.0,
Yzero,-2.0000000,,-22.79999899E-6,0.0,
Probe Atten,10.0000000,,-22.39999776E-6,0.0,
,,,-21.99999835E-6,-1.6000000,
Note,TDS 2024B - 11:49:24   12-11-2021,,-21.59999895E-6,-800.000011921E-3,
,,,-21.19999772E-6,-800.000011921E-3,
,,,-20.79999831E-6,-1.6000000,
,,,-20.39999890E-6,-800.000011921E-3,
,,,-19.9999977E-6,0.0,
,,,-19.5999983E-6,0.0,
,,,-19.1999989E-6,0.0,
,,,-18.7999976E-6,-800.000011921E-3,
,,,-18.3999982E-6,0.0,
,,,-17.9999988E-6,0.0,
,,,-17.5999976E-6,-800.000011921E-3,
,,,-17.1999982E-6,-800.000011921E-3,
,,,-16.7999988E-6,0.0,
,,,-16.3999975E-6,0.0,
,,,-15.9999981E-6,0.0,
,,,-15.5999987E-6,-800.000011921E-3,
,,,-15.1999984E-6,-800.000011921E-3,
,,,-14.7999981E-6,-800.000011921E-3,
,,,-14.3999987E-6,-1.6000000,
,,,-13.9999984E-6,0.0,
,,,-13.5999981E-6,0.0,
,,,-13.1999986E-6,0.0,
,,,-12.7999983E-6,0.0,
,,,-12.3999980E-6,-800.000011921E-3,
,,,-11.9999986E-6,-800.000011921E-3,
,,,-11.5999983E-6,0.0,
,,,-11.1999980E-6,800.000011921E-3,
,,,-10.7999986E-6,0.0,
,,,-10.3999982E-6,800.000011921E-3,
,,,-9.999997928E-6,0.0,
,,,-9.599998521E-6,0.0,
,,,-9.199998203E-6,0.0,
,,,-8.799997886E-6,-800.000011921E-3,
,,,-8.399998478E-6,0.0,
,,,-7.999998161E-6,0.0,
,,,-7.599998298E-6,-800.000011921E-3,
,,,-7.19999844E-6,-800.000011921E-3,
,,,-6.79999812E-6,0.0,
,,,-6.39999826E-6,0.0,
,,,-5.99999839E-6,800.000011921E-3,
,,,-5.59999808E-6,0.0,
,,,-5.19999821E-6,0.0,
,,,-4.79999835E-6,0.0,
,,,-4.39999849E-6,-800.000011921E-3,
,,,-3.99999817E-6,800.000011921E-3,
,,,-3.59999831E-6,0.0,
,,,-3.19999822E-6,800.000011921E-3,
,,,-2.79999836E-6,2.4000001,
,,,-2.3999983E-6,800.000011921E-3,
,,,-1.9999982E-6,0.0,
,,,-1.5999983E-6,800.000011921E-3,
,,,-1.1999982E-6,0.0,
,,,-799.998247203E-9,1.6000000,
,,,-399.99824253E-9,800.000011921E-3,
,,,1.7621460E-12,0.0,
,,,400.00176682E-9,0.0,
,,,800.001771495E-9,0.0,
,,,1.2000017E-6,800.000011921E-3,
,,,1.6000017E-6,-800.000011921E-3,
,,,2.0000018E-6,0.0,
,,,2.4000019E-6,0.0,
,,,2.80000177E-6,0.0,
,,,3.20000186E-6,-800.000011921E-3,
,,,3.60000172E-6,2.4000001,
,,,4.00000181E-6,11.1999998,
,,,4.40000167E-6,17.6000004,
,,,4.80000199E-6,24.80000114,
,,,5.20000185E-6,32.00000000,
,,,5.60000171E-6,38.40000153,
,,,6.00000203E-6,44.00000000,
,,,6.40000189E-6,48.00000000,
,,,6.80000176E-6,52.79999924,
,,,7.20000207E-6,57.600002289,
,,,7.600001936E-6,61.600002289,
,,,8.000001799E-6,64.000000000,
,,,8.400002116E-6,67.200004578,
,,,8.800001524E-6,70.400001526,
,,,9.200001841E-6,72.800003052,
,,,9.600002159E-6,75.200004578,
,,,10.0000016E-6,77.599998474,
,,,10.4000019E-6,80.000000000,
,,,10.8000022E-6,81.599998474,
,,,11.2000016E-6,84.800003052,
,,,11.6000019E-6,84.800003052,
,,,12.0000022E-6,86.400001526,
,,,12.4000017E-6,88.800003052,
,,,12.8000020E-6,89.599998474,
,,,13.2000023E-6,90.400001526,
,,,13.6000017E-6,91.200004578,
,,,14.0000020E-6,92.800003052,
,,,14.4000023E-6,94.400001526,
,,,14.8000017E-6,95.200004578,
,,,15.2000021E-6,94.400001526,
,,,15.6000024E-6,96.800003052,
,,,16.0000018E-6,96.800003052,
,,,16.4000012E-6,96.800003052,
,,,16.8000024E-6,97.599998474,
,,,17.2000018E-6,98.400001526,
,,,17.6000012E-6,99.200004578,
,,,18.0000025E-6,99.200004578,
,,,18.4000019E-6,100.0000000,
,,,18.8000013E-6,100.8000031,
,,,19.2000025E-6,101.5999985,
,,,19.6000019E-6,100.8000031,
,,,20.0000013E-6,101.5999985,
,,,20.40000254E-6,101.5999985,
,,,20.80000195E-6,103.2000046,
,,,21.20000136E-6,101.5999985,
,,,21.60000258E-6,101.5999985,
,,,22.00000199E-6,101.5999985,
,,,22.40000140E-6,102.4000015,
,,,22.80000263E-6,102.4000015,
,,,23.20000203E-6,103.2000046,
,,,23.60000144E-6,104.0000000,
,,,24.00000267E-6,103.2000046,
,,,24.40000208E-6,102.4000015,
,,,24.80000148E-6,103.2000046,
,,,25.20000271E-6,103.2000046,
,,,25.60000212E-6,104.0000000,
,,,26.00000153E-6,104.0000000,
,,,26.40000275E-6,104.8000031,
,,,26.80000216E-6,104.0000000,
,,,27.20000157E-6,104.0000000,
,,,27.60000280E-6,103.2000046,
,,,28.00000220E-6,103.2000046,
,,,28.40000161E-6,103.2000046,
,,,28.80000284E-6,104.0000000,
,,,29.20000225E-6,104.0000000,
,,,29.60000165E-6,103.2000046,
,,,30.00000288E-6,104.0000000,
,,,30.40000229E-6,104.0000000,
,,,30.80000170E-6,104.0000000,
,,,31.20000110E-6,104.0000000,
,,,31.60000051E-6,105.5999985,
,,,32.00000356E-6,103.2000046,
,,,32.40000297E-6,104.8000031,
,,,32.80000237E-6,104.8000031,
,,,33.20000178E-6,104.8000031,
,,,33.60000119E-6,104.0000000,
,,,34.00000060E-6,104.8000031,
,,,34.40000364E-6,104.0000000,
,,,34.80000305E-6,104.8000031,
,,,35.20000246E-6,104.0000000,
,,,35.60000187E-6,104.8000031,
,,,36.00000127E-6,103.2000046,
,,,36.40000068E-6,105.5999985,
,,,36.80000373E-6,104.8000031,
,,,37.20000313E-6,105.5999985,
,,,37.60000254E-6,104.8000031,
,,,38.00000195E-6,104.8000031,
,,,38.40000136E-6,104.0000000,
,,,38.80000077E-6,104.0000000,
,,,39.20000381E-6,104.0000000,
,,,39.60000322E-6,104.0000000,
,,,40.00000263E-6,104.8000031,
,,,40.40000204E-6,104.8000031,
,,,40.80000144E-6,104.0000000,
,,,41.20000085E-6,104.8000031,
,,,41.60000390E-6,104.0000000,
,,,42.00000330E-6,104.8000031,
,,,42.40000271E-6,104.8000031,
,,,42.80000212E-6,104.8000031,
,,,43.20000153E-6,104.0000000,
,,,43.60000094E-6,104.0000000,
,,,44.00000398E-6,104.8000031,
,,,44.40000339E-6,104.0000000,
,,,44.80000280E-6,104.8000031,
,,,45.20000221E-6,104.8000031,
,,,45.60000161E-6,105.5999985,
,,,46.00000102E-6,105.5999985,
,,,46.40000407E-6,104.8000031,
,,,46.80000347E-6,104.8000031,
,,,47.20000288E-6,105.5999985,
,,,47.60000229E-6,104.8000031,
,,,48.00000170E-6,103.2000046,
,,,48.40000111E-6,105.5999985,
,,,48.80000051E-6,107.2000046,
,,,49.20000356E-6,104.8000031,
,,,49.60000297E-6,104.8000031,
,,,50.00000237E-6,104.8000031,
,,,50.40000178E-6,105.5999985,
,,,50.80000119E-6,104.0000000,
,,,51.20000060E-6,105.5999985,
,,,51.60000364E-6,104.8000031,
,,,52.00000305E-6,105.5999985,
,,,52.40000246E-6,104.8000031,
,,,52.80000187E-6,105.5999985,
,,,53.20000128E-6,104.8000031,
,,,53.60000068E-6,104.8000031,
,,,54.00000373E-6,104.8000031,
,,,54.40000314E-6,105.5999985,
,,,54.800002545E-6,104.8000031,
,,,55.200001952E-6,104.8000031,
,,,55.600001360E-6,104.8000031,
,,,56.000000768E-6,104.8000031,
,,,56.400003814E-6,104.0000000,
,,,56.800003222E-6,105.5999985,
,,,57.200002630E-6,104.8000031,
,,,57.600002037E-6,104.8000031,
,,,58.000001445E-6,105.5999985,
,,,58.400000853E-6,104.8000031,
,,,58.800003899E-6,106.4000015,
,,,59.200003307E-6,104.0000000,
,,,59.600002714E-6,104.8000031,
,,,60.000002122E-6,104.8000031,
,,,60.400001530E-6,105.5999985,
,,,60.800000938E-6,104.0000000,
,,,61.200000346E-6,104.8000031,
,,,61.600003392E-6,104.8000031,
,,,61.999999161E-6,105.5999985,
,,,62.400002207E-6,105.5999985,
,,,62.800005253E-6,104.8000031,
,,,63.200001023E-6,105.5999985,
,,,63.600004069E-6,104.8000031,
,,,63.999999838E-6,104.0000000,
,,,64.400002884E-6,104.8000031,
,,,64.800005930E-6,104.8000031,
,,,65.200001700E-6,104.8000031,
,,,65.600004746E-6,104.0000000,
,,,66.000000515E-6,104.8000031,
,,,66.400003561E-6,105.5999985,
,,,66.799999331E-6,105.5999985,
,,,67.200002377E-6,105.5999985,
,,,67.600005423E-6,105.5999985,
,,,68.000001193E-6,104.8000031,
,,,68.400004238E-6,103.2000046,
,,,68.800000008E-6,100.8000031,
,,,69.200003054E-6,100.0000000,
,,,69.600006100E-6,98.400001526,
,,,70.000001870E-6,95.200004578,
,,,70.400004915E-6,94.400001526,
,,,70.800000685E-6,91.200004578,
,,,71.200003731E-6,89.599998474,
,,,71.599999501E-6,88.000000000,
,,,72.000002547E-6,86.400001526,
,,,72.400005592E-6,84.000000000,
,,,72.800001362E-6,81.599998474,
,,,73.200004408E-6,80.800003052,
,,,73.600000178E-6,77.599998474,
,,,74.000003224E-6,76.000000000,
,,,74.399998994E-6,74.400001526,
,,,74.800002039E-6,72.800003052,
,,,75.200005085E-6,71.200004578,
,,,75.600000855E-6,68.800003052,
,,,76.000003901E-6,68.800003052,
,,,76.399999671E-6,66.400001526,
,,,76.800002716E-6,66.400001526,
,,,77.200005762E-6,64.000000000,
,,,77.600001532E-6,64.000000000,
,,,78.000004578E-6,63.200000763,
,,,78.400000348E-6,62.400001526,
,,,78.800003394E-6,62.400001526,
,,,79.199999163E-6,59.200000763,
,,,79.600002209E-6,58.400001526,
,,,80.000005255E-6,59.200000763,
,,,80.400001025E-6,57.600002289,
,,,80.800004071E-6,57.600002289,
,,,81.199999840E-6,56.000000000,
,,,81.600002886E-6,55.200000763,
,,,82.000005932E-6,54.40000153,
,,,82.400001702E-6,53.60000229,
,,,82.800004748E-6,52.79999924,
,,,83.200000518E-6,52.79999924,
,,,83.600003563E-6,52.79999924,
,,,83.999999333E-6,52.00000000,
,,,84.400002379E-6,52.00000000,
,,,84.800005425E-6,52.00000000,
,,,85.200001195E-6,52.00000000,
,,,85.600004240E-6,50.40000153,
,,,86.000000010E-6,52.00000000,
,,,86.400003056E-6,50.40000153,
,,,86.800006102E-6,50.40000153,
,,,87.200001872E-6,50.40000153,
,,,87.600004917E-6,51.20000076,
,,,88.000000687E-6,51.20000076,
,,,88.400003733E-6,51.20000076,
,,,88.799999503E-6,50.40000153,
,,,89.200002549E-6,50.40000153,
,,,89.600005595E-6,50.40000153,
,,,90.000001364E-6,48.79999924,
,,,90.400004410E-6,48.79999924,
,,,90.800000180E-6,50.40000153,
,,,91.200003226E-6,48.79999924,
,,,91.600006272E-6,48.79999924,
,,,92.000002041E-6,48.79999924,
,,,92.400005087E-6,49.60000229,
,,,92.800000857E-6,48.79999924,
,,,93.200003903E-6,48.79999924,
,,,93.599999673E-6,49.60000229,
,,,94.000002719E-6,48.79999924,
,,,94.400005764E-6,50.40000153,
,,,94.800001534E-6,49.60000229,
,,,95.200004580E-6,49.60000229,
,,,95.600000350E-6,48.00000000,
,,,96.000003396E-6,48.79999924,
,,,96.400006441E-6,49.60000229,
,,,96.800002211E-6,49.60000229,
,,,97.200005257E-6,49.60000229,
,,,97.600001027E-6,50.40000153,
,,,98.000004073E-6,50.40000153,
,,,98.399999843E-6,50.40000153,
,,,98.800002888E-6,48.79999924,
,,,99.200005934E-6,49.60000229,
,,,99.600001704E-6,48.79999924,
,,,100.0000047E-6,49.60000229,
,,,100.4000005E-6,49.60000229,
,,,100.8000036E-6,48.79999924,
,,,101.1999993E-6,49.60000229,
,,,101.6000024E-6,48.00000000,
,,,102.0000054E-6,48.79999924,
,,,102.4000012E-6,48.00000000,
,,,102.8000042E-6,48.00000000,
,,,103.2000000E-6,48.00000000,
,,,103.6000031E-6,48.79999924,
,,,104.0000061E-6,48.00000000,
,,,104.4000019E-6,48.00000000,
,,,104.8000049E-6,48.00000000,
,,,105.2000007E-6,48.00000000,
,,,105.6000037E-6,47.20000076,
,,,105.9999995E-6,48.79999924,
,,,106.4000026E-6,48.79999924,
,,,106.8000056E-6,47.20000076,
,,,107.2000014E-6,48.00000000,
,,,107.6000044E-6,48.00000000,
,,,108.0000002E-6,46.40000153,
,,,108.4000032E-6,48.00000000,
,,,108.8000063E-6,48.79999924,
,,,109.2000020E-6,48.79999924,
,,,109.6000051E-6,48.00000000,
,,,110.0000009E-6,48.79999924,
,,,110.4000039E-6,48.00000000,
,,,110.7999997E-6,48.00000000,
,,,111.2000027E-6,47.20000076,
,,,111.6000058E-6,47.20000076,
,,,112.0000015E-6,48.79999924,
,,,112.4000046E-6,48.00000000,
,,,112.8000004E-6,47.20000076,
,,,113.2000034E-6,47.20000076,
,,,113.6000064E-6,46.40000153,
,,,114.0000022E-6,47.20000076,
,,,114.4000053E-6,48.00000000,
,,,114.8000010E-6,46.40000153,
,,,115.2000041E-6,46.40000153,
,,,115.5999998E-6,47.20000076,
,,,116.0000029E-6,47.20000076,
,,,116.4000059E-6,46.40000153,
,,,116.8000017E-6,47.20000076,
,,,117.2000048E-6,48.00000000,
,,,117.6000005E-6,46.40000153,
,,,118.0000036E-6,47.20000076,
,,,118.4000066E-6,47.20000076,
,,,118.8000024E-6,47.20000076,
,,,119.2000054E-6,47.20000076,
,,,119.6000012E-6,47.20000076,
,,,120.0000042E-6,48.00000000,
,,,120.4000000E-6,47.20000076,
,,,120.8000031E-6,47.20000076,
,,,121.2000061E-6,48.00000000,
,,,121.6000019E-6,48.00000000,
,,,122.0000049E-6,48.79999924,
,,,122.4000007E-6,48.00000000,
,,,122.8000037E-6,48.00000000,
,,,123.2000068E-6,48.79999924,
,,,123.6000098E-6,48.79999924,
,,,123.9999983E-6,48.79999924,
,,,124.4000014E-6,48.79999924,
,,,124.8000044E-6,48.79999924,
,,,125.2000075E-6,47.20000076,
,,,125.5999960E-6,48.79999924,
,,,125.9999990E-6,48.00000000,
,,,126.4000020E-6,48.00000000,
,,,126.8000051E-6,47.20000076,
,,,127.2000081E-6,47.20000076,
,,,127.5999966E-6,48.00000000,
,,,127.9999997E-6,48.00000000,
,,,128.4000027E-6,48.00000000,
,,,128.8000058E-6,47.20000076,
,,,129.2000088E-6,47.20000076,
,,,129.5999973E-6,48.00000000,
,,,130.0000004E-6,48.00000000,
,,,130.4000034E-6,48.00000000,
,,,130.8000064E-6,48.00000000,
,,,131.2000095E-6,48.79999924,
,,,131.5999980E-6,47.20000076,
,,,132.0000010E-6,47.20000076,
,,,132.4000041E-6,48.79999924,
,,,132.8000071E-6,47.20000076,
,,,133.2000102E-6,48.00000000,
,,,133.5999987E-6,47.20000076,
,,,134.0000017E-6,47.20000076,
,,,134.4000048E-6,48.00000000,
,,,134.8000078E-6,48.00000000,
,,,135.1999963E-6,47.20000076,
,,,135.5999993E-6,48.00000000,
,,,136.0000024E-6,48.00000000,
,,,136.4000054E-6,47.20000076,
,,,136.8000085E-6,48.00000000,
,,,137.1999970E-6,46.40000153,
,,,137.6000000E-6,47.20000076,
,,,138.0000031E-6,48.00000000,
,,,138.4000061E-6,48.00000000,
,,,138.8000092E-6,47.20000076,
,,,139.1999976E-6,47.20000076,
,,,139.6000007E-6,48.00000000,
,,,140.0000037E-6,48.00000000,
,,,140.4000068E-6,46.40000153,
,,,140.8000098E-6,46.40000153,
,,,141.1999983E-6,48.00000000,
,,,141.6000014E-6,48.00000000,
,,,142.0000044E-6,47.20000076,
,,,142.4000075E-6,47.20000076,
,,,142.8000105E-6,48.00000000,
,,,143.1999990E-6,47.20000076,
,,,143.6000020E-6,47.20000076,
,,,144.0000051E-6,47.20000076,
,,,144.4000081E-6,46.40000153,
,,,144.7999966E-6,46.40000153,
,,,145.1999997E-6,46.40000153,
,,,145.6000027E-6,45.60000229,
,,,146.0000058E-6,47.20000076,
,,,146.4000088E-6,46.40000153,
,,,146.7999973E-6,46.40000153,
,,,147.2000004E-6,45.60000229,
,,,147.6000034E-6,45.60000229,
,,,148.0000064E-6,45.60000229,
,,,148.4000095E-6,46.40000153,
,,,148.79999799E-6,46.40000153,
,,,149.20000103E-6,46.40000153,
,,,149.60000408E-6,47.20000076,
,,,150.00000712E-6,46.40000153,
,,,150.40001017E-6,46.40000153,
,,,150.79999866E-6,45.60000229,
,,,151.20000171E-6,46.40000153,
,,,151.60000476E-6,47.20000076,
,,,152.00000780E-6,46.40000153,
,,,152.39999630E-6,47.20000076,
,,,152.79999934E-6,47.20000076,
,,,153.20000239E-6,45.60000229,
,,,153.60000543E-6,47.20000076,
,,,154.00000848E-6,52.00000000,
,,,154.39999697E-6,57.600002289,
,,,154.80000002E-6,60.799999237,
,,,155.20000306E-6,65.599998474,
,,,155.60000611E-6,68.800003052,
,,,156.00000916E-6,70.400001526,
,,,156.39999765E-6,72.000000000,
,,,156.80000070E-6,76.000000000,
,,,157.20000374E-6,77.599998474,
,,,157.60000679E-6,79.200004578,
,,,158.00000983E-6,82.400001526,
,,,158.39999833E-6,84.000000000,
,,,158.80000137E-6,86.400001526,
,,,159.20000442E-6,88.000000000,
,,,159.60000746E-6,88.000000000,
,,,160.00001051E-6,90.400001526,
,,,160.39999900E-6,91.200004578,
,,,160.80000205E-6,92.000000000,
,,,161.20000510E-6,92.800003052,
,,,161.60000814E-6,95.200004578,
,,,161.99999664E-6,95.200004578,
,,,162.39999968E-6,96.000000000,
,,,162.80000273E-6,96.000000000,
,,,163.20000577E-6,97.599998474,
,,,163.60000882E-6,97.599998474,
,,,163.99999731E-6,98.400001526,
,,,164.40000036E-6,99.200004578,
,,,164.80000340E-6,99.200004578,
,,,165.20000645E-6,100.8000031,
,,,165.60000950E-6,100.8000031,
,,,165.99999799E-6,100.8000031,
,,,166.40000104E-6,100.8000031,
,,,166.80000408E-6,100.8000031,
,,,167.20000713E-6,101.5999985,
,,,167.60001017E-6,102.4000015,
,,,167.99999867E-6,102.4000015,
,,,168.40000171E-6,101.5999985,
,,,168.80000476E-6,101.5999985,
,,,169.20000780E-6,103.2000046,
,,,169.60001085E-6,102.4000015,
,,,169.99999934E-6,103.2000046,
,,,170.40000239E-6,104.0000000,
,,,170.80000544E-6,104.0000000,
,,,171.20000848E-6,103.2000046,
,,,171.59999697E-6,103.2000046,
,,,172.00000002E-6,104.0000000,
,,,172.40000307E-6,103.2000046,
,,,172.80000611E-6,104.0000000,
,,,173.20000916E-6,104.0000000,
,,,173.59999765E-6,103.2000046,
,,,174.00000070E-6,104.0000000,
,,,174.40000374E-6,105.5999985,
,,,174.80000679E-6,104.0000000,
,,,175.20000983E-6,104.0000000,
,,,175.59999833E-6,104.8000031,
,,,176.00000137E-6,104.0000000,
,,,176.40000442E-6,103.2000046,
,,,176.80000747E-6,104.0000000,
,,,177.20001051E-6,103.2000046,
,,,177.59999901E-6,104.8000031,
,,,178.00000205E-6,104.0000000,
,,,178.40000510E-6,104.8000031,
,,,178.80000814E-6,104.8000031,
,,,179.19999664E-6,104.0000000,
,,,179.59999968E-6,104.8000031,
,,,180.00000273E-6,104.0000000,
,,,180.40000577E-6,104.8000031,
,,,180.80000882E-6,104.8000031,
,,,181.19999731E-6,104.8000031,
,,,181.60000036E-6,104.8000031,
,,,182.00000341E-6,104.0000000,
,,,182.40000645E-6,104.8000031,
,,,182.80000950E-6,104.8000031,
,,,183.19999799E-6,104.8000031,
,,,183.60000104E-6,104.0000000,
,,,184.00000408E-6,104.8000031,
,,,184.40000713E-6,104.0000000,
,,,184.80001017E-6,104.8000031,
,,,185.19999867E-6,105.5999985,
,,,185.60000171E-6,105.5999985,
,,,186.00000476E-6,105.5999985,
,,,186.40000781E-6,104.8000031,
,,,186.80001085E-6,104.0000000,
,,,187.19999935E-6,104.8000031,
,,,187.60000239E-6,104.8000031,
,,,188.00000544E-6,104.0000000,
,,,188.40000848E-6,104.8000031,
,,,188.79999698E-6,104.0000000,
,,,189.20000002E-6,105.5999985,
,,,189.60000307E-6,104.0000000,
,,,190.00000611E-6,104.0000000,
,,,190.40000916E-6,105.5999985,
,,,190.79999765E-6,105.5999985,
,,,191.20000070E-6,104.0000000,
,,,191.60000375E-6,104.8000031,
,,,192.00000679E-6,104.8000031,
,,,192.40000984E-6,104.0000000,
,,,192.79999833E-6,105.5999985,
,,,193.20000138E-6,104.8000031,
,,,193.60000442E-6,104.8000031,
,,,194.00000747E-6,104.0000000,
,,,194.40001051E-6,104.8000031,
,,,194.79999901E-6,104.8000031,
,,,195.20000205E-6,105.5999985,
,,,195.60000510E-6,106.4000015,
,,,196.00000815E-6,104.8000031,
,,,196.40001119E-6,105.5999985,
,,,196.79999969E-6,104.8000031,
,,,197.20000273E-6,105.5999985,
,,,197.60000578E-6,104.8000031,
,,,198.00000882E-6,104.8000031,
,,,198.39999732E-6,104.8000031,
,,,198.80000036E-6,104.8000031,
,,,199.20000341E-6,104.8000031,
,,,199.60000645E-6,104.8000031,
,,,200.00000950E-6,104.8000031,
,,,200.39999799E-6,105.5999985,
,,,200.80000104E-6,105.5999985,
,,,201.20000408E-6,104.8000031,
,,,201.60000713E-6,105.5999985,
,,,202.00001018E-6,104.8000031,
,,,202.39999867E-6,105.5999985,
,,,202.80000172E-6,105.5999985,
,,,203.20000476E-6,105.5999985,
,,,203.60000781E-6,104.8000031,
,,,204.00001085E-6,105.5999985,
,,,204.39999935E-6,104.8000031,
,,,204.80000239E-6,104.8000031,
,,,205.20000544E-6,104.8000031,
,,,205.60000848E-6,106.4000015,
,,,205.99999698E-6,104.8000031,
,,,206.40000002E-6,105.5999985,
,,,206.80000307E-6,104.8000031,
,,,207.20000612E-6,105.5999985,
,,,207.60000916E-6,105.5999985,
,,,207.99999766E-6,104.8000031,
,,,208.40000070E-6,105.5999985,
,,,208.80000375E-6,106.4000015,
,,,209.20000679E-6,104.0000000,
,,,209.60000984E-6,104.8000031,
,,,209.99999833E-6,105.5999985,
,,,210.40000138E-6,105.5999985,
,,,210.80000442E-6,104.8000031,
,,,211.20000747E-6,105.5999985,
,,,211.60001052E-6,104.8000031,
,,,211.99999901E-6,104.8000031,
,,,212.40000206E-6,105.5999985,
,,,212.80000510E-6,105.5999985,
,,,213.20000815E-6,104.0000000,
,,,213.60001119E-6,104.8000031,
,,,213.99999969E-6,106.4000015,
,,,214.40000273E-6,104.8000031,
,,,214.80000578E-6,104.8000031,
,,,215.20000882E-6,105.5999985,
,,,215.59999732E-6,105.5999985,
,,,216.00000036E-6,104.0000000,
,,,216.40000341E-6,104.8000031,
,,,216.80000646E-6,104.8000031,
,,,217.20000950E-6,106.4000015,
,,,217.59999800E-6,104.8000031,
,,,218.00000104E-6,104.8000031,
,,,218.40000409E-6,104.8000031,
,,,218.80000713E-6,106.4000015,
,,,219.20001018E-6,104.8000031,
,,,219.59999867E-6,105.5999985,
,,,220.00000172E-6,104.8000031,
,,,220.40000476E-6,105.5999985,
,,,220.80000781E-6,104.8000031,
,,,221.20001086E-6,106.4000015,
,,,221.59999935E-6,105.5999985,
,,,222.00000240E-6,104.8000031,
,,,222.40000544E-6,104.8000031,
,,,222.80000849E-6,104.8000031,
,,,223.20001153E-6,104.0000000,
