data/1_0 aceton H20/T1/delay400u001.csv

Record Length,2500,Points,-11.9999995E-6,-800.000011921E-3,
Sample Interval,200.00000234E-9,s,-11.7999998E-6,0.0,
Trigger Point,59.999996874,Samples,-11.5999992E-6,0.0,
,,,-11.3999995E-6,-800.000011921E-3,
,,,-11.1999998E-6,0.0,
,,,-10.9999992E-6,0.0,
Source,CH1,,-10.7999995E-6,0.0,
Vertical Units,Volts,,-10.5999998E-6,0.0,
Vertical Scale,20.0000003,,-10.3999992E-6,800.000011921E-3,
Vertical Offset,0,,-10.1999995E-6,0.0,
Horizontal Units,s,,-9.999999747E-6,0.0,
Horizontal Scale,50.00000058E-6,,-9.799999134E-6,0.0,
Pt Fmt,Y,,-9.599999430E-6,800.000011921E-3,
Yzero,-2.0000000,,-9.399999726E-6,0.0,
Probe Atten,10.0000000,,-9.199999113E-6,1.6000000,
,,,-8.999999409E-6,0.0,
Note,TDS 2024B - 11:04:44   15-11-2021,,-8.799999705E-6,0.0,
,,,-8.599999092E-6,800.000011921E-3,
,,,-8.399999388E-6,0.0,
,,,-8.199999684E-6,-800.000011921E-3,
,,,-7.999999070E-6,0.0,
,,,-7.799999366E-6,0.0,
,,,-7.599999662E-6,0.0,
,,,-7.399999504E-6,0.0,
,,,-7.19999935E-6,0.0,
,,,-6.99999964E-6,800.000011921E-3,
,,,-6.79999948E-6,-800.000011921E-3,
,,,-6.59999932E-6,800.000011921E-3,
,,,-6.39999962E-6,0.0,
,,,-6.19999946E-6,800.000011921E-3,
,,,-5.99999930E-6,0.0,
,,,-5.79999960E-6,800.000011921E-3,
,,,-5.59999944E-6,-800.000011921E-3,
,,,-5.39999928E-6,0.0,
,,,-5.19999958E-6,800.000011921E-3,
,,,-4.99999942E-6,0.0,
,,,-4.79999926E-6,800.000011921E-3,
,,,-4.59999956E-6,800.000011921E-3,
,,,-4.39999940E-6,800.000011921E-3,
,,,-4.19999924E-6,800.000011921E-3,
,,,-3.99999954E-6,0.0,
,,,-3.79999938E-6,0.0,
,,,-3.59999945E-6,0.0,
,,,-3.39999951E-6,800.000011921E-3,
,,,-3.19999936E-6,800.000011921E-3,
,,,-2.99999942E-6,800.000011921E-3,
,,,-2.79999949E-6,0.0,
,,,-2.5999993E-6,800.000011921E-3,
,,,-2.3999994E-6,800.000011921E-3,
,,,-2.1999995E-6,800.000011921E-3,
,,,-1.9999993E-6,800.000011921E-3,
,,,-1.7999994E-6,800.000011921E-3,
,,,-1.5999995E-6,0.0,
,,,-1.3999994E-6,800.000011921E-3,
,,,-1.1999994E-6,800.000011921E-3,
,,,-999.999429041E-9,0.0,
,,,-799.999384071E-9,800.000011921E-3,
,,,-599.999395945E-9,800.000011921E-3,
,,,-399.99937940E-9,0.0,
,,,-199.99937706E-9,0.0,
,,,625.277599335E-15,800.000011921E-3,
,,,200.00062761E-9,800.000011921E-3,
,,,400.00062995E-9,0.0,
,,,600.000646500E-9,0.0,
,,,800.000634626E-9,0.0,
,,,1.0000007E-6,-800.000011921E-3,
,,,1.2000006E-6,800.000011921E-3,
,,,1.4000007E-6,45.60000229,
,,,1.6000006E-6,46.40000153,
,,,1.8000006E-6,46.40000153,
,,,2.0000007E-6,45.60000229,
,,,2.2000006E-6,45.60000229,
,,,2.4000005E-6,45.60000229,
,,,2.6000007E-6,46.40000153,
,,,2.80000063E-6,45.60000229,
,,,3.00000056E-6,45.60000229,
,,,3.20000072E-6,46.40000153,
,,,3.40000065E-6,46.40000153,
,,,3.60000058E-6,46.40000153,
,,,3.80000074E-6,47.20000076,
,,,4.00000044E-6,47.20000076,
,,,4.20000060E-6,46.40000153,
,,,4.40000076E-6,45.60000229,
,,,4.60000047E-6,46.40000153,
,,,4.80000062E-6,45.60000229,
,,,5.00000078E-6,47.20000076,
,,,5.20000049E-6,45.60000229,
,,,5.40000065E-6,46.40000153,
,,,5.60000080E-6,46.40000153,
,,,5.80000051E-6,46.40000153,
,,,6.00000067E-6,46.40000153,
,,,6.20000083E-6,46.40000153,
,,,6.40000053E-6,45.60000229,
,,,6.60000069E-6,46.40000153,
,,,6.80000085E-6,45.60000229,
,,,7.00000055E-6,47.20000076,
,,,7.20000071E-6,46.40000153,
,,,7.400000868E-6,46.40000153,
,,,7.600000572E-6,47.20000076,
,,,7.800000276E-6,45.60000229,
,,,8.000000889E-6,46.40000153,
,,,8.200000593E-6,47.20000076,
,,,8.400000297E-6,47.20000076,
,,,8.600000911E-6,46.40000153,
,,,8.800000614E-6,47.20000076,
,,,9.000000318E-6,46.40000153,
,,,9.200000932E-6,46.40000153,
,,,9.400000636E-6,46.40000153,
,,,9.600000340E-6,46.40000153,
,,,9.800000953E-6,46.40000153,
,,,10.0000007E-6,46.40000153,
,,,10.2000004E-6,46.40000153,
,,,10.4000010E-6,46.40000153,
,,,10.6000007E-6,46.40000153,
,,,10.8000004E-6,45.60000229,
,,,11.0000010E-6,46.40000153,
,,,11.2000007E-6,47.20000076,
,,,11.4000004E-6,47.20000076,
,,,11.6000010E-6,47.20000076,
,,,11.8000007E-6,46.40000153,
,,,12.0000004E-6,47.20000076,
,,,12.2000010E-6,45.60000229,
,,,12.4000007E-6,46.40000153,
,,,12.6000004E-6,46.40000153,
,,,12.8000011E-6,46.40000153,
,,,13.0000008E-6,47.20000076,
,,,13.2000005E-6,46.40000153,
,,,13.4000011E-6,46.40000153,
,,,13.6000008E-6,47.20000076,
,,,13.8000005E-6,46.40000153,
,,,14.0000011E-6,45.60000229,
,,,14.2000008E-6,46.40000153,
,,,14.4000005E-6,46.40000153,
,,,14.6000011E-6,47.20000076,
,,,14.8000008E-6,47.20000076,
,,,15.0000005E-6,47.20000076,
,,,15.2000011E-6,47.20000076,
,,,15.4000008E-6,47.20000076,
,,,15.6000006E-6,46.40000153,
,,,15.8000003E-6,46.40000153,
,,,16.0000000E-6,48.00000000,
,,,16.2000015E-6,46.40000153,
,,,16.4000012E-6,46.40000153,
,,,16.6000009E-6,47.20000076,
,,,16.8000006E-6,47.20000076,
,,,17.0000003E-6,47.20000076,
,,,17.2000000E-6,47.20000076,
,,,17.4000015E-6,46.40000153,
,,,17.6000012E-6,47.20000076,
,,,17.8000009E-6,47.20000076,
,,,18.0000006E-6,47.20000076,
,,,18.2000003E-6,47.20000076,
,,,18.4000000E-6,46.40000153,
,,,18.6000016E-6,46.40000153,
,,,18.8000013E-6,46.40000153,
,,,19.0000010E-6,47.20000076,
,,,19.2000007E-6,47.20000076,
,,,19.4000004E-6,48.00000000,
,,,19.6000001E-6,46.40000153,
,,,19.8000016E-6,47.20000076,
,,,20.0000013E-6,47.20000076,
,,,20.20000102E-6,47.20000076,
,,,20.40000072E-6,46.40000153,
,,,20.60000043E-6,46.40000153,
,,,20.80000013E-6,47.20000076,
,,,21.00000165E-6,47.20000076,
,,,21.20000136E-6,47.20000076,
,,,21.40000106E-6,47.20000076,
,,,21.60000076E-6,46.40000153,
,,,21.80000047E-6,47.20000076,
,,,22.00000017E-6,47.20000076,
,,,22.20000169E-6,48.00000000,
,,,22.40000140E-6,46.40000153,
,,,22.60000110E-6,47.20000076,
,,,22.80000081E-6,48.00000000,
,,,23.00000051E-6,47.20000076,
,,,23.20000021E-6,47.20000076,
,,,23.40000174E-6,47.20000076,
,,,23.60000144E-6,47.20000076,
,,,23.80000114E-6,46.40000153,
,,,24.00000085E-6,46.40000153,
,,,24.20000055E-6,46.40000153,
,,,24.40000026E-6,47.20000076,
,,,24.60000178E-6,45.60000229,
,,,24.80000148E-6,48.00000000,
,,,25.00000119E-6,47.20000076,
,,,25.20000089E-6,47.20000076,
,,,25.40000060E-6,46.40000153,
,,,25.60000030E-6,46.40000153,
,,,25.80000182E-6,46.40000153,
,,,26.00000153E-6,47.20000076,
,,,26.20000123E-6,47.20000076,
,,,26.40000093E-6,46.40000153,
,,,26.60000064E-6,46.40000153,
,,,26.80000034E-6,47.20000076,
,,,27.00000005E-6,45.60000229,
,,,27.20000157E-6,47.20000076,
,,,27.40000127E-6,45.60000229,
,,,27.60000098E-6,47.20000076,
,,,27.80000068E-6,47.20000076,
,,,28.00000038E-6,46.40000153,
,,,28.20000009E-6,47.20000076,
,,,28.40000161E-6,48.00000000,
,,,28.60000131E-6,46.40000153,
,,,28.80000102E-6,46.40000153,
,,,29.00000072E-6,47.20000076,
,,,29.20000043E-6,46.40000153,
,,,29.40000013E-6,47.20000076,
,,,29.60000165E-6,47.20000076,
,,,29.80000136E-6,46.40000153,
,,,30.00000106E-6,47.20000076,
,,,30.20000077E-6,48.00000000,
,,,30.40000047E-6,47.20000076,
,,,30.60000017E-6,46.40000153,
,,,30.80000170E-6,46.40000153,
,,,30.99999958E-6,47.20000076,
,,,31.20000110E-6,47.20000076,
,,,31.40000263E-6,47.20000076,
,,,31.60000051E-6,47.20000076,
,,,31.80000203E-6,48.00000000,
,,,31.99999992E-6,47.20000076,
,,,32.20000144E-6,47.20000076,
,,,32.39999933E-6,46.40000153,
,,,32.60000085E-6,46.40000153,
,,,32.80000237E-6,46.40000153,
,,,33.00000026E-6,48.00000000,
,,,33.20000178E-6,47.20000076,
,,,33.39999967E-6,47.20000076,
,,,33.60000119E-6,47.20000076,
,,,33.80000271E-6,47.20000076,
,,,34.00000060E-6,46.40000153,
,,,34.20000212E-6,46.40000153,
,,,34.40000000E-6,48.00000000,
,,,34.60000153E-6,48.00000000,
,,,34.79999941E-6,48.00000000,
,,,35.00000093E-6,47.20000076,
,,,35.20000246E-6,46.40000153,
,,,35.40000034E-6,46.40000153,
,,,35.60000187E-6,47.20000076,
,,,35.79999975E-6,47.20000076,
,,,36.00000127E-6,47.20000076,
,,,36.20000280E-6,46.40000153,
,,,36.40000068E-6,47.20000076,
,,,36.60000220E-6,47.20000076,
,,,36.80000009E-6,47.20000076,
,,,37.00000161E-6,47.20000076,
,,,37.19999950E-6,46.40000153,
,,,37.40000102E-6,47.20000076,
,,,37.60000254E-6,47.20000076,
,,,37.80000043E-6,47.20000076,
,,,38.00000195E-6,47.20000076,
,,,38.19999984E-6,47.20000076,
,,,38.40000136E-6,46.40000153,
,,,38.60000288E-6,46.40000153,
,,,38.80000077E-6,47.20000076,
,,,39.00000229E-6,47.20000076,
,,,39.20000017E-6,46.40000153,
,,,39.40000170E-6,47.20000076,
,,,39.59999958E-6,46.40000153,
,,,39.80000110E-6,48.00000000,
,,,40.00000263E-6,47.20000076,
,,,40.20000051E-6,45.60000229,
,,,40.40000204E-6,46.40000153,
,,,40.59999992E-6,47.20000076,
,,,40.80000144E-6,46.40000153,
,,,40.99999933E-6,48.00000000,
,,,41.20000085E-6,46.40000153,
,,,41.40000237E-6,1.6000000,
,,,41.60000026E-6,800.000011921E-3,
,,,41.80000178E-6,2.4000001,
,,,41.99999967E-6,800.000011921E-3,
,,,42.20000119E-6,800.000011921E-3,
,,,42.40000271E-6,1.6000000,
,,,42.60000060E-6,800.000011921E-3,
,,,42.80000212E-6,1.6000000,
,,,43.00000001E-6,3.20000005,
,,,43.20000153E-6,800.000011921E-3,
,,,43.39999941E-6,1.6000000,
,,,43.60000094E-6,1.6000000,
,,,43.80000246E-6,1.6000000,
,,,44.00000034E-6,800.000011921E-3,
,,,44.20000187E-6,2.4000001,
,,,44.39999975E-6,0.0,
,,,44.60000127E-6,1.6000000,
,,,44.80000280E-6,800.000011921E-3,
,,,45.00000068E-6,800.000011921E-3,
,,,45.20000221E-6,0.0,
,,,45.40000009E-6,800.000011921E-3,
,,,45.60000161E-6,0.0,
,,,45.79999950E-6,800.000011921E-3,
,,,46.00000102E-6,800.000011921E-3,
,,,46.20000254E-6,800.000011921E-3,
,,,46.40000043E-6,0.0,
,,,46.60000195E-6,800.000011921E-3,
,,,46.79999984E-6,800.000011921E-3,
,,,47.00000136E-6,800.000011921E-3,
,,,47.20000288E-6,1.6000000,
,,,47.40000077E-6,800.000011921E-3,
,,,47.60000229E-6,1.6000000,
,,,47.80000017E-6,800.000011921E-3,
,,,48.00000170E-6,800.000011921E-3,
,,,48.19999958E-6,800.000011921E-3,
,,,48.40000111E-6,800.000011921E-3,
,,,48.60000263E-6,800.000011921E-3,
,,,48.80000051E-6,0.0,
,,,49.00000204E-6,1.6000000,
,,,49.19999992E-6,1.6000000,
,,,49.40000144E-6,0.0,
,,,49.60000297E-6,0.0,
,,,49.80000085E-6,800.000011921E-3,
,,,50.00000237E-6,800.000011921E-3,
,,,50.20000026E-6,800.000011921E-3,
,,,50.40000178E-6,800.000011921E-3,
,,,50.59999967E-6,0.0,
,,,50.80000119E-6,800.000011921E-3,
,,,51.00000271E-6,0.0,
,,,51.20000060E-6,800.000011921E-3,
,,,51.40000212E-6,800.000011921E-3,
,,,51.60000001E-6,800.000011921E-3,
,,,51.80000153E-6,800.000011921E-3,
,,,52.00000305E-6,-800.000011921E-3,
,,,52.20000094E-6,800.000011921E-3,
,,,52.40000246E-6,1.6000000,
,,,52.60000034E-6,800.000011921E-3,
,,,52.80000187E-6,1.6000000,
,,,52.99999975E-6,1.6000000,
,,,53.20000128E-6,800.000011921E-3,
,,,53.40000280E-6,0.0,
,,,53.60000068E-6,800.000011921E-3,
,,,53.80000221E-6,800.000011921E-3,
,,,54.00000009E-6,0.0,
,,,54.20000161E-6,800.000011921E-3,
,,,54.39999950E-6,800.000011921E-3,
,,,54.600001022E-6,800.000011921E-3,
,,,54.800002545E-6,800.000011921E-3,
,,,55.000000430E-6,0.0,
,,,55.200001952E-6,0.0,
,,,55.399999837E-6,0.0,
,,,55.600001360E-6,800.000011921E-3,
,,,55.800002883E-6,800.000011921E-3,
,,,56.000000768E-6,0.0,
,,,56.200002291E-6,800.000011921E-3,
,,,56.400000176E-6,0.0,
,,,56.600001699E-6,0.0,
,,,56.799999584E-6,0.0,
,,,57.000001107E-6,0.0,
,,,57.200002630E-6,800.000011921E-3,
,,,57.400000514E-6,0.0,
,,,57.600002037E-6,800.000011921E-3,
,,,57.799999922E-6,0.0,
,,,58.000001445E-6,1.6000000,
,,,58.200002968E-6,800.000011921E-3,
,,,58.400000853E-6,800.000011921E-3,
,,,58.600002376E-6,800.000011921E-3,
,,,58.800000261E-6,800.000011921E-3,
,,,59.000001784E-6,0.0,
,,,59.199999669E-6,800.000011921E-3,
,,,59.400001192E-6,0.0,
,,,59.600002714E-6,800.000011921E-3,
,,,59.800000599E-6,0.0,
,,,60.000002122E-6,800.000011921E-3,
,,,60.200000007E-6,800.000011921E-3,
,,,60.400001530E-6,800.000011921E-3,
,,,60.600003053E-6,800.000011921E-3,
,,,60.800000938E-6,800.000011921E-3,
,,,61.000002461E-6,800.000011921E-3,
,,,61.200000346E-6,800.000011921E-3,
,,,61.400001869E-6,-800.000011921E-3,
,,,61.600003392E-6,0.0,
,,,61.800004914E-6,-800.000011921E-3,
,,,61.999999161E-6,0.0,
,,,62.200000684E-6,0.0,
,,,62.400002207E-6,0.0,
,,,62.600003730E-6,0.0,
,,,62.799997977E-6,800.000011921E-3,
,,,62.999999500E-6,0.0,
,,,63.200001023E-6,0.0,
,,,63.400002546E-6,0.0,
,,,63.600004069E-6,0.0,
,,,63.799998316E-6,0.0,
,,,63.999999838E-6,0.0,
,,,64.200001361E-6,0.0,
,,,64.400002884E-6,0.0,
,,,64.600004407E-6,0.0,
,,,64.799998654E-6,800.000011921E-3,
,,,65.000000177E-6,0.0,
,,,65.200001700E-6,0.0,
,,,65.400003223E-6,-800.000011921E-3,
,,,65.600004746E-6,0.0,
,,,65.799998993E-6,800.000011921E-3,
,,,66.000000515E-6,800.000011921E-3,
,,,66.200002038E-6,0.0,
,,,66.400003561E-6,0.0,
,,,66.599997808E-6,800.000011921E-3,
,,,66.799999331E-6,0.0,
,,,67.000000854E-6,-800.000011921E-3,
,,,67.200002377E-6,0.0,
,,,67.400003900E-6,0.0,
,,,67.599998147E-6,800.000011921E-3,
,,,67.799999670E-6,800.000011921E-3,
,,,68.000001193E-6,800.000011921E-3,
,,,68.200002715E-6,0.0,
,,,68.400004238E-6,0.0,
,,,68.599998485E-6,800.000011921E-3,
,,,68.800000008E-6,800.000011921E-3,
,,,69.000001531E-6,0.0,
,,,69.200003054E-6,0.0,
,,,69.400004577E-6,0.0,
,,,69.599998824E-6,0.0,
,,,69.800000347E-6,0.0,
,,,70.000001870E-6,0.0,
,,,70.200003393E-6,0.0,
,,,70.400004915E-6,0.0,
,,,70.599999162E-6,0.0,
,,,70.800000685E-6,0.0,
,,,71.000002208E-6,0.0,
,,,71.200003731E-6,0.0,
,,,71.399997978E-6,800.000011921E-3,
,,,71.599999501E-6,0.0,
,,,71.800001024E-6,800.000011921E-3,
,,,72.000002547E-6,0.0,
,,,72.200004070E-6,0.0,
,,,72.399998317E-6,0.0,
,,,72.599999839E-6,800.000011921E-3,
,,,72.800001362E-6,800.000011921E-3,
,,,73.000002885E-6,0.0,
,,,73.200004408E-6,0.0,
,,,73.399998655E-6,0.0,
,,,73.600000178E-6,0.0,
,,,73.800001701E-6,800.000011921E-3,
,,,74.000003224E-6,0.0,
,,,74.200004747E-6,0.0,
,,,74.399998994E-6,0.0,
,,,74.600000517E-6,800.000011921E-3,
,,,74.800002039E-6,0.0,
,,,75.000003562E-6,800.000011921E-3,
,,,75.200005085E-6,0.0,
,,,75.399999332E-6,0.0,
,,,75.600000855E-6,800.000011921E-3,
,,,75.800002378E-6,0.0,
,,,76.000003901E-6,0.0,
,,,76.199998148E-6,0.0,
,,,76.399999671E-6,0.0,
,,,76.600001194E-6,0.0,
,,,76.800002716E-6,0.0,
,,,77.000004239E-6,0.0,
,,,77.199998486E-6,800.000011921E-3,
,,,77.400000009E-6,0.0,
,,,77.600001532E-6,0.0,
,,,77.800003055E-6,0.0,
,,,78.000004578E-6,800.000011921E-3,
,,,78.199998825E-6,800.000011921E-3,
,,,78.400000348E-6,0.0,
,,,78.600001871E-6,-800.000011921E-3,
,,,78.800003394E-6,0.0,
,,,79.000004916E-6,0.0,
,,,79.199999163E-6,800.000011921E-3,
,,,79.400000686E-6,800.000011921E-3,
,,,79.600002209E-6,800.000011921E-3,
,,,79.800003732E-6,800.000011921E-3,
,,,79.999997979E-6,0.0,
,,,80.199999502E-6,0.0,
,,,80.400001025E-6,800.000011921E-3,
,,,80.600002548E-6,800.000011921E-3,
,,,80.800004071E-6,0.0,
,,,80.999998318E-6,0.0,
,,,81.199999840E-6,0.0,
,,,81.400001363E-6,0.0,
,,,81.600002886E-6,800.000011921E-3,
,,,81.800004409E-6,1.6000000,
,,,81.999998656E-6,0.0,
,,,82.200000179E-6,0.0,
,,,82.400001702E-6,800.000011921E-3,
,,,82.600003225E-6,800.000011921E-3,
,,,82.800004748E-6,0.0,
,,,82.999998995E-6,0.0,
,,,83.200000518E-6,0.0,
,,,83.400002040E-6,800.000011921E-3,
,,,83.600003563E-6,800.000011921E-3,
,,,83.800005086E-6,800.000011921E-3,
,,,83.999999333E-6,0.0,
,,,84.200000856E-6,800.000011921E-3,
,,,84.400002379E-6,0.0,
,,,84.600003902E-6,800.000011921E-3,
,,,84.799998149E-6,0.0,
,,,84.999999672E-6,0.0,
,,,85.200001195E-6,0.0,
,,,85.400002718E-6,0.0,
,,,85.600004240E-6,0.0,
,,,85.799998487E-6,800.000011921E-3,
,,,86.000000010E-6,-800.000011921E-3,
,,,86.200001533E-6,1.6000000,
,,,86.400003056E-6,0.0,
,,,86.600004579E-6,0.0,
,,,86.799998826E-6,800.000011921E-3,
,,,87.000000349E-6,-800.000011921E-3,
,,,87.200001872E-6,0.0,
,,,87.400003395E-6,800.000011921E-3,
,,,87.600004917E-6,0.0,
,,,87.799999164E-6,800.000011921E-3,
,,,88.000000687E-6,0.0,
,,,88.200002210E-6,0.0,
,,,88.400003733E-6,0.0,
,,,88.600005256E-6,0.0,
,,,88.799999503E-6,800.000011921E-3,
,,,89.000001026E-6,0.0,
,,,89.200002549E-6,0.0,
,,,89.400004072E-6,0.0,
,,,89.599998319E-6,0.0,
,,,89.799999841E-6,0.0,
,,,90.000001364E-6,0.0,
,,,90.200002887E-6,0.0,
,,,90.400004410E-6,-800.000011921E-3,
,,,90.599998657E-6,0.0,
,,,90.800000180E-6,0.0,
,,,91.000001703E-6,0.0,
,,,91.200003226E-6,800.000011921E-3,
,,,91.400004749E-6,0.0,
,,,91.599998996E-6,800.000011921E-3,
,,,91.800000519E-6,0.0,
,,,92.000002041E-6,800.000011921E-3,
,,,92.200003564E-6,0.0,
,,,92.400005087E-6,800.000011921E-3,
,,,92.599999334E-6,0.0,
,,,92.800000857E-6,800.000011921E-3,
,,,93.000002380E-6,0.0,
,,,93.200003903E-6,0.0,
,,,93.399998150E-6,0.0,
,,,93.599999673E-6,0.0,
,,,93.800001196E-6,800.000011921E-3,
,,,94.000002719E-6,800.000011921E-3,
,,,94.200004241E-6,0.0,
,,,94.399998488E-6,0.0,
,,,94.600000011E-6,800.000011921E-3,
,,,94.800001534E-6,800.000011921E-3,
,,,95.000003057E-6,0.0,
,,,95.200004580E-6,800.000011921E-3,
,,,95.399998827E-6,800.000011921E-3,
,,,95.600000350E-6,800.000011921E-3,
,,,95.800001873E-6,0.0,
,,,96.000003396E-6,0.0,
,,,96.200004919E-6,0.0,
,,,96.399999165E-6,800.000011921E-3,
,,,96.600000688E-6,800.000011921E-3,
,,,96.800002211E-6,800.000011921E-3,
,,,97.000003734E-6,800.000011921E-3,
,,,97.200005257E-6,0.0,
,,,97.399999504E-6,0.0,
,,,97.600001027E-6,0.0,
,,,97.800002550E-6,0.0,
,,,98.000004073E-6,0.0,
,,,98.199998320E-6,800.000011921E-3,
,,,98.399999843E-6,0.0,
,,,98.600001365E-6,-800.000011921E-3,
,,,98.800002888E-6,0.0,
,,,99.000004411E-6,0.0,
,,,99.199998658E-6,800.000011921E-3,
,,,99.400000181E-6,800.000011921E-3,
,,,99.600001704E-6,0.0,
,,,99.800003227E-6,800.000011921E-3,
,,,100.0000047E-6,800.000011921E-3,
,,,100.1999990E-6,800.000011921E-3,
,,,100.4000005E-6,800.000011921E-3,
,,,100.6000020E-6,800.000011921E-3,
,,,100.8000036E-6,800.000011921E-3,
,,,101.0000051E-6,0.0,
,,,101.1999993E-6,0.0,
,,,101.4000009E-6,44.79999924,
,,,101.6000024E-6,46.40000153,
,,,101.8000039E-6,46.40000153,
,,,102.0000054E-6,45.60000229,
,,,102.1999997E-6,45.60000229,
,,,102.4000012E-6,46.40000153,
,,,102.6000027E-6,46.40000153,
,,,102.8000042E-6,46.40000153,
,,,102.9999985E-6,46.40000153,
,,,103.2000000E-6,45.60000229,
,,,103.4000015E-6,47.20000076,
,,,103.6000031E-6,46.40000153,
,,,103.8000046E-6,45.60000229,
,,,103.9999988E-6,48.79999924,
,,,104.2000004E-6,46.40000153,
,,,104.4000019E-6,47.20000076,
,,,104.6000034E-6,45.60000229,
,,,104.8000049E-6,45.60000229,
,,,104.9999992E-6,47.20000076,
,,,105.2000007E-6,47.20000076,
,,,105.4000022E-6,47.20000076,
,,,105.6000037E-6,47.20000076,
,,,105.8000053E-6,46.40000153,
,,,105.9999995E-6,47.20000076,
,,,106.2000010E-6,45.60000229,
,,,106.4000026E-6,46.40000153,
,,,106.6000041E-6,45.60000229,
,,,106.7999983E-6,47.20000076,
,,,106.9999998E-6,46.40000153,
,,,107.2000014E-6,46.40000153,
,,,107.4000029E-6,46.40000153,
,,,107.6000044E-6,48.00000000,
,,,107.7999987E-6,47.20000076,
,,,108.0000002E-6,47.20000076,
,,,108.2000017E-6,47.20000076,
,,,108.4000032E-6,46.40000153,
,,,108.6000048E-6,46.40000153,
,,,108.7999990E-6,45.60000229,
,,,109.0000005E-6,46.40000153,
,,,109.2000020E-6,47.20000076,
,,,109.4000036E-6,47.20000076,
,,,109.6000051E-6,47.20000076,
,,,109.7999993E-6,46.40000153,
,,,110.0000009E-6,46.40000153,
,,,110.2000024E-6,46.40000153,
,,,110.4000039E-6,47.20000076,
,,,110.6000054E-6,46.40000153,
,,,110.7999997E-6,47.20000076,
,,,111.0000012E-6,47.20000076,
,,,111.2000027E-6,47.20000076,
,,,111.4000042E-6,47.20000076,
,,,111.5999985E-6,45.60000229,
,,,111.8000000E-6,48.00000000,
,,,112.0000015E-6,48.00000000,
,,,112.2000031E-6,46.40000153,
,,,112.4000046E-6,47.20000076,
,,,112.5999988E-6,47.20000076,
,,,112.8000004E-6,47.20000076,
,,,113.0000019E-6,46.40000153,
,,,113.2000034E-6,46.40000153,
,,,113.4000049E-6,46.40000153,
,,,113.5999992E-6,47.20000076,
,,,113.8000007E-6,46.40000153,
,,,114.0000022E-6,47.20000076,
,,,114.2000037E-6,47.20000076,
,,,114.4000053E-6,47.20000076,
,,,114.5999995E-6,47.20000076,
,,,114.8000010E-6,47.20000076,
,,,115.0000026E-6,47.20000076,
,,,115.2000041E-6,46.40000153,
,,,115.4000056E-6,47.20000076,
,,,115.5999998E-6,47.20000076,
,,,115.8000014E-6,46.40000153,
,,,116.0000029E-6,47.20000076,
,,,116.2000044E-6,46.40000153,
,,,116.3999987E-6,47.20000076,
,,,116.6000002E-6,47.20000076,
,,,116.8000017E-6,47.20000076,
,,,117.0000032E-6,46.40000153,
,,,117.2000048E-6,47.20000076,
,,,117.3999990E-6,47.20000076,
,,,117.6000005E-6,47.20000076,
,,,117.8000020E-6,48.00000000,
,,,118.0000036E-6,47.20000076,
