data/1_1 koper(ii)chloride_b H20/T2/delay970u002.csv

Record Length,2500,Points,-590.000010561E-6,0.0,
Sample Interval,1.000000E-6,s,-589.000002947E-6,800.000011921E-3,
Trigger Point,590.000012051,Samples,-587.999995332E-6,800.000011921E-3,
,,,-586.999987718E-6,800.000011921E-3,
,,,-586.000038311E-6,0.0,
,,,-585.000030696E-6,800.000011921E-3,
Source,CH2,,-584.000023082E-6,0.0,
Vertical Units,Volts,,-583.000015467E-6,0.0,
Vertical Scale,20.0000003,,-582.000007853E-6,800.000011921E-3,
Vertical Offset,0,,-581.000000238E-6,0.0,
Horizontal Units,s,,-579.999992624E-6,800.000011921E-3,
Horizontal Scale,249.99999937E-6,,-578.999985009E-6,0.0,
Pt Fmt,Y,,-578.000035603E-6,0.0,
Yzero,-2.0000000,,-577.000027988E-6,0.0,
Probe Atten,10.0000000,,-576.000020374E-6,0.0,
,,,-575.000012759E-6,0.0,
Note,TDS 2024B - 12:16:42   16-11-2021,,-574.000005145E-6,800.000011921E-3,
,,,-572.999997530E-6,800.000011921E-3,
,,,-571.999989916E-6,800.000011921E-3,
,,,-570.999982301E-6,800.000011921E-3,
,,,-570.000032894E-6,800.000011921E-3,
,,,-569.000025280E-6,800.000011921E-3,
,,,-568.000017665E-6,0.0,
,,,-567.000010051E-6,0.0,
,,,-566.000002436E-6,0.0,
,,,-564.999994822E-6,800.000011921E-3,
,,,-563.999987207E-6,1.6000000,
,,,-563.000037801E-6,800.000011921E-3,
,,,-562.000030186E-6,800.000011921E-3,
,,,-561.000022572E-6,800.000011921E-3,
,,,-560.000014957E-6,800.000011921E-3,
,,,-559.000007343E-6,800.000011921E-3,
,,,-557.999999728E-6,800.000011921E-3,
,,,-556.999992114E-6,800.000011921E-3,
,,,-555.999984499E-6,800.000011921E-3,
,,,-555.000035092E-6,800.000011921E-3,
,,,-554.000027478E-6,0.0,
,,,-553.000019863E-6,0.0,
,,,-552.000012249E-6,0.0,
,,,-551.000004634E-6,0.0,
,,,-549.999997020E-6,0.0,
,,,-548.999989405E-6,0.0,
,,,-547.999981791E-6,0.0,
,,,-547.000032384E-6,0.0,
,,,-546.000024769E-6,0.0,
,,,-545.000017155E-6,0.0,
,,,-544.000009540E-6,0.0,
,,,-543.000001926E-6,0.0,
,,,-541.999994311E-6,0.0,
,,,-540.999986697E-6,0.0,
,,,-540.000037290E-6,0.0,
,,,-539.000029676E-6,0.0,
,,,-538.000022061E-6,0.0,
,,,-537.000014447E-6,0.0,
,,,-536.000006832E-6,0.0,
,,,-534.999999218E-6,0.0,
,,,-533.999991603E-6,0.0,
,,,-532.999983989E-6,0.0,
,,,-532.000034582E-6,0.0,
,,,-531.000026967E-6,0.0,
,,,-530.000019353E-6,0.0,
,,,-529.000011738E-6,0.0,
,,,-528.000004124E-6,0.0,
,,,-526.999996509E-6,0.0,
,,,-525.999988895E-6,0.0,
,,,-525.000039488E-6,0.0,
,,,-524.000031874E-6,0.0,
,,,-523.000024259E-6,0.0,
,,,-522.000016645E-6,0.0,
,,,-521.000009030E-6,0.0,
,,,-520.000001416E-6,0.0,
,,,-518.999993801E-6,0.0,
,,,-517.999986187E-6,0.0,
,,,-517.000036780E-6,0.0,
,,,-516.000029165E-6,0.0,
,,,-515.000021551E-6,0.0,
,,,-514.000013936E-6,0.0,
,,,-513.000006322E-6,0.0,
,,,-511.999998707E-6,0.0,
,,,-510.999991093E-6,0.0,
,,,-509.999983478E-6,0.0,
,,,-509.000034072E-6,0.0,
,,,-508.000026457E-6,0.0,
,,,-507.000018843E-6,0.0,
,,,-506.000011228E-6,0.0,
,,,-505.000003614E-6,0.0,
,,,-503.999995999E-6,0.0,
,,,-502.999988385E-6,0.0,
,,,-502.000038978E-6,0.0,
,,,-501.000031363E-6,-800.000011921E-3,
,,,-500.000023749E-6,-800.000011921E-3,
,,,-499.000016134E-6,-800.000011921E-3,
,,,-498.000008520E-6,-800.000011921E-3,
,,,-497.000000905E-6,-800.000011921E-3,
,,,-495.999993291E-6,-800.000011921E-3,
,,,-494.999985676E-6,-800.000011921E-3,
,,,-494.000036269E-6,-800.000011921E-3,
,,,-493.000028655E-6,-800.000011921E-3,
,,,-492.000021040E-6,-800.000011921E-3,
,,,-491.000013426E-6,0.0,
,,,-490.000005811E-6,0.0,
,,,-488.999998197E-6,0.0,
,,,-488.000019686E-6,0.0,
,,,-487.000012072E-6,0.0,
,,,-486.000004457E-6,0.0,
,,,-484.999996843E-6,0.0,
,,,-484.000018332E-6,0.0,
,,,-483.000010718E-6,0.0,
,,,-482.000003103E-6,0.0,
,,,-481.000024593E-6,0.0,
,,,-480.000016978E-6,0.0,
,,,-479.000009364E-6,0.0,
,,,-478.000001749E-6,0.0,
,,,-477.000023238E-6,0.0,
,,,-476.000015624E-6,0.0,
,,,-475.000008009E-6,0.0,
,,,-474.000000395E-6,0.0,
,,,-473.000021884E-6,0.0,
,,,-472.000014270E-6,0.0,
,,,-471.000006655E-6,0.0,
,,,-469.999999041E-6,0.0,
,,,-469.000020530E-6,-800.000011921E-3,
,,,-468.000012916E-6,0.0,
,,,-467.000005301E-6,0.0,
,,,-465.999997687E-6,0.0,
,,,-465.000019176E-6,0.0,
,,,-464.000011561E-6,0.0,
,,,-463.000003947E-6,0.0,
,,,-462.000025436E-6,0.0,
,,,-461.000017822E-6,800.000011921E-3,
,,,-460.000010207E-6,800.000011921E-3,
,,,-459.000002593E-6,0.0,
,,,-458.000024082E-6,0.0,
,,,-457.000016468E-6,0.0,
,,,-456.000008853E-6,0.0,
,,,-455.000001239E-6,0.0,
,,,-454.000022728E-6,0.0,
,,,-453.000015114E-6,0.0,
,,,-452.000007499E-6,0.0,
,,,-450.999999885E-6,0.0,
,,,-450.000021374E-6,0.0,
,,,-449.000013759E-6,0.0,
,,,-448.000006145E-6,0.0,
,,,-446.999998530E-6,0.0,
,,,-446.000020020E-6,0.0,
,,,-445.000012405E-6,0.0,
,,,-444.000004791E-6,0.0,
,,,-442.999997176E-6,0.0,
,,,-442.000018666E-6,-800.000011921E-3,
,,,-441.000011051E-6,0.0,
,,,-440.000003437E-6,0.0,
,,,-439.000024926E-6,-800.000011921E-3,
,,,-438.000017311E-6,0.0,
,,,-437.000009697E-6,0.0,
,,,-436.000002082E-6,0.0,
,,,-435.000023572E-6,0.0,
,,,-434.000015957E-6,0.0,
,,,-433.000008343E-6,0.0,
,,,-432.000000728E-6,0.0,
,,,-431.000022218E-6,800.000011921E-3,
,,,-430.000014603E-6,800.000011921E-3,
,,,-429.000006989E-6,0.0,
,,,-427.999999374E-6,800.000011921E-3,
,,,-427.000020863E-6,800.000011921E-3,
,,,-426.000013249E-6,800.000011921E-3,
,,,-425.000005635E-6,0.0,
,,,-423.999998020E-6,0.0,
,,,-423.000019509E-6,0.0,
,,,-422.000011895E-6,0.0,
,,,-421.000004280E-6,0.0,
,,,-419.999996666E-6,800.000011921E-3,
,,,-419.000018155E-6,800.000011921E-3,
,,,-418.000010541E-6,800.000011921E-3,
,,,-417.000002926E-6,0.0,
,,,-416.000024416E-6,0.0,
,,,-415.000016801E-6,0.0,
,,,-414.000009187E-6,0.0,
,,,-413.000001572E-6,0.0,
,,,-412.000023061E-6,0.0,
,,,-411.000015447E-6,0.0,
,,,-410.000007832E-6,0.0,
,,,-409.000000218E-6,0.0,
,,,-408.000021707E-6,-800.000011921E-3,
,,,-407.000014093E-6,-800.000011921E-3,
,,,-406.000006478E-6,-800.000011921E-3,
,,,-404.999998864E-6,0.0,
,,,-404.000020353E-6,-800.000011921E-3,
,,,-403.00001274E-6,0.0,
,,,-402.00000512E-6,0.0,
,,,-400.99999751E-6,0.0,
,,,-400.00001900E-6,0.0,
,,,-399.00001138E-6,0.0,
,,,-398.00000377E-6,-800.000011921E-3,
,,,-397.00002526E-6,0.0,
,,,-396.00001764E-6,0.0,
,,,-395.00001003E-6,0.0,
,,,-394.00000242E-6,0.0,
,,,-393.00002391E-6,0.0,
,,,-392.00001629E-6,0.0,
,,,-391.00000868E-6,0.0,
,,,-390.00000106E-6,0.0,
,,,-389.00002255E-6,0.0,
,,,-388.00001494E-6,0.0,
,,,-387.00000732E-6,0.0,
,,,-385.99999971E-6,0.0,
,,,-385.00002120E-6,0.0,
,,,-384.00001358E-6,0.0,
,,,-383.00000597E-6,0.0,
,,,-381.99999835E-6,0.0,
,,,-381.00001984E-6,0.0,
,,,-380.00001223E-6,0.0,
,,,-379.00000461E-6,0.0,
,,,-377.99999700E-6,0.0,
,,,-377.00001849E-6,0.0,
,,,-376.00001087E-6,0.0,
,,,-375.00000326E-6,0.0,
,,,-374.00002475E-6,0.0,
,,,-373.00001713E-6,0.0,
,,,-372.00000952E-6,0.0,
,,,-371.00000191E-6,0.0,
,,,-370.00002339E-6,0.0,
,,,-369.00001578E-6,0.0,
,,,-368.00000817E-6,0.0,
,,,-367.00000055E-6,0.0,
,,,-366.00002204E-6,0.0,
,,,-365.00001443E-6,0.0,
,,,-364.00000681E-6,-800.000011921E-3,
,,,-362.99999920E-6,0.0,
,,,-362.00002069E-6,0.0,
,,,-361.00001307E-6,0.0,
,,,-360.00000546E-6,-800.000011921E-3,
,,,-358.99999784E-6,0.0,
,,,-358.00001933E-6,0.0,
,,,-357.00001172E-6,0.0,
,,,-356.00000410E-6,0.0,
,,,-355.00002559E-6,0.0,
,,,-354.00001798E-6,0.0,
,,,-353.00001036E-6,-800.000011921E-3,
,,,-352.00000275E-6,-800.000011921E-3,
,,,-351.00002424E-6,-800.000011921E-3,
,,,-350.00001662E-6,0.0,
,,,-349.00000901E-6,-800.000011921E-3,
,,,-348.00000140E-6,-800.000011921E-3,
,,,-347.00002288E-6,0.0,
,,,-346.00001527E-6,0.0,
,,,-345.00000766E-6,-800.000011921E-3,
,,,-344.00000004E-6,-800.000011921E-3,
,,,-343.00002153E-6,-800.000011921E-3,
,,,-342.00001392E-6,-800.000011921E-3,
,,,-341.00000630E-6,-800.000011921E-3,
,,,-339.99999869E-6,-800.000011921E-3,
,,,-339.00002018E-6,0.0,
,,,-338.00001256E-6,-800.000011921E-3,
,,,-337.00000495E-6,-800.000011921E-3,
,,,-335.99999733E-6,-800.000011921E-3,
,,,-335.00001882E-6,-800.000011921E-3,
,,,-334.00001121E-6,-800.000011921E-3,
,,,-333.00000359E-6,-800.000011921E-3,
,,,-332.00002508E-6,0.0,
,,,-331.00001747E-6,0.0,
,,,-330.00000985E-6,0.0,
,,,-329.00000224E-6,0.0,
,,,-328.00002373E-6,-800.000011921E-3,
,,,-327.00001611E-6,0.0,
,,,-326.00000850E-6,0.0,
,,,-325.00000088E-6,0.0,
,,,-324.00002237E-6,0.0,
,,,-323.00001476E-6,0.0,
,,,-322.00000715E-6,-800.000011921E-3,
,,,-320.99999953E-6,0.0,
,,,-320.00002102E-6,-800.000011921E-3,
,,,-319.00001341E-6,-800.000011921E-3,
,,,-318.00000579E-6,-800.000011921E-3,
,,,-316.99999818E-6,0.0,
,,,-316.00001967E-6,-800.000011921E-3,
,,,-315.00001205E-6,-800.000011921E-3,
,,,-314.00000444E-6,0.0,
,,,-312.99999682E-6,0.0,
,,,-312.00001831E-6,0.0,
,,,-311.00001070E-6,0.0,
,,,-310.00000308E-6,0.0,
,,,-309.00002457E-6,0.0,
,,,-308.00001696E-6,0.0,
,,,-307.00000934E-6,0.0,
,,,-306.00000173E-6,0.0,
,,,-305.00002322E-6,0.0,
,,,-304.00001560E-6,-800.000011921E-3,
,,,-303.00000799E-6,0.0,
,,,-302.00000037E-6,0.0,
,,,-301.00002186E-6,0.0,
,,,-300.00001425E-6,0.0,
,,,-299.00000663E-6,-800.000011921E-3,
,,,-297.99999902E-6,0.0,
,,,-297.00002051E-6,-800.000011921E-3,
,,,-296.00001290E-6,0.0,
,,,-295.00000528E-6,0.0,
,,,-293.99999767E-6,0.0,
,,,-293.00001916E-6,0.0,
,,,-292.00001154E-6,0.0,
,,,-291.00000393E-6,0.0,
,,,-290.00002542E-6,0.0,
,,,-289.00001780E-6,800.000011921E-3,
,,,-288.00001019E-6,1.6000000,
,,,-287.00000257E-6,1.6000000,
,,,-286.00002406E-6,1.6000000,
,,,-285.00001645E-6,800.000011921E-3,
,,,-284.00000883E-6,800.000011921E-3,
,,,-283.00000122E-6,800.000011921E-3,
,,,-282.00002271E-6,800.000011921E-3,
,,,-281.00001509E-6,800.000011921E-3,
,,,-280.00000748E-6,800.000011921E-3,
,,,-278.99999986E-6,800.000011921E-3,
,,,-278.00002135E-6,800.000011921E-3,
,,,-277.00001374E-6,800.000011921E-3,
,,,-276.00000612E-6,0.0,
,,,-274.99999851E-6,800.000011921E-3,
,,,-274.00002000E-6,800.000011921E-3,
,,,-273.00001238E-6,0.0,
,,,-272.00000477E-6,0.0,
,,,-270.99999716E-6,0.0,
,,,-270.00001865E-6,0.0,
,,,-269.00001103E-6,0.0,
,,,-268.00000342E-6,0.0,
,,,-267.00002491E-6,-800.000011921E-3,
,,,-266.00001729E-6,0.0,
,,,-265.00000968E-6,0.0,
,,,-264.00000206E-6,0.0,
,,,-263.00002355E-6,0.0,
,,,-262.00001594E-6,0.0,
,,,-261.00000832E-6,800.000011921E-3,
,,,-260.00000071E-6,800.000011921E-3,
,,,-259.00002220E-6,800.000011921E-3,
,,,-258.00001458E-6,0.0,
,,,-257.00000697E-6,0.0,
,,,-255.99999935E-6,0.0,
,,,-255.00002084E-6,0.0,
,,,-254.00001323E-6,800.000011921E-3,
,,,-253.00000561E-6,800.000011921E-3,
,,,-251.99999800E-6,0.0,
,,,-251.00001949E-6,0.0,
,,,-250.00001187E-6,0.0,
,,,-249.00000426E-6,0.0,
,,,-248.00002575E-6,800.000011921E-3,
,,,-247.00001813E-6,800.000011921E-3,
,,,-246.00001052E-6,0.0,
,,,-245.00000291E-6,0.0,
,,,-244.00000984E-6,0.0,
,,,-243.00001678E-6,-800.000011921E-3,
,,,-242.00000917E-6,0.0,
,,,-241.00001610E-6,0.0,
,,,-240.00000849E-6,-800.000011921E-3,
,,,-239.00001543E-6,-800.000011921E-3,
,,,-238.00000781E-6,-800.000011921E-3,
,,,-237.00001475E-6,0.0,
,,,-236.00000713E-6,0.0,
,,,-235.00001407E-6,-800.000011921E-3,
,,,-234.00000646E-6,0.0,
,,,-233.00001340E-6,0.0,
,,,-232.00000578E-6,0.0,
,,,-231.00001272E-6,0.0,
,,,-230.00000510E-6,0.0,
,,,-229.00001204E-6,0.0,
,,,-228.00000443E-6,0.0,
,,,-227.00001136E-6,0.0,
,,,-226.00001830E-6,0.0,
,,,-225.00001069E-6,0.0,
,,,-224.00001762E-6,-800.000011921E-3,
,,,-223.00001001E-6,-800.000011921E-3,
,,,-222.00001695E-6,0.0,
,,,-221.00000933E-6,0.0,
,,,-220.00001627E-6,0.0,
,,,-219.00000866E-6,0.0,
,,,-218.00001559E-6,0.0,
,,,-217.00000798E-6,0.0,
,,,-216.00001492E-6,0.0,
,,,-215.00000730E-6,0.0,
,,,-214.00001424E-6,-800.000011921E-3,
,,,-213.00000662E-6,0.0,
,,,-212.00001356E-6,0.0,
,,,-211.00000595E-6,0.0,
,,,-210.00001288E-6,800.000011921E-3,
,,,-209.00000527E-6,0.0,
,,,-208.00001221E-6,0.0,
,,,-207.00000459E-6,0.0,
,,,-206.00001153E-6,0.0,
,,,-205.00001847E-6,0.0,
,,,-204.00001085E-6,0.0,
,,,-203.00001779E-6,0.0,
,,,-202.00001018E-6,0.0,
,,,-201.00001711E-6,0.0,
,,,-200.00000950E-6,800.000011921E-3,
,,,-199.00001644E-6,0.0,
,,,-198.00000882E-6,800.000011921E-3,
,,,-197.00001576E-6,800.000011921E-3,
,,,-196.00000815E-6,0.0,
,,,-195.00001508E-6,0.0,
,,,-194.00000747E-6,0.0,
,,,-193.00001441E-6,0.0,
,,,-192.00000679E-6,0.0,
,,,-191.00001373E-6,0.0,
,,,-190.00000611E-6,0.0,
,,,-189.00001305E-6,0.0,
,,,-188.00000544E-6,0.0,
,,,-187.00001237E-6,0.0,
,,,-186.00000476E-6,800.000011921E-3,
,,,-185.00001170E-6,800.000011921E-3,
,,,-184.00001863E-6,0.0,
,,,-183.00001102E-6,0.0,
,,,-182.00001796E-6,0.0,
,,,-181.00001034E-6,0.0,
,,,-180.00001728E-6,0.0,
,,,-179.00000967E-6,0.0,
,,,-178.00001660E-6,0.0,
,,,-177.00000899E-6,-800.000011921E-3,
,,,-176.00001593E-6,0.0,
,,,-175.00000831E-6,-800.000011921E-3,
,,,-174.00001525E-6,0.0,
,,,-173.00000763E-6,-800.000011921E-3,
,,,-172.00001457E-6,-800.000011921E-3,
,,,-171.00000696E-6,-800.000011921E-3,
,,,-170.00001390E-6,0.0,
,,,-169.00000628E-6,-800.000011921E-3,
,,,-168.00001322E-6,-800.000011921E-3,
,,,-167.00000560E-6,0.0,
,,,-166.00001254E-6,-800.000011921E-3,
,,,-165.00000493E-6,0.0,
,,,-164.00001186E-6,0.0,
,,,-163.00001880E-6,0.0,
,,,-162.00001119E-6,0.0,
,,,-161.00001812E-6,0.0,
,,,-160.00001051E-6,0.0,
,,,-159.00001745E-6,0.0,
,,,-158.00000983E-6,0.0,
,,,-157.00001677E-6,0.0,
,,,-156.00000916E-6,0.0,
,,,-155.00001609E-6,0.0,
,,,-154.00000848E-6,0.0,
,,,-153.00001542E-6,0.0,
,,,-152.00000780E-6,0.0,
,,,-151.00001474E-6,0.0,
,,,-150.00000712E-6,0.0,
,,,-149.00001406E-6,0.0,
,,,-148.0000064E-6,0.0,
,,,-147.0000134E-6,0.0,
,,,-146.0000058E-6,0.0,
,,,-145.0000127E-6,0.0,
,,,-144.0000051E-6,0.0,
,,,-143.0000120E-6,-800.000011921E-3,
,,,-142.0000044E-6,0.0,
,,,-141.0000114E-6,-800.000011921E-3,
,,,-140.0000183E-6,-800.000011921E-3,
,,,-139.0000107E-6,-800.000011921E-3,
,,,-138.0000176E-6,-800.000011921E-3,
,,,-137.0000100E-6,-800.000011921E-3,
,,,-136.0000169E-6,-800.000011921E-3,
,,,-135.0000093E-6,-800.000011921E-3,
,,,-134.0000163E-6,-800.000011921E-3,
,,,-133.0000086E-6,-800.000011921E-3,
,,,-132.0000156E-6,-800.000011921E-3,
,,,-131.0000080E-6,0.0,
,,,-130.0000149E-6,0.0,
,,,-129.0000073E-6,-800.000011921E-3,
,,,-128.0000142E-6,0.0,
,,,-127.0000066E-6,0.0,
,,,-126.0000136E-6,-800.000011921E-3,
,,,-125.0000059E-6,-800.000011921E-3,
,,,-124.0000129E-6,-800.000011921E-3,
,,,-123.0000053E-6,0.0,
,,,-122.0000122E-6,0.0,
,,,-121.0000119E-6,0.0,
,,,-120.0000115E-6,0.0,
,,,-119.0000112E-6,0.0,
,,,-118.0000108E-6,0.0,
,,,-117.0000105E-6,0.0,
,,,-116.0000102E-6,0.0,
,,,-115.0000098E-6,0.0,
,,,-114.0000095E-6,0.0,
,,,-113.0000092E-6,0.0,
,,,-112.0000088E-6,0.0,
,,,-111.0000085E-6,0.0,
,,,-110.0000081E-6,0.0,
,,,-109.0000151E-6,0.0,
,,,-108.0000147E-6,800.000011921E-3,
,,,-107.0000144E-6,0.0,
,,,-106.0000141E-6,0.0,
,,,-105.0000137E-6,0.0,
,,,-104.0000134E-6,0.0,
,,,-103.0000130E-6,0.0,
,,,-102.0000127E-6,0.0,
,,,-101.0000124E-6,0.0,
,,,-100.0000120E-6,-800.000011921E-3,
,,,-99.000011687E-6,0.0,
,,,-98.000011349E-6,0.0,
,,,-97.000011010E-6,0.0,
,,,-96.000010672E-6,0.0,
,,,-95.000010333E-6,0.0,
,,,-94.000009994E-6,0.0,
,,,-93.000009656E-6,-800.000011921E-3,
,,,-92.000009317E-6,-800.000011921E-3,
,,,-91.000008979E-6,-800.000011921E-3,
,,,-90.000008640E-6,0.0,
,,,-89.000008302E-6,0.0,
,,,-88.000015239E-6,0.0,
,,,-87.000014901E-6,800.000011921E-3,
,,,-86.000014562E-6,800.000011921E-3,
,,,-85.000014224E-6,800.000011921E-3,
,,,-84.000013885E-6,800.000011921E-3,
,,,-83.000013547E-6,0.0,
,,,-82.000013208E-6,0.0,
,,,-81.000012869E-6,0.0,
,,,-80.000012531E-6,0.0,
,,,-79.000012192E-6,0.0,
,,,-78.000011854E-6,0.0,
,,,-77.000011515E-6,0.0,
,,,-76.000011177E-6,0.0,
,,,-75.000010838E-6,0.0,
,,,-74.000010500E-6,800.000011921E-3,
,,,-73.000010161E-6,0.0,
,,,-72.000009823E-6,0.0,
,,,-71.000009484E-6,800.000011921E-3,
,,,-70.000009146E-6,0.0,
,,,-69.000008807E-6,0.0,
,,,-68.000008469E-6,0.0,
,,,-67.000015406E-6,0.0,
,,,-66.000015067E-6,0.0,
,,,-65.000014729E-6,0.0,
,,,-64.000014390E-6,0.0,
,,,-63.000014052E-6,0.0,
,,,-62.000013713E-6,800.000011921E-3,
,,,-61.000013375E-6,800.000011921E-3,
,,,-60.000013036E-6,0.0,
,,,-59.000012698E-6,0.0,
,,,-58.000012359E-6,0.0,
,,,-57.000012021E-6,0.0,
,,,-56.000011682E-6,-800.000011921E-3,
,,,-55.000011344E-6,0.0,
,,,-54.00001100E-6,0.0,
,,,-53.00001067E-6,0.0,
,,,-52.00001033E-6,0.0,
,,,-51.00001363E-6,0.0,
,,,-50.00001329E-6,0.0,
,,,-49.00001295E-6,0.0,
,,,-48.00001261E-6,0.0,
,,,-47.00001227E-6,0.0,
,,,-46.00001193E-6,0.0,
,,,-45.00001160E-6,0.0,
,,,-44.00001126E-6,0.0,
,,,-43.00001092E-6,0.0,
,,,-42.00001058E-6,0.0,
,,,-41.00001024E-6,0.0,
,,,-40.00001354E-6,0.0,
,,,-39.00001320E-6,0.0,
,,,-38.00001286E-6,0.0,
,,,-37.00001253E-6,0.0,
,,,-36.00001219E-6,0.0,
,,,-35.00001185E-6,0.0,
,,,-34.00001151E-6,0.0,
,,,-33.00001117E-6,0.0,
,,,-32.00001083E-6,-800.000011921E-3,
,,,-31.00001049E-6,0.0,
,,,-30.00001198E-6,0.0,
,,,-29.00001164E-6,0.0,
,,,-28.00001130E-6,0.0,
,,,-27.00001278E-6,0.0,
,,,-26.00001244E-6,0.0,
,,,-25.00001210E-6,0.0,
,,,-24.00001176E-6,0.0,
,,,-23.00001142E-6,0.0,
,,,-22.00001109E-6,0.0,
,,,-21.00001257E-6,-800.000011921E-3,
,,,-20.0000122E-6,0.0,
,,,-19.0000119E-6,-800.000011921E-3,
,,,-18.0000116E-6,-800.000011921E-3,
,,,-17.0000112E-6,0.0,
,,,-16.0000127E-6,0.0,
,,,-15.0000124E-6,0.0,
,,,-14.0000120E-6,-800.000011921E-3,
,,,-13.0000117E-6,0.0,
,,,-12.0000122E-6,0.0,
,,,-11.0000119E-6,0.0,
,,,-10.0000125E-6,0.0,
,,,-9.000012142E-6,0.0,
,,,-8.000011803E-6,0.0,
,,,-7.00001192E-6,0.0,
,,,-6.00001204E-6,0.0,
,,,-5.00001215E-6,0.0,
,,,-4.00001227E-6,0.0,
,,,-3.00001193E-6,0.0,
,,,-2.0000120E-6,0.0,
,,,-1.0000120E-6,0.0,
,,,-12.0508047E-12,-800.000011921E-3,
,,,999.987946670E-9,9.600000381,
,,,1.9999879E-6,28.00000000,
,,,2.99998783E-6,43.20000076,
,,,3.99998771E-6,54.40000153,
,,,4.99998805E-6,64.000000000,
,,,5.99998793E-6,72.000000000,
,,,6.99998782E-6,78.400001526,
,,,7.999988156E-6,83.200004578,
,,,8.999987585E-6,87.200004578,
,,,9.999987924E-6,90.400001526,
,,,10.9999883E-6,92.800003052,
,,,11.9999877E-6,95.200004578,
,,,12.9999880E-6,97.599998474,
,,,13.9999884E-6,98.400001526,
,,,14.9999878E-6,100.0000000,
,,,15.9999872E-6,100.8000031,
,,,16.9999876E-6,101.5999985,
,,,17.9999879E-6,102.4000015,
,,,18.9999882E-6,102.4000015,
,,,19.9999886E-6,103.2000046,
,,,20.99998710E-6,103.2000046,
,,,21.99998744E-6,103.2000046,
,,,22.99998778E-6,103.2000046,
,,,23.99998812E-6,104.0000000,
,,,24.99998845E-6,104.0000000,
,,,25.99998697E-6,104.0000000,
,,,26.99998731E-6,104.8000031,
,,,27.99998765E-6,104.8000031,
,,,28.99998799E-6,104.8000031,
,,,29.99998833E-6,104.8000031,
,,,30.99998867E-6,104.8000031,
,,,31.99998901E-6,104.8000031,
,,,32.99998934E-6,104.8000031,
,,,33.99998968E-6,104.8000031,
,,,34.99998638E-6,104.8000031,
,,,35.99998672E-6,104.8000031,
,,,36.99998706E-6,104.8000031,
,,,37.99998740E-6,104.8000031,
,,,38.99998774E-6,104.8000031,
,,,39.99998808E-6,104.8000031,
,,,40.99998841E-6,104.8000031,
,,,41.99998875E-6,104.8000031,
,,,42.99998909E-6,104.8000031,
,,,43.99998943E-6,104.8000031,
,,,44.99998613E-6,104.8000031,
,,,45.99998647E-6,104.8000031,
,,,46.99998681E-6,104.8000031,
,,,47.99998715E-6,104.8000031,
,,,48.99998748E-6,104.8000031,
,,,49.99998782E-6,104.8000031,
,,,50.99998816E-6,104.8000031,
,,,51.99998850E-6,104.8000031,
,,,52.99998884E-6,104.8000031,
,,,53.99998918E-6,104.8000031,
,,,54.999989516E-6,104.8000031,
,,,55.999986216E-6,104.8000031,
,,,56.999986555E-6,104.8000031,
,,,57.999986893E-6,104.8000031,
,,,58.999987232E-6,104.8000031,
,,,59.999987570E-6,104.8000031,
,,,60.999987909E-6,105.5999985,
,,,61.999984609E-6,104.8000031,
,,,62.999984948E-6,104.8000031,
,,,63.999985287E-6,104.8000031,
,,,64.999985625E-6,104.8000031,
,,,65.999985964E-6,100.0000000,
,,,66.999986302E-6,93.599998474,
,,,67.999986641E-6,87.200004578,
,,,68.999986979E-6,80.800003052,
,,,69.999987318E-6,75.200004578,
,,,70.999987656E-6,70.400001526,
,,,71.999987995E-6,65.599998474,
,,,72.999988333E-6,61.600002289,
,,,73.999988672E-6,58.400001526,
,,,74.999989010E-6,55.200000763,
,,,75.999989349E-6,52.00000000,
,,,76.999989687E-6,50.40000153,
,,,77.999990026E-6,48.00000000,
,,,78.999990365E-6,47.20000076,
,,,79.999990703E-6,45.60000229,
,,,80.999991042E-6,44.79999924,
,,,81.999984104E-6,44.00000000,
,,,82.999984443E-6,43.20000076,
,,,83.999984781E-6,43.20000076,
,,,84.999985120E-6,42.40000153,
,,,85.999985458E-6,42.40000153,
,,,86.999985797E-6,42.40000153,
